node	n_desc	lineage	coll	New	Recent	Internal	Notes	fst	support
859	all	3							
859	848	3,1	3	Y				0,34	100
859	11	3,2	3	Y				0,34	100
848	6	3.2.1	3	Y	Y			0,64	100
848	5	3.2.2	3	Y	Y			0,64	100
2	810	3.1.1	3	Y	Y			0,53	100
2	38	3.1.2	3	Y	Y			0,53	100
317	74	3.1.1.i2	3.1.2			Y		0,38	100
391	214	3.1.1.i1	3.1.1			Y		0,48	100
				6	4	2			
