ERR015609	furio2020
ERR015610	furio2020
ERR015611	furio2020
ERR015612	furio2020
ERR015613	furio2020
ERR015614	furio2020
ERR015615	furio2020
ERR015616	furio2020
ERR025836	furio2020
ERR025845	furio2020
ERR025848	furio2020
ERR038258	furio2020
ERR038259	furio2020
ERR038260	furio2020
ERR038262	furio2020
ERR038264	furio2020
ERR038267	furio2020
ERR038273	furio2020
ERR038277	furio2020
ERR038278	furio2020
ERR038280	furio2020
ERR038282	furio2020
ERR038287	furio2020
ERR038289	furio2020
ERR038291	furio2020
ERR038292	furio2020
ERR038300	furio2020
ERR038736	furio2020
ERR038738	furio2020
ERR038740	furio2020
ERR038741	furio2020
ERR038742	furio2020
ERR038743	furio2020
ERR038745	furio2020
ERR038746	furio2020
ERR038747	furio2020
ERR038748	furio2020
ERR038749	furio2020
ERR038750	furio2020
ERR038751	furio2020
ERR038753	furio2020
ERR039324	furio2020
ERR039325	furio2020
ERR039326	furio2020
ERR039330	furio2020
ERR039331	furio2020
ERR039332	furio2020
ERR039333	furio2020
ERR039334	furio2020
ERR039339	furio2020
ERR039341	furio2020
ERR039344	furio2020
ERR039345	furio2020
ERR040086	furio2020
ERR040089	furio2020
ERR040091	furio2020
ERR040092	furio2020
ERR040093	furio2020
ERR040108	furio2020
ERR040112	furio2020
ERR040114	furio2020
ERR040118	furio2020
ERR040120	furio2020
ERR040121	furio2020
ERR040122	furio2020
ERR040124	furio2020
ERR040125	furio2020
ERR040126	furio2020
ERR040131	furio2020
ERR040132	furio2020
ERR040133	furio2020
ERR040135	furio2020
ERR040137	furio2020
ERR040138	furio2020
ERR040139	furio2020
ERR040142	furio2020
ERR046731	furio2020
ERR046732	furio2020
ERR046739	furio2020
ERR046742	furio2020
ERR046757	furio2020
ERR046776	furio2020
ERR046779	furio2020
ERR046780	furio2020
ERR046781	furio2020
ERR046789	furio2020
ERR046792	furio2020
ERR046802	furio2020
ERR046803	furio2020
ERR046804	furio2020
ERR046805	furio2020
ERR046808	furio2020
ERR046809	furio2020
ERR046812	furio2020
ERR046814	furio2020
ERR046815	furio2020
ERR046816	furio2020
ERR046817	furio2020
ERR046823	furio2020
ERR046824	furio2020
ERR046825	furio2020
ERR046831	furio2020
ERR046833	furio2020
ERR046834	furio2020
ERR046835	furio2020
ERR046836	furio2020
ERR046837	furio2020
ERR046838	furio2020
ERR046839	furio2020
ERR046844	furio2020
ERR046846	furio2020
ERR046848	furio2020
ERR046849	furio2020
ERR046855	furio2020
ERR046856	furio2020
ERR046857	furio2020
ERR046858	furio2020
ERR046859	furio2020
ERR046862	furio2020
ERR046863	furio2020
ERR046864	furio2020
ERR046865	furio2020
ERR046868	furio2020
ERR046869	furio2020
ERR046870	furio2020
ERR046871	furio2020
ERR046872	furio2020
ERR046873	furio2020
ERR046874	furio2020
ERR046875	furio2020
ERR046880	furio2020
ERR046881	furio2020
ERR046884	furio2020
ERR046885	furio2020
ERR046887	furio2020
ERR046888	furio2020
ERR046889	furio2020
ERR046890	furio2020
ERR046891	furio2020
ERR046892	furio2020
ERR046893	furio2020
ERR046894	furio2020
ERR046895	furio2020
ERR046896	furio2020
ERR046898	furio2020
ERR046901	furio2020
ERR046903	furio2020
ERR046905	furio2020
ERR046917	furio2020
ERR046918	furio2020
ERR046922	furio2020
ERR046931	furio2020
ERR046933	furio2020
ERR046934	furio2020
ERR046936	furio2020
ERR046937	furio2020
ERR046938	furio2020
ERR046943	furio2020
ERR046955	furio2020
ERR046965	furio2020
ERR046972	furio2020
ERR046978	furio2020
ERR046982	furio2020
ERR046983	furio2020
ERR046987	furio2020
ERR046995	furio2020
ERR046996	furio2020
ERR046997	furio2020
ERR046998	furio2020
ERR046999	furio2020
ERR047000	furio2020
ERR047002	furio2020
ERR047003	furio2020
ERR047004	furio2020
ERR047007	furio2020
ERR047012	furio2020
ERR047013	furio2020
ERR047014	furio2020
ERR047015	furio2020
ERR047883	furio2020
ERR047887	furio2020
ERR067576	furio2020
ERR067578	furio2020
ERR067579	furio2020
ERR067581	furio2020
ERR067582	furio2020
ERR067583	furio2020
ERR067584	furio2020
ERR067585	furio2020
ERR067586	furio2020
ERR067588	furio2020
ERR067589	furio2020
ERR067590	furio2020
ERR067591	furio2020
ERR067592	furio2020
ERR067594	furio2020
ERR067596	furio2020
ERR067597	furio2020
ERR067599	furio2020
ERR067600	furio2020
ERR067601	furio2020
ERR067604	furio2020
ERR067605	furio2020
ERR067606	furio2020
ERR067607	furio2020
ERR067608	furio2020
ERR067610	furio2020
ERR067611	furio2020
ERR067612	furio2020
ERR067613	furio2020
ERR067614	furio2020
ERR067615	furio2020
ERR067616	furio2020
ERR067617	furio2020
ERR067620	furio2020
ERR067621	furio2020
ERR067622	furio2020
ERR067623	furio2020
ERR067624	furio2020
ERR067625	furio2020
ERR067626	furio2020
ERR067627	furio2020
ERR067630	furio2020
ERR067631	furio2020
ERR067632	furio2020
ERR067634	furio2020
ERR067635	furio2020
ERR067637	furio2020
ERR067638	furio2020
ERR067639	furio2020
ERR067641	furio2020
ERR067643	furio2020
ERR067644	furio2020
ERR067645	furio2020
ERR067648	furio2020
ERR067649	furio2020
ERR067650	furio2020
ERR067651	furio2020
ERR067652	furio2020
ERR067653	furio2020
ERR067654	furio2020
ERR067655	furio2020
ERR067656	furio2020
ERR067657	furio2020
ERR067658	furio2020
ERR067659	furio2020
ERR067660	furio2020
ERR067661	furio2020
ERR067662	furio2020
ERR067663	furio2020
ERR067664	furio2020
ERR067665	furio2020
ERR067666	furio2020
ERR067667	furio2020
ERR067670	furio2020
ERR067671	furio2020
ERR067672	furio2020
ERR067673	furio2020
ERR067674	furio2020
ERR067675	furio2020
ERR067676	furio2020
ERR067677	furio2020
ERR067679	furio2020
ERR067680	furio2020
ERR067682	furio2020
ERR067683	furio2020
ERR067685	furio2020
ERR067687	furio2020
ERR067688	furio2020
ERR067689	furio2020
ERR067690	furio2020
ERR067692	furio2020
ERR067693	furio2020
ERR067694	furio2020
ERR067695	furio2020
ERR067696	furio2020
ERR067704	furio2020
ERR067706	furio2020
ERR067707	furio2020
ERR067708	furio2020
ERR067710	furio2020
ERR067711	furio2020
ERR067713	furio2020
ERR067714	furio2020
ERR067715	furio2020
ERR067716	furio2020
ERR067717	furio2020
ERR067719	furio2020
ERR067720	furio2020
ERR067721	furio2020
ERR067723	furio2020
ERR067724	furio2020
ERR067725	furio2020
ERR067726	furio2020
ERR067729	furio2020
ERR067730	furio2020
ERR067731	furio2020
ERR067735	furio2020
ERR067736	furio2020
ERR067737	furio2020
ERR067739	furio2020
ERR067740	furio2020
ERR067741	furio2020
ERR067742	furio2020
ERR067743	furio2020
ERR067744	furio2020
ERR067745	furio2020
ERR067746	furio2020
ERR067747	furio2020
ERR067748	furio2020
ERR067750	furio2020
ERR067753	furio2020
ERR067754	furio2020
ERR067755	furio2020
ERR067756	furio2020
ERR067757	furio2020
ERR067758	furio2020
ERR067759	furio2020
ERR067760	furio2020
ERR067761	furio2020
ERR067762	furio2020
ERR067766	furio2020
ERR067767	furio2020
ERR072019	furio2020
ERR072021	furio2020
ERR072022	furio2020
ERR072023	furio2020
ERR072024	furio2020
ERR072027	furio2020
ERR072028	furio2020
ERR072031	furio2020
ERR072032	furio2020
ERR072038	furio2020
ERR072039	furio2020
ERR072040	furio2020
ERR072043	furio2020
ERR072048	furio2020
ERR072049	furio2020
ERR072052	furio2020
ERR072054	furio2020
ERR072059	furio2020
ERR072060	furio2020
ERR072062	furio2020
ERR072067	furio2020
ERR072069	furio2020
ERR072071	furio2020
ERR072073	furio2020
ERR072074	furio2020
ERR072077	furio2020
ERR072085	furio2020
ERR072086	furio2020
ERR072088	furio2020
ERR072091	furio2020
ERR072098	furio2020
ERR072107	furio2020
ERR072108	furio2020
ERR108420	furio2020
ERR108421	furio2020
ERR108423	furio2020
ERR108424	furio2020
ERR108426	furio2020
ERR108427	furio2020
ERR108428	furio2020
ERR108429	furio2020
ERR108430	furio2020
ERR108432	furio2020
ERR108433	furio2020
ERR108434	furio2020
ERR108435	furio2020
ERR108436	furio2020
ERR108437	furio2020
ERR108441	furio2020
ERR108442	furio2020
ERR108443	furio2020
ERR108445	furio2020
ERR108446	furio2020
ERR108447	furio2020
ERR108448	furio2020
ERR108449	furio2020
ERR108452	furio2020
ERR108453	furio2020
ERR108454	furio2020
ERR108455	furio2020
ERR108456	furio2020
ERR108457	furio2020
ERR108458	furio2020
ERR108459	furio2020
ERR108460	furio2020
ERR108461	furio2020
ERR108462	furio2020
ERR108463	furio2020
ERR108466	furio2020
ERR108467	furio2020
ERR108468	furio2020
ERR108469	furio2020
ERR108470	furio2020
ERR108472	furio2020
ERR108473	furio2020
ERR108475	furio2020
ERR108476	furio2020
ERR108481	furio2020
ERR108482	furio2020
ERR108484	furio2020
ERR108486	furio2020
ERR108488	furio2020
ERR108489	furio2020
ERR108490	furio2020
ERR108491	furio2020
ERR108493	furio2020
ERR108495	furio2020
ERR108496	furio2020
ERR108497	furio2020
ERR108498	furio2020
ERR108499	furio2020
ERR108501	furio2020
ERR108502	furio2020
ERR108503	furio2020
ERR108505	furio2020
ERR108507	furio2020
ERR108508	furio2020
ERR108509	furio2020
ERR108510	furio2020
ERR108513	furio2020
ERR108515	furio2020
ERR114421	furio2020
ERR114422	furio2020
ERR114423	furio2020
ERR114424	furio2020
ERR114425	furio2020
ERR114426	furio2020
ERR114427	furio2020
ERR114428	furio2020
ERR114430	furio2020
ERR114431	furio2020
ERR114432	furio2020
ERR114433	furio2020
ERR114434	furio2020
ERR114435	furio2020
ERR114438	furio2020
ERR114439	furio2020
ERR114440	furio2020
ERR114441	furio2020
ERR114444	furio2020
ERR114445	furio2020
ERR114446	furio2020
ERR114448	furio2020
ERR114449	furio2020
ERR114451	furio2020
ERR114452	furio2020
ERR114454	furio2020
ERR114456	furio2020
ERR114457	furio2020
ERR114458	furio2020
ERR114460	furio2020
ERR114461	furio2020
ERR114462	furio2020
ERR114463	furio2020
ERR114467	furio2020
ERR114468	furio2020
ERR114469	furio2020
ERR114470	furio2020
ERR114471	furio2020
ERR114472	furio2020
ERR114473	furio2020
ERR114474	furio2020
ERR114475	furio2020
ERR114476	furio2020
ERR114477	furio2020
ERR114478	furio2020
ERR114479	furio2020
ERR114481	furio2020
ERR114482	furio2020
ERR114483	furio2020
ERR114484	furio2020
ERR114485	furio2020
ERR114487	furio2020
ERR114488	furio2020
ERR114489	furio2020
ERR114490	furio2020
ERR114493	furio2020
ERR114494	furio2020
ERR114495	furio2020
ERR114496	furio2020
ERR114497	furio2020
ERR114498	furio2020
ERR114499	furio2020
ERR114500	furio2020
ERR114501	furio2020
ERR114502	furio2020
ERR114503	furio2020
ERR114504	furio2020
ERR114505	furio2020
ERR114506	furio2020
ERR114507	furio2020
ERR114508	furio2020
ERR114510	furio2020
ERR114511	furio2020
ERR114512	furio2020
ERR114513	furio2020
ERR114516	furio2020
ERR117450	furio2020
ERR117451	furio2020
ERR117457	furio2020
ERR117461	furio2020
ERR117466	furio2020
ERR117469	furio2020
ERR117470	furio2020
ERR117615	furio2020
ERR117616	furio2020
ERR117617	furio2020
ERR117618	furio2020
ERR117619	furio2020
ERR117620	furio2020
ERR117621	furio2020
ERR117623	furio2020
ERR117625	furio2020
ERR117626	furio2020
ERR117627	furio2020
ERR117630	furio2020
ERR117634	furio2020
ERR117636	furio2020
ERR117637	furio2020
ERR117638	furio2020
ERR117640	furio2020
ERR117641	furio2020
ERR117642	furio2020
ERR117644	furio2020
ERR117646	furio2020
ERR117647	furio2020
ERR117648	furio2020
ERR117649	furio2020
ERR117651	furio2020
ERR117652	furio2020
ERR117653	furio2020
ERR117654	furio2020
ERR117655	furio2020
ERR117656	furio2020
ERR117657	furio2020
ERR117661	furio2020
ERR117662	furio2020
ERR117663	furio2020
ERR117664	furio2020
ERR117665	furio2020
ERR117666	furio2020
ERR117669	furio2020
ERR123950	furio2020
ERR123951	furio2020
ERR124635	furio2020
ERR124638	furio2020
ERR124641	furio2020
ERR124648	furio2020
ERR124650	furio2020
ERR126599	furio2020
ERR126603	furio2020
ERR126611	furio2020
ERR126612	furio2020
ERR126624	furio2020
ERR126628	furio2020
ERR126630	furio2020
ERR126632	furio2020
ERR126638	furio2020
ERR133798	furio2020
ERR133800	furio2020
ERR133802	furio2020
ERR133804	furio2020
ERR133805	furio2020
ERR133807	furio2020
ERR133808	furio2020
ERR133810	furio2020
ERR133812	furio2020
ERR133813	furio2020
ERR133814	furio2020
ERR133816	furio2020
ERR133818	furio2020
ERR133820	furio2020
ERR133823	furio2020
ERR133824	furio2020
ERR133826	furio2020
ERR133827	furio2020
ERR133829	furio2020
ERR133831	furio2020
ERR133832	furio2020
ERR133833	furio2020
ERR133835	furio2020
ERR133836	furio2020
ERR133837	furio2020
ERR133840	furio2020
ERR133841	furio2020
ERR133842	furio2020
ERR133844	furio2020
ERR133845	furio2020
ERR133847	furio2020
ERR133848	furio2020
ERR133850	furio2020
ERR133851	furio2020
ERR133853	furio2020
ERR133854	furio2020
ERR133855	furio2020
ERR133856	furio2020
ERR133857	furio2020
ERR133858	furio2020
ERR133860	furio2020
ERR133862	furio2020
ERR133865	furio2020
ERR133869	furio2020
ERR133870	furio2020
ERR133871	furio2020
ERR133872	furio2020
ERR133874	furio2020
ERR133875	furio2020
ERR133876	furio2020
ERR133877	furio2020
ERR133880	furio2020
ERR133881	furio2020
ERR133885	furio2020
ERR133886	furio2020
ERR133887	furio2020
ERR133888	furio2020
ERR133891	furio2020
ERR133892	furio2020
ERR133893	furio2020
ERR133894	furio2020
ERR133897	furio2020
ERR133898	furio2020
ERR133902	furio2020
ERR133906	furio2020
ERR133907	furio2020
ERR133909	furio2020
ERR133910	furio2020
ERR133911	furio2020
ERR133912	furio2020
ERR133913	furio2020
ERR133914	furio2020
ERR133917	furio2020
ERR133918	furio2020
ERR133919	furio2020
ERR133920	furio2020
ERR133922	furio2020
ERR133925	furio2020
ERR133926	furio2020
ERR133927	furio2020
ERR133930	furio2020
ERR133931	furio2020
ERR133932	furio2020
ERR133933	furio2020
ERR133936	furio2020
ERR133937	furio2020
ERR133939	furio2020
ERR133941	furio2020
ERR133945	furio2020
ERR133947	furio2020
ERR133948	furio2020
ERR133949	furio2020
ERR133950	furio2020
ERR133951	furio2020
ERR133952	furio2020
ERR133953	furio2020
ERR133954	furio2020
ERR133955	furio2020
ERR133956	furio2020
ERR133958	furio2020
ERR133960	furio2020
ERR133963	furio2020
ERR133964	furio2020
ERR133965	furio2020
ERR133967	furio2020
ERR133968	furio2020
ERR133969	furio2020
ERR133973	furio2020
ERR133974	furio2020
ERR133977	furio2020
ERR133978	furio2020
ERR133979	furio2020
ERR133980	furio2020
ERR133981	furio2020
ERR133982	furio2020
ERR133983	furio2020
ERR133984	furio2020
ERR133985	furio2020
ERR133987	furio2020
ERR133988	furio2020
ERR133989	furio2020
ERR137192	furio2020
ERR137193	furio2020
ERR137195	furio2020
ERR137196	furio2020
ERR137197	furio2020
ERR137200	furio2020
ERR137205	furio2020
ERR137206	furio2020
ERR137207	furio2020
ERR137210	furio2020
ERR137212	furio2020
ERR137213	furio2020
ERR137214	furio2020
ERR137215	furio2020
ERR137218	furio2020
ERR137219	furio2020
ERR137220	furio2020
ERR137221	furio2020
ERR137222	furio2020
ERR137224	furio2020
ERR137225	furio2020
ERR137226	furio2020
ERR137227	furio2020
ERR137228	furio2020
ERR137229	furio2020
ERR137230	furio2020
ERR137232	furio2020
ERR137233	furio2020
ERR137236	furio2020
ERR137238	furio2020
ERR137239	furio2020
ERR137241	furio2020
ERR137249	furio2020
ERR137251	furio2020
ERR137252	furio2020
ERR137253	furio2020
ERR137254	furio2020
ERR137255	furio2020
ERR137256	furio2020
ERR137260	furio2020
ERR137261	furio2020
ERR137262	furio2020
ERR137263	furio2020
ERR137264	furio2020
ERR137269	furio2020
ERR137272	furio2020
ERR137275	furio2020
ERR137281	furio2020
ERR137284	furio2020
ERR144543	furio2020
ERR144544	furio2020
ERR144549	furio2020
ERR144550	furio2020
ERR144555	furio2020
ERR144557	furio2020
ERR144558	furio2020
ERR144559	furio2020
ERR144560	furio2020
ERR144561	furio2020
ERR144562	furio2020
ERR144563	furio2020
ERR144564	furio2020
ERR144565	furio2020
ERR144566	furio2020
ERR144569	furio2020
ERR144570	furio2020
ERR144571	furio2020
ERR144573	furio2020
ERR144574	furio2020
ERR144576	furio2020
ERR144577	furio2020
ERR144578	furio2020
ERR144580	furio2020
ERR144582	furio2020
ERR144584	furio2020
ERR144585	furio2020
ERR144587	furio2020
ERR144588	furio2020
ERR144592	furio2020
ERR144593	furio2020
ERR144594	furio2020
ERR144595	furio2020
ERR144596	furio2020
ERR144597	furio2020
ERR144599	furio2020
ERR144601	furio2020
ERR144604	furio2020
ERR144606	furio2020
ERR144607	furio2020
ERR144608	furio2020
ERR144609	furio2020
ERR144610	furio2020
ERR144614	furio2020
ERR144615	furio2020
ERR144616	furio2020
ERR144617	furio2020
ERR144619	furio2020
ERR144620	furio2020
ERR144623	furio2020
ERR144624	furio2020
ERR144625	furio2020
ERR144627	furio2020
ERR144630	furio2020
ERR158569	furio2020
ERR158570	furio2020
ERR158572	furio2020
ERR158574	furio2020
ERR158575	furio2020
ERR158576	furio2020
ERR158577	furio2020
ERR158578	furio2020
ERR158579	furio2020
ERR158581	furio2020
ERR158582	furio2020
ERR158584	furio2020
ERR158587	furio2020
ERR158588	furio2020
ERR158589	furio2020
ERR158591	furio2020
ERR158592	furio2020
ERR158593	furio2020
ERR158595	furio2020
ERR158596	furio2020
ERR158598	furio2020
ERR158599	furio2020
ERR158601	furio2020
ERR158602	furio2020
ERR158603	furio2020
ERR158604	furio2020
ERR158605	furio2020
ERR158607	furio2020
ERR158608	furio2020
ERR158609	furio2020
ERR158610	furio2020
ERR158611	furio2020
ERR158612	furio2020
ERR158613	furio2020
ERR158614	furio2020
ERR158615	furio2020
ERR161013	furio2020
ERR161018	furio2020
ERR161022	furio2020
ERR161023	furio2020
ERR161030	furio2020
ERR161034	furio2020
ERR161036	furio2020
ERR161044	furio2020
ERR161048	furio2020
ERR161054	furio2020
ERR161059	furio2020
ERR161069	furio2020
ERR161070	furio2020
ERR161076	furio2020
ERR161080	furio2020
ERR161081	furio2020
ERR161082	furio2020
ERR161083	furio2020
ERR161086	furio2020
ERR161088	furio2020
ERR161089	furio2020
ERR161090	furio2020
ERR161093	furio2020
ERR161101	furio2020
ERR161102	furio2020
ERR161104	furio2020
ERR161110	furio2020
ERR161114	furio2020
ERR161115	furio2020
ERR161116	furio2020
ERR161120	furio2020
ERR161127	furio2020
ERR161137	furio2020
ERR161138	furio2020
ERR161141	furio2020
ERR161143	furio2020
ERR161145	furio2020
ERR161150	furio2020
ERR161151	furio2020
ERR161153	furio2020
ERR161156	furio2020
ERR161160	furio2020
ERR161164	furio2020
ERR161165	furio2020
ERR161177	furio2020
ERR161178	furio2020
ERR161185	furio2020
ERR161187	furio2020
ERR161193	furio2020
ERR161199	furio2020
ERR161203	furio2020
ERR163929	furio2020
ERR163933	furio2020
ERR163934	furio2020
ERR163939	furio2020
ERR163942	furio2020
ERR163949	furio2020
ERR163953	furio2020
ERR163954	furio2020
ERR163957	furio2020
ERR163958	furio2020
ERR163959	furio2020
ERR163960	furio2020
ERR163969	furio2020
ERR163970	furio2020
ERR163973	furio2020
ERR163977	furio2020
ERR163981	furio2020
ERR163983	furio2020
ERR163984	furio2020
ERR163991	furio2020
ERR163993	furio2020
ERR163997	furio2020
ERR164001	furio2020
ERR164002	furio2020
ERR164017	furio2020
ERR164020	furio2020
ERR164023	furio2020
ERR176446	furio2020
ERR176447	furio2020
ERR176449	furio2020
ERR176451	furio2020
ERR176452	furio2020
ERR176453	furio2020
ERR176456	furio2020
ERR176457	furio2020
ERR176459	furio2020
ERR176462	furio2020
ERR176465	furio2020
ERR176467	furio2020
ERR176468	furio2020
ERR176471	furio2020
ERR176476	furio2020
ERR176482	furio2020
ERR176484	furio2020
ERR176485	furio2020
ERR176486	furio2020
ERR176489	furio2020
ERR176492	furio2020
ERR176502	furio2020
ERR176505	furio2020
ERR176508	furio2020
ERR176512	furio2020
ERR176516	furio2020
ERR176531	furio2020
ERR176532	furio2020
ERR176534	furio2020
ERR176540	furio2020
ERR176543	furio2020
ERR176545	furio2020
ERR176548	furio2020
ERR176551	furio2020
ERR176552	furio2020
ERR176569	furio2020
ERR176574	furio2020
ERR176575	furio2020
ERR176577	furio2020
ERR176583	furio2020
ERR176584	furio2020
ERR176589	furio2020
ERR176593	furio2020
ERR176594	furio2020
ERR176600	furio2020
ERR176602	furio2020
ERR176603	furio2020
ERR176604	furio2020
ERR176605	furio2020
ERR176613	furio2020
ERR176614	furio2020
ERR176618	furio2020
ERR176622	furio2020
ERR176624	furio2020
ERR176627	furio2020
ERR176634	furio2020
ERR176635	furio2020
ERR176637	furio2020
ERR176639	furio2020
ERR176640	furio2020
ERR176650	furio2020
ERR176660	furio2020
ERR176661	furio2020
ERR176666	furio2020
ERR176669	furio2020
ERR176673	furio2020
ERR176674	furio2020
ERR176682	furio2020
ERR176684	furio2020
ERR176687	furio2020
ERR176693	furio2020
ERR176698	furio2020
ERR176700	furio2020
ERR176702	furio2020
ERR176706	furio2020
ERR176708	furio2020
ERR176713	furio2020
ERR176715	furio2020
ERR176722	furio2020
ERR176726	furio2020
ERR176728	furio2020
ERR176731	furio2020
ERR176732	furio2020
ERR176734	furio2020
ERR176745	furio2020
ERR176748	furio2020
ERR176754	furio2020
ERR176762	furio2020
ERR176763	furio2020
ERR176773	furio2020
ERR176783	furio2020
ERR176785	furio2020
ERR176788	furio2020
ERR176797	furio2020
ERR176801	furio2020
ERR176802	furio2020
ERR176803	furio2020
ERR176808	furio2020
ERR176810	furio2020
ERR176816	furio2020
ERR176817	furio2020
ERR176818	furio2020
ERR176821	furio2020
ERR181316	furio2020
ERR181440	furio2020
ERR181675	furio2020
ERR181676	furio2020
ERR181680	furio2020
ERR181681	furio2020
ERR181685	furio2020
ERR181691	furio2020
ERR181693	furio2020
ERR181694	furio2020
ERR181697	furio2020
ERR181699	furio2020
ERR181702	furio2020
ERR181703	furio2020
ERR181706	furio2020
ERR181709	furio2020
ERR181710	furio2020
ERR181714	furio2020
ERR181716	furio2020
ERR181717	furio2020
ERR181721	furio2020
ERR181722	furio2020
ERR181723	furio2020
ERR181724	furio2020
ERR181727	furio2020
ERR181728	furio2020
ERR181730	furio2020
ERR181737	furio2020
ERR181743	furio2020
ERR181749	furio2020
ERR181750	furio2020
ERR181752	furio2020
ERR181754	furio2020
ERR181755	furio2020
ERR181758	furio2020
ERR181771	furio2020
ERR181774	furio2020
ERR181775	furio2020
ERR181778	furio2020
ERR181781	furio2020
ERR181786	furio2020
ERR181787	furio2020
ERR181790	furio2020
ERR181792	furio2020
ERR181796	furio2020
ERR181797	furio2020
ERR181798	furio2020
ERR181799	furio2020
ERR181801	furio2020
ERR181802	furio2020
ERR181806	furio2020
ERR181807	furio2020
ERR181810	furio2020
ERR181814	furio2020
ERR181816	furio2020
ERR181817	furio2020
ERR181819	furio2020
ERR181820	furio2020
ERR181822	furio2020
ERR181823	furio2020
ERR181826	furio2020
ERR181828	furio2020
ERR181829	furio2020
ERR181831	furio2020
ERR181832	furio2020
ERR181833	furio2020
ERR181840	furio2020
ERR181841	furio2020
ERR181844	furio2020
ERR181845	furio2020
ERR181846	furio2020
ERR181853	furio2020
ERR181856	furio2020
ERR181858	furio2020
ERR181863	furio2020
ERR181872	furio2020
ERR181874	furio2020
ERR181886	furio2020
ERR181889	furio2020
ERR181890	furio2020
ERR181893	furio2020
ERR181894	furio2020
ERR181896	furio2020
ERR181901	furio2020
ERR181904	furio2020
ERR181908	furio2020
ERR181911	furio2020
ERR181912	furio2020
ERR181913	furio2020
ERR181919	furio2020
ERR181921	furio2020
ERR181923	furio2020
ERR181924	furio2020
ERR181925	furio2020
ERR181926	furio2020
ERR181928	furio2020
ERR181929	furio2020
ERR181937	furio2020
ERR181938	furio2020
ERR181939	furio2020
ERR181942	furio2020
ERR181943	furio2020
ERR181946	furio2020
ERR181948	furio2020
ERR181949	furio2020
ERR181951	furio2020
ERR181952	furio2020
ERR181954	furio2020
ERR181955	furio2020
ERR181968	furio2020
ERR181975	furio2020
ERR181980	furio2020
ERR181983	furio2020
ERR181988	furio2020
ERR181991	furio2020
ERR181992	furio2020
ERR181994	furio2020
ERR181996	furio2020
ERR182000	furio2020
ERR182002	furio2020
ERR182004	furio2020
ERR182006	furio2020
ERR182007	furio2020
ERR182009	furio2020
ERR182012	furio2020
ERR182013	furio2020
ERR182017	furio2020
ERR182018	furio2020
ERR182019	furio2020
ERR182021	furio2020
ERR182029	furio2020
ERR182033	furio2020
ERR182035	furio2020
ERR182046	furio2020
ERR182047	furio2020
ERR182051	furio2020
ERR182055	furio2020
ERR182056	furio2020
ERR190329	furio2020
ERR190330	furio2020
ERR190332	furio2020
ERR190339	furio2020
ERR190346	furio2020
ERR190348	furio2020
ERR190350	furio2020
ERR190352	furio2020
ERR190355	furio2020
ERR190358	furio2020
ERR190360	furio2020
ERR190363	furio2020
ERR190364	furio2020
ERR190371	furio2020
ERR190373	furio2020
ERR190375	furio2020
ERR190376	furio2020
ERR190384	furio2020
ERR190386	furio2020
ERR190388	furio2020
ERR190390	furio2020
ERR190393	furio2020
ERR190394	furio2020
ERR190395	furio2020
ERR190400	furio2020
ERR190402	furio2020
ERR190405	furio2020
ERR190406	furio2020
ERR190407	furio2020
ERR190409	furio2020
ERR211990	furio2020
ERR211994	furio2020
ERR211998	furio2020
ERR211999	furio2020
ERR212010	furio2020
ERR212012	furio2020
ERR212015	furio2020
ERR212018	furio2020
ERR212019	furio2020
ERR212021	furio2020
ERR212022	furio2020
ERR212025	furio2020
ERR212027	furio2020
ERR212029	furio2020
ERR212032	furio2020
ERR212036	furio2020
ERR212038	furio2020
ERR212039	furio2020
ERR212043	furio2020
ERR212044	furio2020
ERR212045	furio2020
ERR212050	furio2020
ERR212052	furio2020
ERR212060	furio2020
ERR212061	furio2020
ERR212064	furio2020
ERR212066	furio2020
ERR212069	furio2020
ERR212071	furio2020
ERR212077	furio2020
ERR212080	furio2020
ERR212083	furio2020
ERR212085	furio2020
ERR212086	furio2020
ERR212090	furio2020
ERR212091	furio2020
ERR212093	furio2020
ERR212097	furio2020
ERR212103	furio2020
ERR212105	furio2020
ERR212107	furio2020
ERR212111	furio2020
ERR212112	furio2020
ERR212113	furio2020
ERR212115	furio2020
ERR212122	furio2020
ERR212127	furio2020
ERR212132	furio2020
ERR212134	furio2020
ERR212140	furio2020
ERR212141	furio2020
ERR212143	furio2020
ERR212144	furio2020
ERR212146	furio2020
ERR212147	furio2020
ERR212149	furio2020
ERR212151	furio2020
ERR212152	furio2020
ERR212153	furio2020
ERR212155	furio2020
ERR212158	furio2020
ERR212159	furio2020
ERR212161	furio2020
ERR212168	furio2020
ERR212170	furio2020
ERR212171	furio2020
ERR212172	furio2020
ERR212174	furio2020
ERR212175	furio2020
ERR212176	furio2020
ERR212179	furio2020
ERR212180	furio2020
ERR216900	furio2020
ERR216903	furio2020
ERR216905	furio2020
ERR216908	furio2020
ERR216912	furio2020
ERR216915	furio2020
ERR216917	furio2020
ERR216918	furio2020
ERR216919	furio2020
ERR216921	furio2020
ERR216923	furio2020
ERR216924	furio2020
ERR216925	furio2020
ERR216929	furio2020
ERR216930	furio2020
ERR216941	furio2020
ERR216944	furio2020
ERR216945	furio2020
ERR216952	furio2020
ERR216954	furio2020
ERR216958	furio2020
ERR216968	furio2020
ERR216979	furio2020
ERR216980	furio2020
ERR216984	furio2020
ERR216988	furio2020
ERR221525	furio2020
ERR221528	furio2020
ERR221529	furio2020
ERR221530	furio2020
ERR221531	furio2020
ERR221533	furio2020
ERR221534	furio2020
ERR221540	furio2020
ERR221541	furio2020
ERR221546	furio2020
ERR221547	furio2020
ERR221548	furio2020
ERR221554	furio2020
ERR221555	furio2020
ERR221564	furio2020
ERR221565	furio2020
ERR221567	furio2020
ERR221569	furio2020
ERR221571	furio2020
ERR221572	furio2020
ERR221573	furio2020
ERR221575	furio2020
ERR221581	furio2020
ERR221585	furio2020
ERR221587	furio2020
ERR221589	furio2020
ERR221591	furio2020
ERR221598	furio2020
ERR221599	furio2020
ERR221600	furio2020
ERR221601	furio2020
ERR221606	furio2020
ERR221607	furio2020
ERR221611	furio2020
ERR221613	furio2020
ERR221615	furio2020
ERR227975	furio2020
ERR227976	furio2020
ERR227977	furio2020
ERR227978	furio2020
ERR227979	furio2020
ERR227980	furio2020
ERR227981	furio2020
ERR227982	furio2020
ERR227984	furio2020
ERR227987	furio2020
ERR227990	furio2020
ERR227991	furio2020
ERR227996	furio2020
ERR227998	furio2020
ERR227999	furio2020
ERR228000	furio2020
ERR228003	furio2020
ERR228004	furio2020
ERR228005	furio2020
ERR228006	furio2020
ERR228007	furio2020
ERR228009	furio2020
ERR228010	furio2020
ERR228011	furio2020
ERR228012	furio2020
ERR228013	furio2020
ERR228014	furio2020
ERR228015	furio2020
ERR228020	furio2020
ERR228021	furio2020
ERR228022	furio2020
ERR228023	furio2020
ERR228026	furio2020
ERR228027	furio2020
ERR228029	furio2020
ERR228033	furio2020
ERR228035	furio2020
ERR228036	furio2020
ERR228037	furio2020
ERR228038	furio2020
ERR228039	furio2020
ERR228040	furio2020
ERR228042	furio2020
ERR228044	furio2020
ERR228045	furio2020
ERR228046	furio2020
ERR228048	furio2020
ERR228049	furio2020
ERR228050	furio2020
ERR228052	furio2020
ERR228054	furio2020
ERR228056	furio2020
ERR228058	furio2020
ERR228059	furio2020
ERR228060	furio2020
ERR228061	furio2020
ERR228062	furio2020
ERR228063	furio2020
ERR228064	furio2020
ERR228065	furio2020
ERR228066	furio2020
ERR228067	furio2020
ERR228068	furio2020
ERR228170	furio2020
ERR228171	furio2020
ERR228172	furio2020
ERR228173	furio2020
ERR228174	furio2020
ERR228175	furio2020
ERR228176	furio2020
ERR228178	furio2020
ERR229915	furio2020
ERR229919	furio2020
ERR229920	furio2020
ERR229921	furio2020
ERR229922	furio2020
ERR229923	furio2020
ERR229924	furio2020
ERR229926	furio2020
ERR229929	furio2020
ERR229931	furio2020
ERR229933	furio2020
ERR229935	furio2020
ERR229936	furio2020
ERR229938	furio2020
ERR229939	furio2020
ERR229940	furio2020
ERR229941	furio2020
ERR229943	furio2020
ERR229944	furio2020
ERR229945	furio2020
ERR229946	furio2020
ERR229947	furio2020
ERR229948	furio2020
ERR229949	furio2020
ERR229950	furio2020
ERR229954	furio2020
ERR229955	furio2020
ERR229957	furio2020
ERR229958	furio2020
ERR229960	furio2020
ERR229961	furio2020
ERR229962	furio2020
ERR229963	furio2020
ERR229964	furio2020
ERR229966	furio2020
ERR229967	furio2020
ERR229968	furio2020
ERR229969	furio2020
ERR229970	furio2020
ERR229972	furio2020
ERR229973	furio2020
ERR229975	furio2020
ERR229976	furio2020
ERR229977	furio2020
ERR229978	furio2020
ERR229979	furio2020
ERR229982	furio2020
ERR229983	furio2020
ERR229984	furio2020
ERR229985	furio2020
ERR229986	furio2020
ERR229992	furio2020
ERR229993	furio2020
ERR229994	furio2020
ERR229995	furio2020
ERR229996	furio2020
ERR229998	furio2020
ERR229999	furio2020
ERR230000	furio2020
ERR230001	furio2020
ERR230002	furio2020
ERR230003	furio2020
ERR230004	furio2020
ERR230005	furio2020
ERR230007	furio2020
ERR230008	furio2020
ERR230010	furio2020
ERR233346	furio2020
ERR233347	furio2020
ERR233348	furio2020
ERR233349	furio2020
ERR233350	furio2020
ERR233351	furio2020
ERR233352	furio2020
ERR233353	furio2020
ERR233354	furio2020
ERR233355	furio2020
ERR233356	furio2020
ERR233357	furio2020
ERR233358	furio2020
ERR233359	furio2020
ERR233361	furio2020
ERR233362	furio2020
ERR233363	furio2020
ERR233364	furio2020
ERR233365	furio2020
ERR233366	furio2020
ERR233369	furio2020
ERR233370	furio2020
ERR233371	furio2020
ERR233372	furio2020
ERR233373	furio2020
ERR233374	furio2020
ERR233375	furio2020
ERR233376	furio2020
ERR233377	furio2020
ERR233378	furio2020
ERR233379	furio2020
ERR233380	furio2020
ERR233381	furio2020
ERR233382	furio2020
ERR233383	furio2020
ERR233384	furio2020
ERR233385	furio2020
ERR233386	furio2020
ERR233387	furio2020
ERR233388	furio2020
ERR233389	furio2020
ERR233390	furio2020
ERR233391	furio2020
ERR234097	furio2020
ERR234098	furio2020
ERR234099	furio2020
ERR234109	furio2020
ERR234112	furio2020
ERR234113	furio2020
ERR234115	furio2020
ERR234116	furio2020
ERR234118	furio2020
ERR234119	furio2020
ERR234120	furio2020
ERR234121	furio2020
ERR234122	furio2020
ERR234123	furio2020
ERR234124	furio2020
ERR234125	furio2020
ERR234126	furio2020
ERR234128	furio2020
ERR234129	furio2020
ERR234130	furio2020
ERR234131	furio2020
ERR234134	furio2020
ERR234135	furio2020
ERR234136	furio2020
ERR234138	furio2020
ERR234141	furio2020
ERR234142	furio2020
ERR234143	furio2020
ERR234144	furio2020
ERR234145	furio2020
ERR234146	furio2020
ERR234147	furio2020
ERR234148	furio2020
ERR234149	furio2020
ERR234150	furio2020
ERR234152	furio2020
ERR234153	furio2020
ERR234154	furio2020
ERR234155	furio2020
ERR234156	furio2020
ERR234157	furio2020
ERR234158	furio2020
ERR234160	furio2020
ERR234161	furio2020
ERR234162	furio2020
ERR234163	furio2020
ERR234164	furio2020
ERR234165	furio2020
ERR234166	furio2020
ERR234167	furio2020
ERR234168	furio2020
ERR234169	furio2020
ERR234170	furio2020
ERR234171	furio2020
ERR234172	furio2020
ERR234173	furio2020
ERR234174	furio2020
ERR234175	furio2020
ERR234176	furio2020
ERR234177	furio2020
ERR234178	furio2020
ERR234179	furio2020
ERR234180	furio2020
ERR234181	furio2020
ERR234182	furio2020
ERR234183	furio2020
ERR234184	furio2020
ERR234185	furio2020
ERR234186	furio2020
ERR234187	furio2020
ERR234188	furio2020
ERR234189	furio2020
ERR234190	furio2020
ERR234191	furio2020
ERR234192	furio2020
ERR234193	furio2020
ERR234194	furio2020
ERR234195	furio2020
ERR234196	furio2020
ERR234197	furio2020
ERR234198	furio2020
ERR234199	furio2020
ERR234200	furio2020
ERR234201	furio2020
ERR234202	furio2020
ERR234203	furio2020
ERR234204	furio2020
ERR234205	furio2020
ERR234206	furio2020
ERR234207	furio2020
ERR234208	furio2020
ERR234209	furio2020
ERR234210	furio2020
ERR234211	furio2020
ERR234212	furio2020
ERR234213	furio2020
ERR234214	furio2020
ERR234216	furio2020
ERR234218	furio2020
ERR234219	furio2020
ERR234220	furio2020
ERR234221	furio2020
ERR234222	furio2020
ERR234223	furio2020
ERR234224	furio2020
ERR234225	furio2020
ERR234227	furio2020
ERR234229	furio2020
ERR234230	furio2020
ERR234231	furio2020
ERR234232	furio2020
ERR234233	furio2020
ERR234234	furio2020
ERR234235	furio2020
ERR234236	furio2020
ERR234237	furio2020
ERR234238	furio2020
ERR234241	furio2020
ERR234242	furio2020
ERR234243	furio2020
ERR234244	furio2020
ERR234245	furio2020
ERR234247	furio2020
ERR234248	furio2020
ERR234249	furio2020
ERR234250	furio2020
ERR234252	furio2020
ERR234255	furio2020
ERR234258	furio2020
ERR234259	furio2020
ERR234260	furio2020
ERR234261	furio2020
ERR234263	furio2020
ERR234264	furio2020
ERR234265	furio2020
ERR234266	furio2020
ERR234267	furio2020
ERR234268	furio2020
ERR234270	furio2020
ERR234271	furio2020
ERR234272	furio2020
ERR234273	furio2020
ERR234556	furio2020
ERR234559	furio2020
ERR234560	furio2020
ERR234562	furio2020
ERR234563	furio2020
ERR234565	furio2020
ERR234568	furio2020
ERR234569	furio2020
ERR234570	furio2020
ERR234573	furio2020
ERR234575	furio2020
ERR234576	furio2020
ERR234577	furio2020
ERR234578	furio2020
ERR234579	furio2020
ERR234580	furio2020
ERR234581	furio2020
ERR234584	furio2020
ERR234587	furio2020
ERR234588	furio2020
ERR234590	furio2020
ERR234591	furio2020
ERR234593	furio2020
ERR234595	furio2020
ERR234597	furio2020
ERR234598	furio2020
ERR234600	furio2020
ERR234602	furio2020
ERR234603	furio2020
ERR234606	furio2020
ERR234607	furio2020
ERR234608	furio2020
ERR234609	furio2020
ERR234610	furio2020
ERR234612	furio2020
ERR234615	furio2020
ERR234616	furio2020
ERR234617	furio2020
ERR234618	furio2020
ERR234619	furio2020
ERR234620	furio2020
ERR234623	furio2020
ERR234624	furio2020
ERR234625	furio2020
ERR234627	furio2020
ERR234628	furio2020
ERR234629	furio2020
ERR234630	furio2020
ERR234632	furio2020
ERR234633	furio2020
ERR234637	furio2020
ERR234639	furio2020
ERR234640	furio2020
ERR234641	furio2020
ERR234642	furio2020
ERR234643	furio2020
ERR234644	furio2020
ERR234645	furio2020
ERR234648	furio2020
ERR234649	furio2020
ERR234650	furio2020
ERR234651	furio2020
ERR234652	furio2020
ERR234655	furio2020
ERR234660	furio2020
ERR234662	furio2020
ERR234663	furio2020
ERR234664	furio2020
ERR234665	furio2020
ERR234666	furio2020
ERR234669	furio2020
ERR234679	furio2020
ERR234680	furio2020
ERR234683	furio2020
ERR234684	furio2020
ERR234687	furio2020
ERR234689	furio2020
ERR234691	furio2020
ERR234694	furio2020
ERR234696	furio2020
ERR234697	furio2020
ERR234699	furio2020
ERR238746	furio2020
ERR245647	furio2020
ERR245648	furio2020
ERR245649	furio2020
ERR245656	furio2020
ERR245657	furio2020
ERR245661	furio2020
ERR245662	furio2020
ERR245665	furio2020
ERR245666	furio2020
ERR245668	furio2020
ERR245673	furio2020
ERR245683	furio2020
ERR245684	furio2020
ERR245686	furio2020
ERR245687	furio2020
ERR245689	furio2020
ERR245690	furio2020
ERR245692	furio2020
ERR245693	furio2020
ERR245694	furio2020
ERR245695	furio2020
ERR245696	furio2020
ERR245697	furio2020
ERR245699	furio2020
ERR245700	furio2020
ERR245701	furio2020
ERR245702	furio2020
ERR245704	furio2020
ERR245705	furio2020
ERR245707	furio2020
ERR245708	furio2020
ERR245715	furio2020
ERR245717	furio2020
ERR245718	furio2020
ERR245720	furio2020
ERR245721	furio2020
ERR245727	furio2020
ERR245728	furio2020
ERR245730	furio2020
ERR245734	furio2020
ERR245736	furio2020
ERR245737	furio2020
ERR245738	furio2020
ERR245741	furio2020
ERR245742	furio2020
ERR245743	furio2020
ERR245744	furio2020
ERR245745	furio2020
ERR245746	furio2020
ERR245747	furio2020
ERR245748	furio2020
ERR245749	furio2020
ERR245750	furio2020
ERR245751	furio2020
ERR245753	furio2020
ERR245756	furio2020
ERR245758	furio2020
ERR245759	furio2020
ERR245760	furio2020
ERR245762	furio2020
ERR245763	furio2020
ERR245765	furio2020
ERR245767	furio2020
ERR245768	furio2020
ERR245770	furio2020
ERR245771	furio2020
ERR245774	furio2020
ERR245775	furio2020
ERR245776	furio2020
ERR245777	furio2020
ERR245778	furio2020
ERR245779	furio2020
ERR245780	furio2020
ERR245781	furio2020
ERR245782	furio2020
ERR245784	furio2020
ERR245785	furio2020
ERR245786	furio2020
ERR245787	furio2020
ERR245788	furio2020
ERR245789	furio2020
ERR245791	furio2020
ERR245794	furio2020
ERR245796	furio2020
ERR245797	furio2020
ERR245798	furio2020
ERR245799	furio2020
ERR245800	furio2020
ERR245801	furio2020
ERR245802	furio2020
ERR245803	furio2020
ERR245806	furio2020
ERR245807	furio2020
ERR245808	furio2020
ERR245809	furio2020
ERR245810	furio2020
ERR245811	furio2020
ERR245812	furio2020
ERR245813	furio2020
ERR245815	furio2020
ERR245817	furio2020
ERR245820	furio2020
ERR245824	furio2020
ERR245825	furio2020
ERR245826	furio2020
ERR245829	furio2020
ERR245832	furio2020
ERR245834	furio2020
ERR245837	furio2020
ERR245839	furio2020
ERR245840	furio2020
ERR245841	furio2020
ERR245843	furio2020
ERR245844	furio2020
ERR245848	furio2020
ERR257891	furio2020
ERR257893	furio2020
ERR257896	furio2020
ERR257898	furio2020
ERR257900	furio2020
ERR257905	furio2020
ERR257909	furio2020
ERR257910	furio2020
ERR257923	furio2020
ERR257933	furio2020
ERR266549	furio2020
ERR266550	furio2020
ERR266553	furio2020
ERR266555	furio2020
ERR266556	furio2020
ERR266557	furio2020
ERR266558	furio2020
ERR266561	furio2020
ERR266563	furio2020
ERR266564	furio2020
ERR266565	furio2020
ERR266592	furio2020
ERR266600	furio2020
ERR266601	furio2020
ERR266603	furio2020
ERR266604	furio2020
ERR266605	furio2020
ERR266608	furio2020
ERR266610	furio2020
ERR266612	furio2020
ERR266613	furio2020
ERR266614	furio2020
ERR270615	furio2020
ERR270618	furio2020
ERR270619	furio2020
ERR270621	furio2020
ERR270622	furio2020
ERR270623	furio2020
ERR270624	furio2020
ERR270626	furio2020
ERR270627	furio2020
ERR270631	furio2020
ERR270632	furio2020
ERR270634	furio2020
ERR270635	furio2020
ERR270637	furio2020
ERR270638	furio2020
ERR270641	furio2020
ERR270642	furio2020
ERR270643	furio2020
ERR270644	furio2020
ERR270645	furio2020
ERR270646	furio2020
ERR270647	furio2020
ERR270648	furio2020
ERR270649	furio2020
ERR270651	furio2020
ERR270653	furio2020
ERR270654	furio2020
ERR270655	furio2020
ERR270656	furio2020
ERR270657	furio2020
ERR270658	furio2020
ERR270659	furio2020
ERR270660	furio2020
ERR270661	furio2020
ERR270662	furio2020
ERR270663	furio2020
ERR270665	furio2020
ERR270666	furio2020
ERR270667	furio2020
ERR270668	furio2020
ERR270669	furio2020
ERR270670	furio2020
ERR270674	furio2020
ERR270675	furio2020
ERR270676	furio2020
ERR270678	furio2020
ERR270679	furio2020
ERR270683	furio2020
ERR270687	furio2020
ERR270690	furio2020
ERR270691	furio2020
ERR270692	furio2020
ERR270693	furio2020
ERR270694	furio2020
ERR270695	furio2020
ERR270696	furio2020
ERR270697	furio2020
ERR270698	furio2020
ERR270699	furio2020
ERR270701	furio2020
ERR270704	furio2020
ERR270706	furio2020
ERR270707	furio2020
ERR270708	furio2020
ERR270710	furio2020
ERR270711	furio2020
ERR270712	furio2020
ERR270715	furio2020
ERR270717	furio2020
ERR270718	furio2020
ERR270719	furio2020
ERR270720	furio2020
ERR270721	furio2020
ERR270723	furio2020
ERR270726	furio2020
ERR270727	furio2020
ERR270730	furio2020
ERR270731	furio2020
ERR270732	furio2020
ERR270733	furio2020
ERR270734	furio2020
ERR270735	furio2020
ERR270736	furio2020
ERR270739	furio2020
ERR270740	furio2020
ERR270741	furio2020
ERR270743	furio2020
ERR270744	furio2020
ERR270745	furio2020
ERR270746	furio2020
ERR270747	furio2020
ERR270748	furio2020
ERR270749	furio2020
ERR270750	furio2020
ERR270754	furio2020
ERR270755	furio2020
ERR270756	furio2020
ERR270757	furio2020
ERR270758	furio2020
ERR270759	furio2020
ERR270760	furio2020
ERR270761	furio2020
ERR270763	furio2020
ERR270764	furio2020
ERR270767	furio2020
ERR270768	furio2020
ERR270769	furio2020
ERR270771	furio2020
ERR270772	furio2020
ERR270774	furio2020
ERR270775	furio2020
ERR270776	furio2020
ERR270779	furio2020
ERR270780	furio2020
ERR270781	furio2020
ERR270782	furio2020
ERR270783	furio2020
ERR270785	furio2020
ERR270786	furio2020
ERR270788	furio2020
ERR270792	furio2020
ERR270795	furio2020
ERR270797	furio2020
ERR270798	furio2020
ERR270799	furio2020
ERR270802	furio2020
ERR270803	furio2020
ERR270804	furio2020
ERR270805	furio2020
ERR275183	furio2020
ERR275190	furio2020
ERR275192	furio2020
ERR275193	furio2020
ERR275194	furio2020
ERR275195	furio2020
ERR275198	furio2020
ERR275199	furio2020
ERR275201	furio2020
ERR275203	furio2020
ERR275204	furio2020
ERR275209	furio2020
ERR275212	furio2020
ERR275213	furio2020
ERR275214	furio2020
ERR275215	furio2020
ERR275218	furio2020
ERR275226	furio2020
ERR275236	furio2020
ERR278515	furio2020
ERR278516	furio2020
ERR278521	furio2020
ERR278522	furio2020
ERR278523	furio2020
ERR278526	furio2020
ERR278528	furio2020
ERR278529	furio2020
ERR278532	furio2020
ERR278533	furio2020
ERR278534	furio2020
ERR278537	furio2020
ERR278538	furio2020
ERR278539	furio2020
ERR278542	furio2020
ERR278543	furio2020
ERR278544	furio2020
ERR278545	furio2020
ERR278546	furio2020
ERR278547	furio2020
ERR278549	furio2020
ERR278550	furio2020
ERR278552	furio2020
ERR278553	furio2020
ERR278556	furio2020
ERR278558	furio2020
ERR278560	furio2020
ERR278561	furio2020
ERR278565	furio2020
ERR278566	furio2020
ERR278568	furio2020
ERR278569	furio2020
ERR278570	furio2020
ERR278571	furio2020
ERR278572	furio2020
ERR278574	furio2020
ERR278576	furio2020
ERR278577	furio2020
ERR278579	furio2020
ERR278580	furio2020
ERR278581	furio2020
ERR278582	furio2020
ERR278583	furio2020
ERR278585	furio2020
ERR278586	furio2020
ERR278587	furio2020
ERR278588	furio2020
ERR278589	furio2020
ERR278590	furio2020
ERR278591	furio2020
ERR278592	furio2020
ERR278593	furio2020
ERR278595	furio2020
ERR278596	furio2020
ERR278597	furio2020
ERR278598	furio2020
ERR278599	furio2020
ERR278603	furio2020
ERR278604	furio2020
ERR278605	furio2020
ERR278606	furio2020
ERR278608	furio2020
ERR278609	furio2020
ERR294178	furio2020
ERR294179	furio2020
ERR294180	furio2020
ERR294181	furio2020
ERR294182	furio2020
ERR294183	furio2020
ERR294185	furio2020
ERR294186	furio2020
ERR294187	furio2020
ERR294188	furio2020
ERR294189	furio2020
ERR294190	furio2020
ERR294191	furio2020
ERR294192	furio2020
ERR294193	furio2020
ERR294194	furio2020
ERR294195	furio2020
ERR294196	furio2020
ERR294197	furio2020
ERR294198	furio2020
ERR294199	furio2020
ERR294200	furio2020
ERR294201	furio2020
ERR294205	furio2020
ERR294206	furio2020
ERR294207	furio2020
ERR294208	furio2020
ERR294210	furio2020
ERR294211	furio2020
ERR294213	furio2020
ERR294214	furio2020
ERR294217	furio2020
ERR294218	furio2020
ERR294220	furio2020
ERR294221	furio2020
ERR294222	furio2020
ERR294224	furio2020
ERR294226	furio2020
ERR294228	furio2020
ERR294229	furio2020
ERR294230	furio2020
ERR294231	furio2020
ERR294232	furio2020
ERR294233	furio2020
ERR294234	furio2020
ERR294236	furio2020
ERR294240	furio2020
ERR294242	furio2020
ERR294243	furio2020
ERR294244	furio2020
ERR294245	furio2020
ERR294249	furio2020
ERR294250	furio2020
ERR294254	furio2020
ERR294255	furio2020
ERR294256	furio2020
ERR294257	furio2020
ERR294258	furio2020
ERR294259	furio2020
ERR294260	furio2020
ERR294261	furio2020
ERR294262	furio2020
ERR294263	furio2020
ERR294264	furio2020
ERR294265	furio2020
ERR294267	furio2020
ERR294268	furio2020
ERR294269	furio2020
ERR294270	furio2020
ERR294271	furio2020
ERR294272	furio2020
ERR294273	furio2020
ERR330651	furio2020
ERR330654	furio2020
ERR330655	furio2020
ERR330656	furio2020
ERR330658	furio2020
ERR330660	furio2020
ERR330661	furio2020
ERR330663	furio2020
ERR330666	furio2020
ERR330667	furio2020
ERR330668	furio2020
ERR330669	furio2020
ERR330671	furio2020
ERR330672	furio2020
ERR330676	furio2020
ERR330677	furio2020
ERR330679	furio2020
ERR330680	furio2020
ERR330681	furio2020
ERR330682	furio2020
ERR330683	furio2020
ERR330684	furio2020
ERR330685	furio2020
ERR330686	furio2020
ERR330687	furio2020
ERR330688	furio2020
ERR330690	furio2020
ERR330691	furio2020
ERR330692	furio2020
ERR330693	furio2020
ERR330695	furio2020
ERR330696	furio2020
ERR330697	furio2020
ERR330698	furio2020
ERR330699	furio2020
ERR330700	furio2020
ERR330701	furio2020
ERR330702	furio2020
ERR330703	furio2020
ERR330707	furio2020
ERR330708	furio2020
ERR330709	furio2020
ERR330710	furio2020
ERR330712	furio2020
ERR330714	furio2020
ERR330716	furio2020
ERR330717	furio2020
ERR330718	furio2020
ERR330719	furio2020
ERR330721	furio2020
ERR330722	furio2020
ERR330724	furio2020
ERR330725	furio2020
ERR330727	furio2020
ERR330728	furio2020
ERR330729	furio2020
ERR330732	furio2020
ERR330734	furio2020
ERR330735	furio2020
ERR330736	furio2020
ERR330738	furio2020
ERR330742	furio2020
ERR330743	furio2020
ERR330744	furio2020
ERR330745	furio2020
ERR351845	furio2020
ERR351846	furio2020
ERR351849	furio2020
ERR351851	furio2020
ERR351852	furio2020
ERR351855	furio2020
ERR351856	furio2020
ERR351857	furio2020
ERR351858	furio2020
ERR351859	furio2020
ERR351861	furio2020
ERR351863	furio2020
ERR351864	furio2020
ERR351865	furio2020
ERR351867	furio2020
ERR351868	furio2020
ERR351870	furio2020
ERR351872	furio2020
ERR351873	furio2020
ERR351874	furio2020
ERR351875	furio2020
ERR351877	furio2020
ERR351880	furio2020
ERR351881	furio2020
ERR351882	furio2020
ERR351883	furio2020
ERR351885	furio2020
ERR351886	furio2020
ERR351887	furio2020
ERR351888	furio2020
ERR351890	furio2020
ERR351891	furio2020
ERR351893	furio2020
ERR351894	furio2020
ERR351896	furio2020
ERR351897	furio2020
ERR351898	furio2020
ERR351899	furio2020
ERR351903	furio2020
ERR351904	furio2020
ERR351909	furio2020
ERR351911	furio2020
ERR351912	furio2020
ERR351914	furio2020
ERR351915	furio2020
ERR351916	furio2020
ERR351918	furio2020
ERR351919	furio2020
ERR351920	furio2020
ERR351921	furio2020
ERR351928	furio2020
ERR351930	furio2020
ERR351931	furio2020
ERR351934	furio2020
ERR351935	furio2020
ERR351937	furio2020
ERR351938	furio2020
ERR386780	furio2020
ERR386798	furio2020
ERR386827	furio2020
ERR386839	furio2020
ERR386840	furio2020
ERR386845	furio2020
ERR386854	furio2020
ERR386859	furio2020
ERR386861	furio2020
ERR386871	furio2020
ERR386884	furio2020
ERR386970	furio2020
ERR386973	furio2020
ERR386977	furio2020
ERR386978	furio2020
ERR386979	furio2020
ERR386980	furio2020
ERR386981	furio2020
ERR386982	furio2020
ERR386984	furio2020
ERR386985	furio2020
ERR386986	furio2020
ERR386987	furio2020
ERR386988	furio2020
ERR386989	furio2020
ERR386990	furio2020
ERR386992	furio2020
ERR386993	furio2020
ERR386994	furio2020
ERR386996	furio2020
ERR386999	furio2020
ERR387002	furio2020
ERR387003	furio2020
ERR387005	furio2020
ERR387006	furio2020
ERR387007	furio2020
ERR387008	furio2020
ERR387012	furio2020
ERR387013	furio2020
ERR387014	furio2020
ERR387017	furio2020
ERR387018	furio2020
ERR387020	furio2020
ERR387021	furio2020
ERR387031	furio2020
ERR387032	furio2020
ERR387033	furio2020
ERR387036	furio2020
ERR387039	furio2020
ERR387040	furio2020
ERR387041	furio2020
ERR387042	furio2020
ERR387043	furio2020
ERR387044	furio2020
ERR387045	furio2020
ERR387056	furio2020
ERR387059	furio2020
ERR387061	furio2020
ERR387062	furio2020
ERR387063	furio2020
ERR400307	furio2020
ERR400308	furio2020
ERR400309	furio2020
ERR400311	furio2020
ERR400312	furio2020
ERR400314	furio2020
ERR400316	furio2020
ERR400317	furio2020
ERR400319	furio2020
ERR400328	furio2020
ERR400329	furio2020
ERR400330	furio2020
ERR400331	furio2020
ERR400333	furio2020
ERR400337	furio2020
ERR400339	furio2020
ERR400340	furio2020
ERR400341	furio2020
ERR400342	furio2020
ERR400347	furio2020
ERR400348	furio2020
ERR400352	furio2020
ERR400353	furio2020
ERR400354	furio2020
ERR400357	furio2020
ERR400358	furio2020
ERR400368	furio2020
ERR400370	furio2020
ERR400375	furio2020
ERR400376	furio2020
ERR400377	furio2020
ERR400378	furio2020
ERR400379	furio2020
ERR400380	furio2020
ERR400382	furio2020
ERR400383	furio2020
ERR400387	furio2020
ERR400389	furio2020
ERR400390	furio2020
ERR400391	furio2020
ERR400392	furio2020
ERR400393	furio2020
ERR400396	furio2020
ERR400397	furio2020
ERR400398	furio2020
ERR400399	furio2020
ERR400400	furio2020
ERR400401	furio2020
ERR400402	furio2020
ERR400403	furio2020
ERR400404	furio2020
ERR400405	furio2020
ERR400406	furio2020
ERR400408	furio2020
ERR400409	furio2020
ERR400411	furio2020
ERR400413	furio2020
ERR400414	furio2020
ERR400416	furio2020
ERR400417	furio2020
ERR400418	furio2020
ERR400419	furio2020
ERR400421	furio2020
ERR400422	furio2020
ERR400423	furio2020
ERR400424	furio2020
ERR400425	furio2020
ERR400426	furio2020
ERR400427	furio2020
ERR400429	furio2020
ERR400430	furio2020
ERR400431	furio2020
ERR400433	furio2020
ERR400434	furio2020
ERR400435	furio2020
ERR400436	furio2020
ERR400437	furio2020
ERR400440	furio2020
ERR400441	furio2020
ERR400442	furio2020
ERR400443	furio2020
ERR400444	furio2020
ERR400445	furio2020
ERR400446	furio2020
ERR400447	furio2020
ERR400448	furio2020
ERR400449	furio2020
ERR400451	furio2020
ERR400452	furio2020
ERR400453	furio2020
ERR400454	furio2020
ERR400455	furio2020
ERR400457	furio2020
ERR400458	furio2020
ERR400459	furio2020
ERR400461	furio2020
ERR400462	furio2020
ERR400463	furio2020
ERR400464	furio2020
ERR400465	furio2020
ERR400466	furio2020
ERR400467	furio2020
ERR400468	furio2020
ERR400469	furio2020
ERR400470	furio2020
ERR400471	furio2020
ERR400472	furio2020
ERR400473	furio2020
ERR400474	furio2020
ERR400475	furio2020
ERR400477	furio2020
ERR400478	furio2020
ERR400479	furio2020
ERR400480	furio2020
ERR400481	furio2020
ERR400483	furio2020
ERR400487	furio2020
ERR400489	furio2020
ERR400491	furio2020
ERR400492	furio2020
ERR400493	furio2020
ERR400494	furio2020
ERR400497	furio2020
ERR400498	furio2020
ERR400500	furio2020
ERR400504	furio2020
ERR400505	furio2020
ERR400509	furio2020
ERR400510	furio2020
ERR400512	furio2020
ERR400514	furio2020
ERR400515	furio2020
ERR400516	furio2020
ERR400517	furio2020
ERR400518	furio2020
ERR400519	furio2020
ERR400520	furio2020
ERR400521	furio2020
ERR400523	furio2020
ERR400524	furio2020
ERR400525	furio2020
ERR400529	furio2020
ERR400530	furio2020
ERR400531	furio2020
ERR400532	furio2020
ERR400534	furio2020
ERR400535	furio2020
ERR400536	furio2020
ERR400540	furio2020
ERR400541	furio2020
ERR400542	furio2020
ERR400543	furio2020
ERR400545	furio2020
ERR400546	furio2020
ERR400547	furio2020
ERR400549	furio2020
ERR400550	furio2020
ERR400551	furio2020
ERR400552	furio2020
ERR400553	furio2020
ERR400554	furio2020
ERR400555	furio2020
ERR400556	furio2020
ERR400557	furio2020
ERR403214	furio2020
ERR403215	furio2020
ERR403216	furio2020
ERR403217	furio2020
ERR403219	furio2020
ERR403221	furio2020
ERR403222	furio2020
ERR403223	furio2020
ERR403224	furio2020
ERR403225	furio2020
ERR403226	furio2020
ERR403227	furio2020
ERR403228	furio2020
ERR403229	furio2020
ERR403230	furio2020
ERR403232	furio2020
ERR403233	furio2020
ERR403234	furio2020
ERR403235	furio2020
ERR403236	furio2020
ERR403237	furio2020
ERR403238	furio2020
ERR403240	furio2020
ERR403241	furio2020
ERR403242	furio2020
ERR403243	furio2020
ERR403244	furio2020
ERR403245	furio2020
ERR403246	furio2020
ERR403247	furio2020
ERR403248	furio2020
ERR403250	furio2020
ERR403251	furio2020
ERR403252	furio2020
ERR403253	furio2020
ERR403254	furio2020
ERR403255	furio2020
ERR403257	furio2020
ERR403258	furio2020
ERR403259	furio2020
ERR403260	furio2020
ERR403262	furio2020
ERR403263	furio2020
ERR403264	furio2020
ERR403265	furio2020
ERR403266	furio2020
ERR403268	furio2020
ERR403269	furio2020
ERR403270	furio2020
ERR403272	furio2020
ERR403273	furio2020
ERR403275	furio2020
ERR403276	furio2020
ERR403278	furio2020
ERR403279	furio2020
ERR403280	furio2020
ERR403286	furio2020
ERR403287	furio2020
ERR403289	furio2020
ERR403290	furio2020
ERR403291	furio2020
ERR403294	furio2020
ERR403295	furio2020
ERR403296	furio2020
ERR403300	furio2020
ERR403301	furio2020
ERR403302	furio2020
ERR403303	furio2020
ERR403304	furio2020
ERR403305	furio2020
ERR403306	furio2020
ERR403307	furio2020
ERR403309	furio2020
ERR403312	furio2020
ERR403313	furio2020
ERR403316	furio2020
ERR403319	furio2020
ERR403321	furio2020
ERR403323	furio2020
ERR403324	furio2020
ERR403325	furio2020
ERR403327	furio2020
ERR403329	furio2020
ERR403330	furio2020
ERR403331	furio2020
ERR403332	furio2020
ERR403333	furio2020
ERR403336	furio2020
ERR403337	furio2020
ERR403339	furio2020
ERR403342	furio2020
ERR403343	furio2020
ERR403374	furio2020
ERR403375	furio2020
ERR403376	furio2020
ERR403377	furio2020
ERR403379	furio2020
ERR403380	furio2020
ERR403381	furio2020
ERR403384	furio2020
ERR403387	furio2020
ERR403390	furio2020
ERR403392	furio2020
ERR403394	furio2020
ERR403395	furio2020
ERR403396	furio2020
ERR403401	furio2020
ERR403402	furio2020
ERR403405	furio2020
ERR403412	furio2020
ERR484734	furio2020
ERR484739	furio2020
ERR550617	furio2020
ERR550620	furio2020
ERR550621	furio2020
ERR550628	furio2020
ERR550629	furio2020
ERR550630	furio2020
ERR550632	furio2020
ERR550633	furio2020
ERR550635	furio2020
ERR550642	furio2020
ERR550646	furio2020
ERR550650	furio2020
ERR550651	furio2020
ERR550652	furio2020
ERR550653	furio2020
ERR550656	furio2020
ERR550660	furio2020
ERR550661	furio2020
ERR550662	furio2020
ERR550663	furio2020
ERR550664	furio2020
ERR550665	furio2020
ERR550667	furio2020
ERR550672	furio2020
ERR550673	furio2020
ERR550675	furio2020
ERR550681	furio2020
ERR550688	furio2020
ERR550689	furio2020
ERR550695	furio2020
ERR550696	furio2020
ERR550698	furio2020
ERR550699	furio2020
ERR550700	furio2020
ERR550702	furio2020
ERR550708	furio2020
ERR550710	furio2020
ERR550711	furio2020
ERR550713	furio2020
ERR550714	furio2020
ERR550717	furio2020
ERR550722	furio2020
ERR550729	furio2020
ERR550731	furio2020
ERR550732	furio2020
ERR550735	furio2020
ERR550736	furio2020
ERR550737	furio2020
ERR550742	furio2020
ERR550743	furio2020
ERR550744	furio2020
ERR550745	furio2020
ERR550746	furio2020
ERR550747	furio2020
ERR550760	furio2020
ERR550761	furio2020
ERR550764	furio2020
ERR550768	furio2020
ERR550770	furio2020
ERR550771	furio2020
ERR550772	furio2020
ERR550773	furio2020
ERR550774	furio2020
ERR550776	furio2020
ERR550778	furio2020
ERR550784	furio2020
ERR550785	furio2020
ERR550786	furio2020
ERR550791	furio2020
ERR550793	furio2020
ERR550795	furio2020
ERR550796	furio2020
ERR550801	furio2020
ERR550803	furio2020
ERR550807	furio2020
ERR550808	furio2020
ERR550810	furio2020
ERR550811	furio2020
ERR550812	furio2020
ERR550821	furio2020
ERR550829	furio2020
ERR550830	furio2020
ERR550832	furio2020
ERR550838	furio2020
ERR550839	furio2020
ERR550841	furio2020
ERR550842	furio2020
ERR550844	furio2020
ERR550846	furio2020
ERR550848	furio2020
ERR550849	furio2020
ERR550853	furio2020
ERR550856	furio2020
ERR550862	furio2020
ERR550875	furio2020
ERR550876	furio2020
ERR550877	furio2020
ERR550878	furio2020
ERR550880	furio2020
ERR550886	furio2020
ERR550887	furio2020
ERR550890	furio2020
ERR550892	furio2020
ERR550894	furio2020
ERR550896	furio2020
ERR550907	furio2020
ERR550910	furio2020
ERR550914	furio2020
ERR550915	furio2020
ERR550921	furio2020
ERR550922	furio2020
ERR550923	furio2020
ERR550924	furio2020
ERR550935	furio2020
ERR550936	furio2020
ERR550938	furio2020
ERR550942	furio2020
ERR550943	furio2020
ERR550944	furio2020
ERR550947	furio2020
ERR550948	furio2020
ERR550949	furio2020
ERR550950	furio2020
ERR550951	furio2020
ERR550955	furio2020
ERR550956	furio2020
ERR550960	furio2020
ERR550961	furio2020
ERR550964	furio2020
ERR550965	furio2020
ERR550969	furio2020
ERR550974	furio2020
ERR550975	furio2020
ERR550978	furio2020
ERR550980	furio2020
ERR550981	furio2020
ERR550990	furio2020
ERR550991	furio2020
ERR550995	furio2020
ERR550997	furio2020
ERR550999	furio2020
ERR551000	furio2020
ERR551001	furio2020
ERR551002	furio2020
ERR551007	furio2020
ERR551008	furio2020
ERR551012	furio2020
ERR551013	furio2020
ERR551015	furio2020
ERR551019	furio2020
ERR551020	furio2020
ERR551022	furio2020
ERR551025	furio2020
ERR551026	furio2020
ERR551029	furio2020
ERR551038	furio2020
ERR551041	furio2020
ERR551042	furio2020
ERR551046	furio2020
ERR551051	furio2020
ERR551052	furio2020
ERR551058	furio2020
ERR551061	furio2020
ERR551065	furio2020
ERR551072	furio2020
ERR551084	furio2020
ERR551085	furio2020
ERR551087	furio2020
ERR551089	furio2020
ERR551091	furio2020
ERR551094	furio2020
ERR551095	furio2020
ERR551098	furio2020
ERR551099	furio2020
ERR551100	furio2020
ERR551102	furio2020
ERR551103	furio2020
ERR551104	furio2020
ERR551106	furio2020
ERR551108	furio2020
ERR551109	furio2020
ERR551110	furio2020
ERR551114	furio2020
ERR551115	furio2020
ERR551116	furio2020
ERR551118	furio2020
ERR551120	furio2020
ERR551121	furio2020
ERR551125	furio2020
ERR551127	furio2020
ERR551128	furio2020
ERR551130	furio2020
ERR551132	furio2020
ERR551133	furio2020
ERR551137	furio2020
ERR551138	furio2020
ERR551141	furio2020
ERR551144	furio2020
ERR551145	furio2020
ERR551157	furio2020
ERR551158	furio2020
ERR551160	furio2020
ERR551163	furio2020
ERR551165	furio2020
ERR551170	furio2020
ERR551175	furio2020
ERR551178	furio2020
ERR551183	furio2020
ERR551186	furio2020
ERR551193	furio2020
ERR551196	furio2020
ERR551198	furio2020
ERR551210	furio2020
ERR551213	furio2020
ERR551220	furio2020
ERR551223	furio2020
ERR551224	furio2020
ERR551225	furio2020
ERR551229	furio2020
ERR551232	furio2020
ERR551236	furio2020
ERR551238	furio2020
ERR551243	furio2020
ERR551257	furio2020
ERR551258	furio2020
ERR551259	furio2020
ERR551260	furio2020
ERR551266	furio2020
ERR551267	furio2020
ERR551268	furio2020
ERR551269	furio2020
ERR551270	furio2020
ERR551271	furio2020
ERR551272	furio2020
ERR551276	furio2020
ERR551277	furio2020
ERR551279	furio2020
ERR551284	furio2020
ERR551285	furio2020
ERR551290	furio2020
ERR551291	furio2020
ERR551293	furio2020
ERR551294	furio2020
ERR551295	furio2020
ERR551296	furio2020
ERR551297	furio2020
ERR551300	furio2020
ERR551301	furio2020
ERR551304	furio2020
ERR551305	furio2020
ERR551312	furio2020
ERR551313	furio2020
ERR551320	furio2020
ERR551321	furio2020
ERR551322	furio2020
ERR551323	furio2020
ERR551327	furio2020
ERR551335	furio2020
ERR551336	furio2020
ERR551340	furio2020
ERR551342	furio2020
ERR551345	furio2020
ERR551348	furio2020
ERR551349	furio2020
ERR551350	furio2020
ERR551351	furio2020
ERR551352	furio2020
ERR551355	furio2020
ERR551356	furio2020
ERR551360	furio2020
ERR551361	furio2020
ERR551365	furio2020
ERR551366	furio2020
ERR551368	furio2020
ERR551372	furio2020
ERR551373	furio2020
ERR551374	furio2020
ERR551375	furio2020
ERR551379	furio2020
ERR551380	furio2020
ERR551382	furio2020
ERR551385	furio2020
ERR551388	furio2020
ERR551390	furio2020
ERR551394	furio2020
ERR551395	furio2020
ERR551396	furio2020
ERR551397	furio2020
ERR551399	furio2020
ERR551405	furio2020
ERR551406	furio2020
ERR551409	furio2020
ERR551410	furio2020
ERR551412	furio2020
ERR551413	furio2020
ERR551415	furio2020
ERR551417	furio2020
ERR551418	furio2020
ERR551419	furio2020
ERR551428	furio2020
ERR551429	furio2020
ERR551430	furio2020
ERR551431	furio2020
ERR551435	furio2020
ERR551436	furio2020
ERR551438	furio2020
ERR551447	furio2020
ERR551459	furio2020
ERR551460	furio2020
ERR551461	furio2020
ERR551462	furio2020
ERR551464	furio2020
ERR551465	furio2020
ERR551467	furio2020
ERR551468	furio2020
ERR551473	furio2020
ERR551478	furio2020
ERR551482	furio2020
ERR551483	furio2020
ERR551486	furio2020
ERR551487	furio2020
ERR551489	furio2020
ERR551490	furio2020
ERR551495	furio2020
ERR551496	furio2020
ERR551497	furio2020
ERR551498	furio2020
ERR551500	furio2020
ERR551504	furio2020
ERR551505	furio2020
ERR551508	furio2020
ERR551509	furio2020
ERR551510	furio2020
ERR551513	furio2020
ERR551515	furio2020
ERR551520	furio2020
ERR551522	furio2020
ERR551526	furio2020
ERR551527	furio2020
ERR551532	furio2020
ERR551533	furio2020
ERR551538	furio2020
ERR551539	furio2020
ERR551540	furio2020
ERR551541	furio2020
ERR551546	furio2020
ERR551556	furio2020
ERR551559	furio2020
ERR551564	furio2020
ERR551565	furio2020
ERR551566	furio2020
ERR551569	furio2020
ERR551573	furio2020
ERR551574	furio2020
ERR551576	furio2020
ERR551580	furio2020
ERR551582	furio2020
ERR551591	furio2020
ERR551593	furio2020
ERR551595	furio2020
ERR551596	furio2020
ERR551599	furio2020
ERR551600	furio2020
ERR551602	furio2020
ERR551604	furio2020
ERR551606	furio2020
ERR551607	furio2020
ERR551610	furio2020
ERR551611	furio2020
ERR551612	furio2020
ERR551616	furio2020
ERR551620	furio2020
ERR551623	furio2020
ERR551624	furio2020
ERR551627	furio2020
ERR551631	furio2020
ERR551632	furio2020
ERR551633	furio2020
ERR551634	furio2020
ERR551637	furio2020
ERR551638	furio2020
ERR551645	furio2020
ERR551646	furio2020
ERR551648	furio2020
ERR551652	furio2020
ERR551656	furio2020
ERR551657	furio2020
ERR551658	furio2020
ERR551661	furio2020
ERR551662	furio2020
ERR551663	furio2020
ERR551667	furio2020
ERR551668	furio2020
ERR551669	furio2020
ERR551679	furio2020
ERR551684	furio2020
ERR551691	furio2020
ERR551695	furio2020
ERR551696	furio2020
ERR551697	furio2020
ERR551698	furio2020
ERR551701	furio2020
ERR551703	furio2020
ERR551707	furio2020
ERR551712	furio2020
ERR551714	furio2020
ERR551715	furio2020
ERR551716	furio2020
ERR551718	furio2020
ERR551719	furio2020
ERR551720	furio2020
ERR551723	furio2020
ERR551725	furio2020
ERR551726	furio2020
ERR551731	furio2020
ERR551733	furio2020
ERR551735	furio2020
ERR551736	furio2020
ERR551737	furio2020
ERR551738	furio2020
ERR551741	furio2020
ERR551742	furio2020
ERR551745	furio2020
ERR551747	furio2020
ERR551751	furio2020
ERR551752	furio2020
ERR551753	furio2020
ERR551756	furio2020
ERR551761	furio2020
ERR551762	furio2020
ERR551763	furio2020
ERR551768	furio2020
ERR551770	furio2020
ERR551774	furio2020
ERR551778	furio2020
ERR551780	furio2020
ERR551781	furio2020
ERR551783	furio2020
ERR551784	furio2020
ERR551787	furio2020
ERR551793	furio2020
ERR551794	furio2020
ERR551796	furio2020
ERR551802	furio2020
ERR551803	furio2020
ERR551804	furio2020
ERR551805	furio2020
ERR551811	furio2020
ERR551813	furio2020
ERR551814	furio2020
ERR551815	furio2020
ERR551816	furio2020
ERR551818	furio2020
ERR551821	furio2020
ERR551822	furio2020
ERR551824	furio2020
ERR551825	furio2020
ERR551826	furio2020
ERR551827	furio2020
ERR551829	furio2020
ERR551834	furio2020
ERR551836	furio2020
ERR551837	furio2020
ERR551839	furio2020
ERR551840	furio2020
ERR551841	furio2020
ERR551842	furio2020
ERR551844	furio2020
ERR551845	furio2020
ERR551846	furio2020
ERR551848	furio2020
ERR551849	furio2020
ERR551856	furio2020
ERR551858	furio2020
ERR551859	furio2020
ERR551860	furio2020
ERR551861	furio2020
ERR551862	furio2020
ERR551864	furio2020
ERR551867	furio2020
ERR551871	furio2020
ERR551872	furio2020
ERR551876	furio2020
ERR551877	furio2020
ERR551878	furio2020
ERR551884	furio2020
ERR551886	furio2020
ERR551893	furio2020
ERR551894	furio2020
ERR551895	furio2020
ERR551898	furio2020
ERR551900	furio2020
ERR551901	furio2020
ERR551902	furio2020
ERR551909	furio2020
ERR551910	furio2020
ERR551911	furio2020
ERR551912	furio2020
ERR551916	furio2020
ERR551918	furio2020
ERR551922	furio2020
ERR551923	furio2020
ERR551931	furio2020
ERR551933	furio2020
ERR551936	furio2020
ERR551940	furio2020
ERR551944	furio2020
ERR551945	furio2020
ERR551946	furio2020
ERR551949	furio2020
ERR551952	furio2020
ERR551954	furio2020
ERR551957	furio2020
ERR551960	furio2020
ERR551962	furio2020
ERR551968	furio2020
ERR551971	furio2020
ERR551973	furio2020
ERR551974	furio2020
ERR551985	furio2020
ERR551988	furio2020
ERR551989	furio2020
ERR551990	furio2020
ERR551992	furio2020
ERR551993	furio2020
ERR551994	furio2020
ERR551998	furio2020
ERR551999	furio2020
ERR552006	furio2020
ERR552007	furio2020
ERR552008	furio2020
ERR552009	furio2020
ERR552011	furio2020
ERR552012	furio2020
ERR552013	furio2020
ERR552014	furio2020
ERR552018	furio2020
ERR552019	furio2020
ERR552020	furio2020
ERR552025	furio2020
ERR552028	furio2020
ERR552030	furio2020
ERR552032	furio2020
ERR552041	furio2020
ERR552043	furio2020
ERR552047	furio2020
ERR552050	furio2020
ERR552054	furio2020
ERR552055	furio2020
ERR552058	furio2020
ERR552060	furio2020
ERR552061	furio2020
ERR552064	furio2020
ERR552065	furio2020
ERR552066	furio2020
ERR552067	furio2020
ERR552076	furio2020
ERR552082	furio2020
ERR552085	furio2020
ERR552090	furio2020
ERR552091	furio2020
ERR552092	furio2020
ERR552094	furio2020
ERR552095	furio2020
ERR552096	furio2020
ERR552098	furio2020
ERR552102	furio2020
ERR552103	furio2020
ERR552104	furio2020
ERR552105	furio2020
ERR552106	furio2020
ERR552111	furio2020
ERR552113	furio2020
ERR552114	furio2020
ERR552117	furio2020
ERR552123	furio2020
ERR552126	furio2020
ERR552128	furio2020
ERR552130	furio2020
ERR552132	furio2020
ERR552137	furio2020
ERR552143	furio2020
ERR552145	furio2020
ERR552146	furio2020
ERR552147	furio2020
ERR552148	furio2020
ERR552154	furio2020
ERR552155	furio2020
ERR552156	furio2020
ERR552160	furio2020
ERR552164	furio2020
ERR552165	furio2020
ERR552168	furio2020
ERR552175	furio2020
ERR552177	furio2020
ERR552178	furio2020
ERR552180	furio2020
ERR552216	furio2020
ERR552220	furio2020
ERR552225	furio2020
ERR552226	furio2020
ERR552227	furio2020
ERR552232	furio2020
ERR552233	furio2020
ERR552235	furio2020
ERR552244	furio2020
ERR552245	furio2020
ERR552247	furio2020
ERR552248	furio2020
ERR552249	furio2020
ERR552256	furio2020
ERR552257	furio2020
ERR552260	furio2020
ERR552261	furio2020
ERR552263	furio2020
ERR552264	furio2020
ERR552268	furio2020
ERR552269	furio2020
ERR552271	furio2020
ERR552274	furio2020
ERR552276	furio2020
ERR552278	furio2020
ERR552280	furio2020
ERR552286	furio2020
ERR552290	furio2020
ERR552291	furio2020
ERR552292	furio2020
ERR552293	furio2020
ERR552300	furio2020
ERR552301	furio2020
ERR552302	furio2020
ERR552310	furio2020
ERR552322	furio2020
ERR552324	furio2020
ERR552326	furio2020
ERR552334	furio2020
ERR552335	furio2020
ERR552336	furio2020
ERR552338	furio2020
ERR552341	furio2020
ERR552345	furio2020
ERR552346	furio2020
ERR552347	furio2020
ERR552350	furio2020
ERR552354	furio2020
ERR552358	furio2020
ERR552427	furio2020
ERR552455	furio2020
ERR552476	furio2020
ERR552477	furio2020
ERR552483	furio2020
ERR552490	furio2020
ERR552500	furio2020
ERR552501	furio2020
ERR552502	furio2020
ERR552504	furio2020
ERR552508	furio2020
ERR552509	furio2020
ERR552510	furio2020
ERR552512	furio2020
ERR552513	furio2020
ERR552514	furio2020
ERR552517	furio2020
ERR552519	furio2020
ERR552520	furio2020
ERR552523	furio2020
ERR552524	furio2020
ERR552528	furio2020
ERR552532	furio2020
ERR552535	furio2020
ERR552538	furio2020
ERR552539	furio2020
ERR552541	furio2020
ERR552544	furio2020
ERR552545	furio2020
ERR552546	furio2020
ERR552560	furio2020
ERR552580	furio2020
ERR552605	furio2020
ERR552615	furio2020
ERR552624	furio2020
ERR552625	furio2020
ERR552626	furio2020
ERR552630	furio2020
ERR552631	furio2020
ERR552647	furio2020
ERR552662	furio2020
ERR552716	furio2020
ERR552717	furio2020
ERR552719	furio2020
ERR552721	furio2020
ERR552722	furio2020
ERR552724	furio2020
ERR552727	furio2020
ERR552728	furio2020
ERR552729	furio2020
ERR552730	furio2020
ERR552733	furio2020
ERR552734	furio2020
ERR552737	furio2020
ERR552738	furio2020
ERR552740	furio2020
ERR552741	furio2020
ERR552742	furio2020
ERR552744	furio2020
ERR552749	furio2020
ERR552750	furio2020
ERR552752	furio2020
ERR552756	furio2020
ERR552757	furio2020
ERR552758	furio2020
ERR552761	furio2020
ERR552762	furio2020
ERR552773	furio2020
ERR552788	furio2020
ERR552790	furio2020
ERR552791	furio2020
ERR552793	furio2020
ERR552794	furio2020
ERR552795	furio2020
ERR552800	furio2020
ERR552803	furio2020
ERR552804	furio2020
ERR552836	furio2020
ERR552879	furio2020
ERR552907	furio2020
ERR552912	furio2020
ERR552922	furio2020
ERR552935	furio2020
ERR552939	furio2020
ERR552969	furio2020
ERR552973	furio2020
ERR552976	furio2020
ERR552977	furio2020
ERR552980	furio2020
ERR552982	furio2020
ERR552983	furio2020
ERR552985	furio2020
ERR552988	furio2020
ERR552999	furio2020
ERR553003	furio2020
ERR553005	furio2020
ERR553008	furio2020
ERR553016	furio2020
ERR553019	furio2020
ERR553022	furio2020
ERR553031	furio2020
ERR553034	furio2020
ERR553036	furio2020
ERR553037	furio2020
ERR553039	furio2020
ERR553043	furio2020
ERR553046	furio2020
ERR553068	furio2020
ERR553086	furio2020
ERR553098	furio2020
ERR553131	furio2020
ERR553139	furio2020
ERR553171	furio2020
ERR553218	furio2020
ERR553219	furio2020
ERR553223	furio2020
ERR553225	furio2020
ERR553226	furio2020
ERR553227	furio2020
ERR553231	furio2020
ERR553232	furio2020
ERR553238	furio2020
ERR553239	furio2020
ERR553245	furio2020
ERR553246	furio2020
ERR553249	furio2020
ERR553254	furio2020
ERR553255	furio2020
ERR553256	furio2020
ERR553257	furio2020
ERR553258	furio2020
ERR553266	furio2020
ERR553267	furio2020
ERR553276	furio2020
ERR553283	furio2020
ERR553286	furio2020
ERR553314	furio2020
ERR553347	furio2020
ERR553371	furio2020
ERR553386	furio2020
SRR057595	furio2020
SRR2099950	furio2020
SRR2099953	furio2020
SRR2099954	furio2020
SRR2099955	furio2020
SRR2099988	furio2020
SRR2099989	furio2020
SRR2100006	furio2020
SRR2100015	furio2020
SRR2100019	furio2020
SRR2100020	furio2020
SRR2100021	furio2020
SRR2100023	furio2020
SRR2100025	furio2020
SRR2100027	furio2020
SRR2100028	furio2020
SRR2100030	furio2020
SRR2100031	furio2020
SRR2100033	furio2020
SRR2100034	furio2020
SRR2100035	furio2020
SRR2100036	furio2020
SRR2100037	furio2020
SRR2100038	furio2020
SRR2100039	furio2020
SRR2100040	furio2020
SRR2100041	furio2020
SRR2100042	furio2020
SRR2100044	furio2020
SRR2100045	furio2020
SRR2100046	furio2020
SRR2100047	furio2020
SRR2100048	furio2020
SRR2100049	furio2020
SRR2100050	furio2020
SRR2100051	furio2020
SRR2100053	furio2020
SRR2100054	furio2020
SRR2100055	furio2020
SRR2100056	furio2020
SRR2100057	furio2020
SRR2100058	furio2020
SRR2100059	furio2020
SRR2100062	furio2020
SRR2100064	furio2020
SRR2100065	furio2020
SRR2100068	furio2020
SRR2100069	furio2020
SRR2100071	furio2020
SRR2100073	furio2020
SRR2100077	furio2020
SRR2100078	furio2020
SRR2100079	furio2020
SRR2100080	furio2020
SRR2100082	furio2020
SRR2100084	furio2020
SRR2100085	furio2020
SRR2100086	furio2020
SRR2100088	furio2020
SRR2100090	furio2020
SRR2100092	furio2020
SRR2100093	furio2020
SRR2100098	furio2020
SRR2100100	furio2020
SRR2100101	furio2020
SRR2100103	furio2020
SRR2100104	furio2020
SRR2100105	furio2020
SRR2100107	furio2020
SRR2100108	furio2020
SRR2100110	furio2020
SRR2100111	furio2020
SRR2100113	furio2020
SRR2100114	furio2020
SRR2100119	furio2020
SRR2100121	furio2020
SRR2100123	furio2020
SRR2100124	furio2020
SRR2100129	furio2020
SRR2100134	furio2020
SRR2100135	furio2020
SRR2100138	furio2020
SRR2100140	furio2020
SRR2100142	furio2020
SRR2100143	furio2020
SRR2100144	furio2020
SRR2100145	furio2020
SRR2100146	furio2020
SRR2100149	furio2020
SRR2100150	furio2020
SRR2100151	furio2020
SRR2100153	furio2020
SRR2100154	furio2020
SRR2100155	furio2020
SRR2100156	furio2020
SRR2100158	furio2020
SRR2100159	furio2020
SRR2100161	furio2020
SRR2100162	furio2020
SRR2100163	furio2020
SRR2100164	furio2020
SRR2100165	furio2020
SRR2100166	furio2020
SRR2100167	furio2020
SRR2100169	furio2020
SRR2100171	furio2020
SRR2100172	furio2020
SRR2100173	furio2020
SRR2100174	furio2020
SRR2100175	furio2020
SRR2100176	furio2020
SRR2100177	furio2020
SRR2100178	furio2020
SRR2100180	furio2020
SRR2100182	furio2020
SRR2100183	furio2020
SRR2100185	furio2020
SRR2100186	furio2020
SRR2100187	furio2020
SRR2100188	furio2020
SRR2100189	furio2020
SRR2100190	furio2020
SRR2100191	furio2020
SRR2100193	furio2020
SRR2100194	furio2020
SRR2100195	furio2020
SRR2100196	furio2020
SRR2100197	furio2020
SRR2100199	furio2020
SRR2100205	furio2020
SRR2100206	furio2020
SRR2100208	furio2020
SRR2100209	furio2020
SRR2100210	furio2020
SRR2100211	furio2020
SRR2100212	furio2020
SRR2100213	furio2020
SRR2100214	furio2020
SRR2100215	furio2020
SRR2100216	furio2020
SRR2100217	furio2020
SRR2100218	furio2020
SRR2100219	furio2020
SRR2100220	furio2020
SRR2100221	furio2020
SRR2100222	furio2020
SRR2100223	furio2020
SRR2100224	furio2020
SRR2100225	furio2020
SRR2100226	furio2020
SRR2100227	furio2020
SRR2100228	furio2020
SRR2100229	furio2020
SRR2100230	furio2020
SRR2100231	furio2020
SRR2100233	furio2020
SRR2100234	furio2020
SRR2100236	furio2020
SRR2100238	furio2020
SRR2100240	furio2020
SRR2100241	furio2020
SRR2100242	furio2020
SRR2100243	furio2020
SRR2100244	furio2020
SRR2100245	furio2020
SRR2100247	furio2020
SRR2100248	furio2020
SRR2100250	furio2020
SRR2100251	furio2020
SRR2100253	furio2020
SRR2100254	furio2020
SRR2100255	furio2020
SRR2100256	furio2020
SRR2100257	furio2020
SRR2100258	furio2020
SRR2100259	furio2020
SRR2100261	furio2020
SRR2100262	furio2020
SRR2100263	furio2020
SRR2100264	furio2020
SRR2100266	furio2020
SRR2100267	furio2020
SRR2100268	furio2020
SRR2100269	furio2020
SRR2100271	furio2020
SRR2100272	furio2020
SRR2100273	furio2020
SRR2100275	furio2020
SRR2100276	furio2020
SRR2100277	furio2020
SRR2100278	furio2020
SRR2100279	furio2020
SRR2100280	furio2020
SRR2100281	furio2020
SRR2100282	furio2020
SRR2100283	furio2020
SRR2100287	furio2020
SRR2100288	furio2020
SRR2100289	furio2020
SRR2100290	furio2020
SRR2100293	furio2020
SRR2100294	furio2020
SRR2100295	furio2020
SRR2100297	furio2020
SRR2100298	furio2020
SRR2100299	furio2020
SRR2100300	furio2020
SRR2100301	furio2020
SRR2100303	furio2020
SRR2100304	furio2020
SRR2100305	furio2020
SRR2100307	furio2020
SRR2100310	furio2020
SRR2100311	furio2020
SRR2100315	furio2020
SRR2100316	furio2020
SRR2100317	furio2020
SRR2100318	furio2020
SRR2100319	furio2020
SRR2100320	furio2020
SRR2100321	furio2020
SRR2100322	furio2020
SRR2100323	furio2020
SRR2100324	furio2020
SRR2100325	furio2020
SRR2100326	furio2020
SRR2100327	furio2020
SRR2100329	furio2020
SRR2100330	furio2020
SRR2100331	furio2020
SRR2100332	furio2020
SRR2100333	furio2020
SRR2100334	furio2020
SRR2100336	furio2020
SRR2100337	furio2020
SRR2100339	furio2020
SRR2100340	furio2020
SRR2100341	furio2020
SRR2100343	furio2020
SRR2100345	furio2020
SRR2100346	furio2020
SRR2100347	furio2020
SRR2100348	furio2020
SRR2100349	furio2020
SRR2100351	furio2020
SRR2100352	furio2020
SRR2100353	furio2020
SRR2100354	furio2020
SRR2100355	furio2020
SRR2100357	furio2020
SRR2100358	furio2020
SRR2100359	furio2020
SRR2100360	furio2020
SRR2100362	furio2020
SRR2100363	furio2020
SRR2100364	furio2020
SRR2100366	furio2020
SRR2100368	furio2020
SRR2100369	furio2020
SRR2100370	furio2020
SRR2100371	furio2020
SRR2100372	furio2020
SRR2100378	furio2020
SRR2100382	furio2020
SRR2100385	furio2020
SRR2100386	furio2020
SRR2100387	furio2020
SRR2100388	furio2020
SRR2100391	furio2020
SRR2100392	furio2020
SRR2100395	furio2020
SRR2100396	furio2020
SRR2100397	furio2020
SRR2100398	furio2020
SRR2100399	furio2020
SRR2100400	furio2020
SRR2100401	furio2020
SRR2100402	furio2020
SRR2100403	furio2020
SRR2100404	furio2020
SRR2100405	furio2020
SRR2100408	furio2020
SRR2100409	furio2020
SRR2100410	furio2020
SRR2100412	furio2020
SRR2100413	furio2020
SRR2100414	furio2020
SRR2100415	furio2020
SRR2100418	furio2020
SRR2100419	furio2020
SRR2100420	furio2020
SRR2100423	furio2020
SRR2100424	furio2020
SRR2100426	furio2020
SRR2100427	furio2020
SRR2100428	furio2020
SRR2100429	furio2020
SRR2100430	furio2020
SRR2100431	furio2020
SRR2100432	furio2020
SRR2100433	furio2020
SRR2100434	furio2020
SRR2100437	furio2020
SRR2100439	furio2020
SRR2100440	furio2020
SRR2100441	furio2020
SRR2100442	furio2020
SRR2100445	furio2020
SRR2100446	furio2020
SRR2100447	furio2020
SRR2100449	furio2020
SRR2100450	furio2020
SRR2100451	furio2020
SRR2100452	furio2020
SRR2100453	furio2020
SRR2100454	furio2020
SRR2100455	furio2020
SRR2100457	furio2020
SRR2100458	furio2020
SRR2100459	furio2020
SRR2100460	furio2020
SRR2100461	furio2020
SRR2100462	furio2020
SRR2100463	furio2020
SRR2100464	furio2020
SRR2100465	furio2020
SRR2100466	furio2020
SRR2100469	furio2020
SRR2100471	furio2020
SRR2100473	furio2020
SRR2100475	furio2020
SRR2100477	furio2020
SRR2100479	furio2020
SRR2100480	furio2020
SRR2100483	furio2020
SRR2100486	furio2020
SRR2100492	furio2020
SRR2100519	furio2020
SRR2100520	furio2020
SRR2100522	furio2020
SRR2100523	furio2020
SRR2100524	furio2020
SRR2100526	furio2020
SRR2100527	furio2020
SRR2100529	furio2020
SRR2100530	furio2020
SRR2100531	furio2020
SRR2100533	furio2020
SRR2100535	furio2020
SRR2100536	furio2020
SRR2100537	furio2020
SRR2100538	furio2020
SRR2100539	furio2020
SRR2100540	furio2020
SRR2100542	furio2020
SRR2100543	furio2020
SRR2100544	furio2020
SRR2100545	furio2020
SRR2100546	furio2020
SRR2100547	furio2020
SRR2100548	furio2020
SRR2100549	furio2020
SRR2100551	furio2020
SRR2100552	furio2020
SRR2100553	furio2020
SRR2100554	furio2020
SRR2100558	furio2020
SRR2100562	furio2020
SRR2100563	furio2020
SRR2100564	furio2020
SRR2100565	furio2020
SRR2100566	furio2020
SRR2100567	furio2020
SRR2100568	furio2020
SRR2100569	furio2020
SRR2100570	furio2020
SRR2100571	furio2020
SRR2100572	furio2020
SRR2100574	furio2020
SRR2100575	furio2020
SRR2100576	furio2020
SRR2100578	furio2020
SRR2100579	furio2020
SRR2100580	furio2020
SRR2100582	furio2020
SRR2100583	furio2020
SRR2100584	furio2020
SRR2100585	furio2020
SRR2100588	furio2020
SRR2100592	furio2020
SRR2100595	furio2020
SRR2100597	furio2020
SRR2100598	furio2020
SRR2100599	furio2020
SRR2100602	furio2020
SRR2100603	furio2020
SRR2100604	furio2020
SRR2100605	furio2020
SRR2100607	furio2020
SRR2100609	furio2020
SRR2100610	furio2020
SRR2100611	furio2020
SRR2100615	furio2020
SRR2100616	furio2020
SRR2100617	furio2020
SRR2100619	furio2020
SRR2100620	furio2020
SRR2100621	furio2020
SRR2100622	furio2020
SRR2100623	furio2020
SRR2100624	furio2020
SRR2100625	furio2020
SRR2100627	furio2020
SRR2100628	furio2020
SRR2100629	furio2020
SRR2100630	furio2020
SRR2100631	furio2020
SRR2100632	furio2020
SRR2100633	furio2020
SRR2100634	furio2020
SRR2100635	furio2020
SRR2100636	furio2020
SRR2100637	furio2020
SRR2100639	furio2020
SRR2100641	furio2020
SRR2100643	furio2020
SRR2100644	furio2020
SRR2100645	furio2020
SRR2100647	furio2020
SRR2100648	furio2020
SRR2100650	furio2020
SRR2100651	furio2020
SRR2100652	furio2020
SRR2100653	furio2020
SRR2100654	furio2020
SRR2100655	furio2020
SRR2100657	furio2020
SRR2100660	furio2020
SRR2100661	furio2020
SRR2100663	furio2020
SRR2100664	furio2020
SRR2100666	furio2020
SRR2100667	furio2020
SRR2100668	furio2020
SRR2100669	furio2020
SRR2100670	furio2020
SRR2100671	furio2020
SRR2100673	furio2020
SRR2100675	furio2020
SRR2100676	furio2020
SRR2100677	furio2020
SRR2100679	furio2020
SRR2100680	furio2020
SRR2100689	furio2020
SRR2100690	furio2020
SRR2100691	furio2020
SRR2100692	furio2020
SRR2100693	furio2020
SRR2100694	furio2020
SRR2100695	furio2020
SRR2100696	furio2020
SRR2100697	furio2020
SRR2100698	furio2020
SRR2100699	furio2020
SRR2100700	furio2020
SRR2100701	furio2020
SRR2100702	furio2020
SRR2100703	furio2020
SRR2100704	furio2020
SRR2100705	furio2020
SRR2100706	furio2020
SRR2100709	furio2020
SRR2100710	furio2020
SRR2100712	furio2020
SRR2100713	furio2020
SRR2100714	furio2020
SRR2100715	furio2020
SRR2100716	furio2020
SRR2100717	furio2020
SRR2100718	furio2020
SRR2100719	furio2020
SRR2100720	furio2020
SRR2100722	furio2020
SRR2100723	furio2020
SRR2100724	furio2020
SRR2100729	furio2020
SRR2100730	furio2020
SRR2100732	furio2020
SRR2100733	furio2020
SRR2100734	furio2020
SRR2100735	furio2020
SRR2100738	furio2020
SRR2100739	furio2020
SRR2100740	furio2020
SRR2100742	furio2020
SRR2100743	furio2020
SRR2100744	furio2020
SRR2100745	furio2020
SRR2100749	furio2020
SRR2100750	furio2020
SRR2100752	furio2020
SRR2100755	furio2020
SRR2100756	furio2020
SRR2100760	furio2020
SRR2100761	furio2020
SRR2100762	furio2020
SRR2100764	furio2020
SRR2100765	furio2020
SRR2100766	furio2020
SRR2100769	furio2020
SRR2100770	furio2020
SRR2100771	furio2020
SRR2100772	furio2020
SRR2100773	furio2020
SRR2100774	furio2020
SRR2100777	furio2020
SRR2100779	furio2020
SRR2100780	furio2020
SRR2100782	furio2020
SRR2100783	furio2020
SRR2100785	furio2020
SRR2100786	furio2020
SRR2100788	furio2020
SRR2100791	furio2020
SRR2100794	furio2020
SRR2100796	furio2020
SRR2100798	furio2020
SRR2100799	furio2020
SRR2100800	furio2020
SRR2100802	furio2020
SRR2100805	furio2020
SRR2100806	furio2020
SRR2100807	furio2020
SRR2100808	furio2020
SRR2100809	furio2020
SRR2100811	furio2020
SRR2100813	furio2020
SRR2100814	furio2020
SRR2100815	furio2020
SRR2100816	furio2020
SRR2100819	furio2020
SRR2100820	furio2020
SRR2100821	furio2020
SRR2100823	furio2020
SRR2100825	furio2020
SRR2100827	furio2020
SRR2100828	furio2020
SRR2100829	furio2020
SRR2100830	furio2020
SRR2100831	furio2020
SRR2100833	furio2020
SRR2100835	furio2020
SRR2100836	furio2020
SRR2100837	furio2020
SRR2100838	furio2020
SRR2100839	furio2020
SRR2100840	furio2020
SRR2100841	furio2020
SRR2100842	furio2020
SRR2100843	furio2020
SRR2100844	furio2020
SRR2100845	furio2020
SRR2100847	furio2020
SRR2100848	furio2020
SRR2100849	furio2020
SRR2100850	furio2020
SRR2100851	furio2020
SRR2100852	furio2020
SRR2100853	furio2020
SRR2100855	furio2020
SRR2100857	furio2020
SRR2100858	furio2020
SRR2100859	furio2020
SRR2100860	furio2020
SRR2100861	furio2020
SRR2100862	furio2020
SRR2100865	furio2020
SRR2100868	furio2020
SRR2100869	furio2020
SRR2100871	furio2020
SRR2100872	furio2020
SRR2100874	furio2020
SRR2100875	furio2020
SRR2100876	furio2020
SRR2100878	furio2020
SRR2100879	furio2020
SRR2100880	furio2020
SRR2100881	furio2020
SRR2100883	furio2020
SRR2100884	furio2020
SRR2100885	furio2020
SRR2100886	furio2020
SRR2100887	furio2020
SRR2100888	furio2020
SRR2100890	furio2020
SRR2100892	furio2020
SRR2100895	furio2020
SRR2100896	furio2020
SRR2100899	furio2020
SRR2100900	furio2020
SRR2100901	furio2020
SRR2100902	furio2020
SRR2100903	furio2020
SRR2100904	furio2020
SRR2100906	furio2020
SRR2100907	furio2020
SRR2100908	furio2020
SRR2100909	furio2020
SRR2100910	furio2020
SRR2100911	furio2020
SRR2100912	furio2020
SRR2100913	furio2020
SRR2100915	furio2020
SRR2100916	furio2020
SRR2100917	furio2020
SRR2100919	furio2020
SRR2100921	furio2020
SRR2100924	furio2020
SRR2100925	furio2020
SRR2100927	furio2020
SRR2100928	furio2020
SRR2100929	furio2020
SRR2100930	furio2020
SRR2100931	furio2020
SRR2100932	furio2020
SRR2100933	furio2020
SRR2100934	furio2020
SRR2100936	furio2020
SRR2100937	furio2020
SRR2100939	furio2020
SRR2100940	furio2020
SRR2100942	furio2020
SRR2100943	furio2020
SRR2100944	furio2020
SRR2100945	furio2020
SRR2100947	furio2020
SRR2100952	furio2020
SRR2100953	furio2020
SRR2100955	furio2020
SRR2100956	furio2020
SRR2100957	furio2020
SRR2100958	furio2020
SRR2100960	furio2020
SRR2100961	furio2020
SRR2100963	furio2020
SRR2100964	furio2020
SRR2100965	furio2020
SRR2100966	furio2020
SRR2100967	furio2020
SRR2100968	furio2020
SRR2100969	furio2020
SRR2100974	furio2020
SRR2100975	furio2020
SRR2100976	furio2020
SRR2100977	furio2020
SRR2100978	furio2020
SRR2100979	furio2020
SRR2100980	furio2020
SRR2100981	furio2020
SRR2100982	furio2020
SRR2100983	furio2020
SRR2100986	furio2020
SRR2100987	furio2020
SRR2100988	furio2020
SRR2100989	furio2020
SRR2100990	furio2020
SRR2100991	furio2020
SRR2100992	furio2020
SRR2100993	furio2020
SRR2100994	furio2020
SRR2100995	furio2020
SRR2100996	furio2020
SRR2100997	furio2020
SRR2100998	furio2020
SRR2100999	furio2020
SRR2101001	furio2020
SRR2101002	furio2020
SRR2101003	furio2020
SRR2101007	furio2020
SRR2101008	furio2020
SRR2101009	furio2020
SRR2101010	furio2020
SRR2101011	furio2020
SRR2101012	furio2020
SRR2101013	furio2020
SRR2101014	furio2020
SRR2101015	furio2020
SRR2101016	furio2020
SRR2101018	furio2020
SRR2101021	furio2020
SRR2101022	furio2020
SRR2101024	furio2020
SRR2101025	furio2020
SRR2101028	furio2020
SRR2101030	furio2020
SRR2101031	furio2020
SRR2101032	furio2020
SRR2101035	furio2020
SRR2101037	furio2020
SRR2101038	furio2020
SRR2101039	furio2020
SRR2101040	furio2020
SRR2101041	furio2020
SRR2101043	furio2020
SRR2101044	furio2020
SRR2101046	furio2020
SRR2101047	furio2020
SRR2101048	furio2020
SRR2101049	furio2020
SRR2101050	furio2020
SRR2101051	furio2020
SRR2101052	furio2020
SRR2101054	furio2020
SRR2101056	furio2020
SRR2101057	furio2020
SRR2101058	furio2020
SRR2101060	furio2020
SRR2101061	furio2020
SRR2101063	furio2020
SRR2101064	furio2020
SRR2101065	furio2020
SRR2101066	furio2020
SRR2101067	furio2020
SRR2101068	furio2020
SRR2101069	furio2020
SRR2101070	furio2020
SRR2101071	furio2020
SRR2101072	furio2020
SRR2101073	furio2020
SRR2101074	furio2020
SRR2101075	furio2020
SRR2101076	furio2020
SRR2101077	furio2020
SRR2101078	furio2020
SRR2101079	furio2020
SRR2101080	furio2020
SRR2101081	furio2020
SRR2101083	furio2020
SRR2101084	furio2020
SRR2101089	furio2020
SRR2101092	furio2020
SRR2101093	furio2020
SRR2101094	furio2020
SRR2101095	furio2020
SRR2101096	furio2020
SRR2101098	furio2020
SRR2101099	furio2020
SRR2101101	furio2020
SRR2101102	furio2020
SRR2101104	furio2020
SRR2101105	furio2020
SRR2101106	furio2020
SRR2101107	furio2020
SRR2101109	furio2020
SRR2101112	furio2020
SRR2101113	furio2020
SRR2101114	furio2020
SRR2101115	furio2020
SRR2101117	furio2020
SRR2101118	furio2020
SRR2101119	furio2020
SRR2101120	furio2020
SRR2101121	furio2020
SRR2101122	furio2020
SRR2101123	furio2020
SRR2101124	furio2020
SRR2101125	furio2020
SRR2101126	furio2020
SRR2101128	furio2020
SRR2101129	furio2020
SRR2101130	furio2020
SRR2101131	furio2020
SRR2101133	furio2020
SRR2101134	furio2020
SRR2101135	furio2020
SRR2101136	furio2020
SRR2101137	furio2020
SRR2101138	furio2020
SRR2101139	furio2020
SRR2101140	furio2020
SRR2101141	furio2020
SRR2101144	furio2020
SRR2101145	furio2020
SRR2101146	furio2020
SRR2101147	furio2020
SRR2101148	furio2020
SRR2101150	furio2020
SRR2101152	furio2020
SRR2101153	furio2020
SRR2101154	furio2020
SRR2101155	furio2020
SRR2101156	furio2020
SRR2101157	furio2020
SRR2101159	furio2020
SRR2101160	furio2020
SRR2101162	furio2020
SRR2101163	furio2020
SRR2101165	furio2020
SRR2101166	furio2020
SRR2101167	furio2020
SRR2101170	furio2020
SRR2101172	furio2020
SRR2101173	furio2020
SRR2101175	furio2020
SRR2101176	furio2020
SRR2101178	furio2020
SRR2101179	furio2020
SRR2101180	furio2020
SRR2101181	furio2020
SRR2101182	furio2020
SRR2101183	furio2020
SRR2101184	furio2020
SRR2101185	furio2020
SRR2101186	furio2020
SRR2101187	furio2020
SRR2101189	furio2020
SRR2101190	furio2020
SRR2101191	furio2020
SRR2101192	furio2020
SRR2101193	furio2020
SRR2101194	furio2020
SRR2101196	furio2020
SRR2101197	furio2020
SRR2101200	furio2020
SRR2101201	furio2020
SRR2101202	furio2020
SRR2101203	furio2020
SRR2101205	furio2020
SRR2101206	furio2020
SRR2101207	furio2020
SRR2101208	furio2020
SRR2101210	furio2020
SRR2101211	furio2020
SRR2101212	furio2020
SRR2101213	furio2020
SRR2101215	furio2020
SRR2101216	furio2020
SRR2101218	furio2020
SRR2101219	furio2020
SRR2101220	furio2020
SRR2101221	furio2020
SRR2101223	furio2020
SRR2101225	furio2020
SRR2101226	furio2020
SRR2101228	furio2020
SRR2101229	furio2020
SRR2101230	furio2020
SRR2101232	furio2020
SRR2101233	furio2020
SRR2101234	furio2020
SRR2101235	furio2020
SRR2101236	furio2020
SRR2101237	furio2020
SRR2101239	furio2020
SRR2101240	furio2020
SRR2101241	furio2020
SRR2101243	furio2020
SRR2101244	furio2020
SRR2101246	furio2020
SRR2101248	furio2020
SRR2101249	furio2020
SRR2101251	furio2020
SRR2101252	furio2020
SRR2101253	furio2020
SRR2101254	furio2020
SRR2101255	furio2020
SRR2101256	furio2020
SRR2101259	furio2020
SRR2101260	furio2020
SRR2101261	furio2020
SRR2101267	furio2020
SRR2101268	furio2020
SRR2101271	furio2020
SRR2101273	furio2020
SRR2101274	furio2020
SRR2101278	furio2020
SRR2101279	furio2020
SRR2101280	furio2020
SRR2101281	furio2020
SRR2101282	furio2020
SRR2101283	furio2020
SRR2101285	furio2020
SRR2101286	furio2020
SRR2101287	furio2020
SRR2101288	furio2020
SRR2101289	furio2020
SRR2101290	furio2020
SRR2101292	furio2020
SRR2101293	furio2020
SRR2101294	furio2020
SRR2101295	furio2020
SRR2101296	furio2020
SRR2101299	furio2020
SRR2101301	furio2020
SRR2101302	furio2020
SRR2101303	furio2020
SRR2101305	furio2020
SRR2101307	furio2020
SRR2101309	furio2020
SRR2101310	furio2020
SRR2101313	furio2020
SRR2101314	furio2020
SRR2101315	furio2020
SRR2101316	furio2020
SRR2101317	furio2020
SRR2101318	furio2020
SRR2101319	furio2020
SRR2101320	furio2020
SRR2101321	furio2020
SRR2101322	furio2020
SRR2101323	furio2020
SRR2101324	furio2020
SRR2101325	furio2020
SRR2101326	furio2020
SRR2101328	furio2020
SRR2101331	furio2020
SRR2101332	furio2020
SRR2101333	furio2020
SRR2101336	furio2020
SRR2101337	furio2020
SRR2101338	furio2020
SRR2101339	furio2020
SRR2101340	furio2020
SRR2101341	furio2020
SRR2101342	furio2020
SRR2101344	furio2020
SRR2101345	furio2020
SRR2101346	furio2020
SRR2101347	furio2020
SRR2101348	furio2020
SRR2101349	furio2020
SRR2101352	furio2020
SRR2101353	furio2020
SRR2101355	furio2020
SRR2101356	furio2020
SRR2101361	furio2020
SRR2101362	furio2020
SRR2101363	furio2020
SRR2101367	furio2020
SRR2101369	furio2020
SRR2101370	furio2020
SRR2101371	furio2020
SRR2101372	furio2020
SRR2101373	furio2020
SRR2101374	furio2020
SRR2101375	furio2020
SRR2101376	furio2020
SRR2101377	furio2020
SRR2101378	furio2020
SRR2101380	furio2020
SRR2101381	furio2020
SRR2101382	furio2020
SRR2101383	furio2020
SRR2101384	furio2020
SRR2101385	furio2020
SRR2101386	furio2020
SRR2101387	furio2020
SRR2101388	furio2020
SRR2101389	furio2020
SRR2101394	furio2020
SRR2101396	furio2020
SRR2101397	furio2020
SRR2101399	furio2020
SRR2101403	furio2020
SRR2101404	furio2020
SRR2101406	furio2020
SRR2101410	furio2020
SRR2101411	furio2020
SRR2101413	furio2020
SRR2101414	furio2020
SRR2101416	furio2020
SRR2101418	furio2020
SRR2101419	furio2020
SRR2101420	furio2020
SRR2101421	furio2020
SRR2101422	furio2020
SRR2101423	furio2020
SRR2101425	furio2020
SRR2101427	furio2020
SRR2101428	furio2020
SRR2101430	furio2020
SRR2101431	furio2020
SRR2101432	furio2020
SRR2101434	furio2020
SRR2101436	furio2020
SRR2101437	furio2020
SRR2101439	furio2020
SRR2101441	furio2020
SRR2101442	furio2020
SRR2101445	furio2020
SRR2101446	furio2020
SRR2101447	furio2020
SRR2101448	furio2020
SRR2101449	furio2020
SRR2101450	furio2020
SRR2101453	furio2020
SRR2101456	furio2020
SRR2101458	furio2020
SRR2101460	furio2020
SRR2101461	furio2020
SRR2101469	furio2020
SRR2101471	furio2020
SRR2101472	furio2020
SRR2101474	furio2020
SRR2101475	furio2020
SRR2101477	furio2020
SRR2101479	furio2020
SRR2101480	furio2020
SRR2101483	furio2020
SRR2101484	furio2020
SRR2101485	furio2020
SRR2101486	furio2020
SRR2101488	furio2020
SRR2101489	furio2020
SRR2101490	furio2020
SRR2101493	furio2020
SRR2101494	furio2020
SRR2101495	furio2020
SRR2101496	furio2020
SRR2101497	furio2020
SRR2101498	furio2020
SRR2101499	furio2020
SRR2101500	furio2020
SRR2101501	furio2020
SRR2101505	furio2020
SRR2101507	furio2020
SRR2101508	furio2020
SRR2101509	furio2020
SRR2101513	furio2020
SRR2101514	furio2020
SRR2101516	furio2020
SRR2101517	furio2020
SRR2101519	furio2020
SRR2101521	furio2020
SRR2101522	furio2020
SRR2101523	furio2020
SRR2101524	furio2020
SRR2101526	furio2020
SRR2101527	furio2020
SRR2101528	furio2020
SRR2101530	furio2020
SRR2101532	furio2020
SRR2101533	furio2020
SRR2101534	furio2020
SRR2101535	furio2020
SRR2101536	furio2020
SRR2101537	furio2020
SRR2101538	furio2020
SRR2101539	furio2020
SRR2101540	furio2020
SRR2101541	furio2020
SRR2101543	furio2020
SRR2101544	furio2020
SRR2101545	furio2020
SRR2101553	furio2020
SRR2101554	furio2020
SRR2101555	furio2020
SRR2101556	furio2020
SRR2101558	furio2020
SRR2101559	furio2020
SRR2101561	furio2020
SRR2101562	furio2020
SRR2101563	furio2020
SRR2101564	furio2020
SRR2101565	furio2020
SRR2101568	furio2020
SRR2101574	furio2020
SRR2101575	furio2020
SRR2101576	furio2020
SRR2101577	furio2020
SRR2101578	furio2020
SRR2101583	furio2020
SRR2101585	furio2020
SRR2101586	furio2020
SRR2101589	furio2020
SRR2101592	furio2020
SRR2101593	furio2020
SRR2101594	furio2020
SRR2101595	furio2020
SRR2101596	furio2020
SRR2101597	furio2020
SRR2101598	furio2020
SRR2101599	furio2020
SRR2101602	furio2020
SRR2101603	furio2020
SRR2101605	furio2020
SRR2101606	furio2020
SRR2101608	furio2020
SRR2101609	furio2020
SRR2101611	furio2020
SRR2101613	furio2020
SRR2101614	furio2020
SRR2101615	furio2020
SRR2101616	furio2020
SRR2101619	furio2020
SRR2101620	furio2020
SRR2101622	furio2020
SRR2101623	furio2020
SRR2101624	furio2020
SRR2101627	furio2020
SRR2101628	furio2020
SRR2101630	furio2020
SRR2101632	furio2020
SRR2101634	furio2020
SRR2101635	furio2020
SRR2101636	furio2020
SRR2101639	furio2020
SRR2101640	furio2020
SRR2101641	furio2020
SRR2101642	furio2020
SRR2101643	furio2020
SRR2101644	furio2020
SRR2101645	furio2020
SRR2101646	furio2020
SRR2101649	furio2020
SRR2101650	furio2020
SRR2101651	furio2020
SRR2101652	furio2020
SRR2101653	furio2020
SRR2101654	furio2020
SRR2101655	furio2020
SRR2101656	furio2020
SRR2101657	furio2020
SRR2101660	furio2020
SRR2101661	furio2020
SRR2101662	furio2020
SRR2101664	furio2020
SRR2101665	furio2020
SRR2101666	furio2020
SRR2101668	furio2020
SRR2101670	furio2020
SRR2101672	furio2020
SRR2101673	furio2020
SRR2101674	furio2020
SRR2101676	furio2020
SRR2101678	furio2020
SRR2101679	furio2020
SRR2101680	furio2020
SRR2101681	furio2020
SRR2101686	furio2020
SRR2101687	furio2020
SRR2101688	furio2020
SRR2101692	furio2020
SRR2101693	furio2020
SRR2101694	furio2020
SRR2101696	furio2020
SRR2101698	furio2020
SRR2101699	furio2020
SRR2101704	furio2020
SRR2101705	furio2020
SRR2101708	furio2020
SRR2101710	furio2020
SRR2101712	furio2020
SRR2101715	furio2020
SRR2101716	furio2020
SRR2101718	furio2020
SRR2101720	furio2020
SRR2101723	furio2020
SRR2101727	furio2020
SRR2101729	furio2020
SRR2101733	furio2020
SRR2101735	furio2020
SRR2101736	furio2020
SRR2101737	furio2020
SRR2101738	furio2020
SRR2101741	furio2020
SRR2101742	furio2020
SRR2101743	furio2020
SRR2101747	furio2020
SRR2101748	furio2020
SRR2101749	furio2020
SRR2101752	furio2020
SRR2101753	furio2020
SRR2101757	furio2020
SRR2101758	furio2020
SRR2101761	furio2020
SRR2101764	furio2020
SRR2101766	furio2020
SRR2101768	furio2020
SRR2101769	furio2020
SRR2101771	furio2020
SRR2101773	furio2020
SRR2101774	furio2020
SRR2101776	furio2020
SRR2101777	furio2020
SRR2101778	furio2020
SRR2101779	furio2020
SRR2101780	furio2020
SRR2101781	furio2020
SRR2101783	furio2020
SRR2101784	furio2020
SRR2101787	furio2020
SRR2101788	furio2020
SRR2101789	furio2020
SRR2101790	furio2020
SRR2101791	furio2020
SRR2101792	furio2020
SRR2101793	furio2020
SRR2101794	furio2020
SRR2101795	furio2020
SRR2101796	furio2020
SRR2101797	furio2020
SRR2101798	furio2020
SRR2101801	furio2020
SRR2101804	furio2020
SRR2101805	furio2020
SRR2101806	furio2020
SRR2101807	furio2020
SRR2101808	furio2020
SRR2101809	furio2020
SRR2101810	furio2020
SRR2101812	furio2020
SRR2101813	furio2020
SRR2101815	furio2020
SRR2101816	furio2020
SRR2101817	furio2020
SRR2101818	furio2020
SRR2101819	furio2020
SRR2101821	furio2020
SRR2101822	furio2020
SRR2101823	furio2020
SRR2101824	furio2020
SRR2101825	furio2020
SRR2101826	furio2020
SRR2101827	furio2020
SRR2101828	furio2020
SRR671719	furio2020
SRR671720	furio2020
SRR671721	furio2020
SRR671722	furio2020
SRR671723	furio2020
SRR671724	furio2020
SRR671726	furio2020
SRR671727	furio2020
SRR671728	furio2020
SRR671729	furio2020
SRR671730	furio2020
SRR671732	furio2020
SRR671733	furio2020
SRR671735	furio2020
SRR671736	furio2020
SRR671737	furio2020
SRR671738	furio2020
SRR671739	furio2020
SRR671740	furio2020
SRR671741	furio2020
SRR671744	furio2020
SRR671747	furio2020
SRR671748	furio2020
SRR671749	furio2020
SRR671750	furio2020
SRR671751	furio2020
SRR671752	furio2020
SRR671753	furio2020
SRR671754	furio2020
SRR671755	furio2020
SRR671756	furio2020
SRR671757	furio2020
SRR671758	furio2020
SRR671759	furio2020
SRR671760	furio2020
SRR671761	furio2020
SRR671762	furio2020
SRR671763	furio2020
SRR671764	furio2020
SRR671765	furio2020
SRR671766	furio2020
SRR671767	furio2020
SRR671768	furio2020
SRR671769	furio2020
SRR671770	furio2020
SRR671771	furio2020
SRR671772	furio2020
SRR671773	furio2020
SRR671775	furio2020
SRR671776	furio2020
SRR671777	furio2020
SRR671778	furio2020
SRR671779	furio2020
SRR671780	furio2020
SRR671782	furio2020
SRR671783	furio2020
SRR671784	furio2020
SRR671785	furio2020
SRR671786	furio2020
SRR671788	furio2020
SRR671789	furio2020
SRR671790	furio2020
SRR671791	furio2020
SRR671792	furio2020
SRR671793	furio2020
SRR671794	furio2020
SRR671795	furio2020
SRR671797	furio2020
SRR671798	furio2020
SRR671799	furio2020
SRR671800	furio2020
SRR671802	furio2020
SRR671804	furio2020
SRR671805	furio2020
SRR671806	furio2020
SRR671807	furio2020
SRR671809	furio2020
SRR671811	furio2020
SRR671812	furio2020
SRR671813	furio2020
SRR671814	furio2020
SRR671815	furio2020
SRR671816	furio2020
SRR671818	furio2020
SRR671819	furio2020
SRR671820	furio2020
SRR671822	furio2020
SRR671823	furio2020
SRR671824	furio2020
SRR671825	furio2020
SRR671826	furio2020
SRR671827	furio2020
SRR671828	furio2020
SRR671829	furio2020
SRR671830	furio2020
SRR671831	furio2020
SRR671832	furio2020
SRR671833	furio2020
SRR671834	furio2020
SRR671835	furio2020
SRR671836	furio2020
SRR671837	furio2020
SRR671838	furio2020
SRR671839	furio2020
SRR671840	furio2020
SRR671841	furio2020
SRR671842	furio2020
SRR671843	furio2020
SRR671844	furio2020
SRR671845	furio2020
SRR671846	furio2020
SRR671847	furio2020
SRR671848	furio2020
SRR671850	furio2020
SRR671851	furio2020
SRR671852	furio2020
SRR671853	furio2020
SRR671854	furio2020
SRR671855	furio2020
SRR671856	furio2020
SRR671857	furio2020
SRR671858	furio2020
SRR671859	furio2020
SRR671860	furio2020
SRR671861	furio2020
SRR671862	furio2020
SRR671865	furio2020
SRR671867	furio2020
SRR671868	furio2020
SRR671869	furio2020
SRR671870	furio2020
SRR671871	furio2020
SRR671872	furio2020
SRR671873	furio2020
SRR671874	furio2020
SRR671875	furio2020
SRR671876	furio2020
SRR671877	furio2020
SRR671878	furio2020
SRR671879	furio2020
