ERR017784	2	2.2.1	holt2018global
ERR019565	2	2.2.1	holt2018global
ERR019568	1	1.1	holt2018global
ERR019569	2	2.2.1	holt2018global
ERR019570	2	2.2.1	holt2018global
ERR019571	2	2.2.1	holt2018global
ERR019573	2	2.2.1	holt2018global
ERR019574	2	2.2.1	holt2018global
ERR019857	2	2.2.1	holt2018global
ERR019860	2	2.2.1	holt2018global
ERR019868	4	4.2	holt2018global
ERR019869	2	2.2.1	holt2018global
ERR019872	4	4.6	holt2018global
ERR027462	2	2.2.1	holt2018global
ERR027464	4	4.3	holt2018global
ERR047881	4	4.3	holt2018global
ERR047884	1	1.1	holt2018global
ERR047885	4	4.1	holt2018global
ERR047886	4	4.8	holt2018global
ERR158599	4	4.1	holt2018global
ERR158601	4	4.3	holt2018global
ERR158602	2	2.2.1	holt2018global
ERR158603	1	1.1	holt2018global
ERR158605	2	2.2.1	holt2018global
ERR158606	2	2.2.1	holt2018global
ERR158607	2	2.2.1	holt2018global
ERR158608	2	2.2.1	holt2018global
ERR158609	2	2.2.1	holt2018global
ERR017788	2	2.2.1	holt2018global
ERR017789	2	2.2.1	holt2018global
ERR017791	2	2.2.1	holt2018global
ERR019552	2	2.2.1	holt2018global
ERR019553	2	2.2.1	holt2018global
ERR019555	4	4.2	holt2018global
ERR019556	2	2.2.1	holt2018global
ERR019557	2	2.2.1	holt2018global
ERR019558	2	2.2.1	holt2018global
ERR019559	2	2.2.1	holt2018global
ERR019562	2	2.2.1	holt2018global
ERR019564	2	2.2.1	holt2018global
ERR019572	2	2.2.1	holt2018global
ERR019575	2	2.2.1	holt2018global
ERR019861	2	2.2.1	holt2018global
ERR019874	4	4.9	holt2018global
ERR026637	2	2.2.1	holt2018global
ERR027445	2	2.2.1	holt2018global
ERR027446	2	2.2.1	holt2018global
ERR027447	2	2.2.1	holt2018global
ERR027448	2	2.2.1	holt2018global
ERR027449	2	2.2.1	holt2018global
ERR027450	2	2.2.1	holt2018global
ERR027451	2	2.2.1	holt2018global
ERR027454	2	2.2.1	holt2018global
ERR027455	2	2.2.1	holt2018global
ERR027456	2	2.2.1	holt2018global
ERR027458	2	2.2.1	holt2018global
ERR027459	2	2.2.1	holt2018global
ERR027469	4	4.8	holt2018global
ERR067576	2	2.2.1	holt2018global
ERR067577	4	4.2	holt2018global
ERR067578	2	2.2.1	holt2018global
ERR067579	4	4.8	holt2018global
ERR067580	2	2.2.1	holt2018global
ERR067581	2	2.2.1	holt2018global
ERR067582	2	2.2.1	holt2018global
ERR067583	2	2.2.1	holt2018global
ERR067584	2	2.2.1	holt2018global
ERR067585	4	4.3	holt2018global
ERR067586	2	2.2.1	holt2018global
ERR067587	2	2.2.1	holt2018global
ERR067588	2	2.2.1	holt2018global
ERR067589	2	2.2.1	holt2018global
ERR067590	2	2.2.1	holt2018global
ERR067591	4	4.3	holt2018global
ERR067592	2	2.2.1	holt2018global
ERR067593	2	2.2.1	holt2018global
ERR067594	2	2.2.1	holt2018global
ERR067595	2	2.2.1	holt2018global
ERR067596	4	4.2	holt2018global
ERR067597	4	4.2	holt2018global
ERR067598	2	2.2.1	holt2018global
ERR067599	4	4.3	holt2018global
ERR067600	2	2.2.1	holt2018global
ERR067601	4	4.3	holt2018global
ERR067602	4	4.8	holt2018global
ERR067603	4	4.1	holt2018global
ERR067604	2	2.2.1	holt2018global
ERR067605	2	2.2.1	holt2018global
ERR067606	4	4.2	holt2018global
ERR067607	4	4.3	holt2018global
ERR067608	2	2.2.1	holt2018global
ERR067609	4	4.2	holt2018global
ERR067610	2	2.2.1	holt2018global
ERR067611	2	2.2.1	holt2018global
ERR067612	4	4.3	holt2018global
ERR067613	2	2.2.1	holt2018global
ERR067614	4	4.8	holt2018global
ERR067615	4	4.2	holt2018global
ERR067616	4	4.1	holt2018global
ERR067617	4	4.1	holt2018global
ERR067618	2	2.2.1	holt2018global
ERR067619	2	2.2.1	holt2018global
ERR067620	2	2.2.1	holt2018global
ERR067621	2	2.2.1	holt2018global
ERR067622	2	2.2.1	holt2018global
ERR067623	2	2.2.1	holt2018global
ERR067624	4	4.3	holt2018global
ERR067625	2	2.2.1	holt2018global
ERR067626	2	2.2.1	holt2018global
ERR067627	2	2.2.1	holt2018global
ERR067629	4	4.2	holt2018global
ERR067630	2	2.2.1	holt2018global
ERR067631	2	2.2.1	holt2018global
ERR067632	4	4.2	holt2018global
ERR067634	4	4.3	holt2018global
ERR067635	2	2.2.1	holt2018global
ERR067636	4	4.2	holt2018global
ERR067637	2	2.2.1	holt2018global
ERR067638	2	2.2.1	holt2018global
ERR067639	2	2.2.1	holt2018global
ERR067640	4	4.8	holt2018global
ERR067641	2	2.2.1	holt2018global
ERR067643	2	2.2.1	holt2018global
ERR067644	2	2.2.1	holt2018global
ERR067645	4	4.2	holt2018global
ERR067646	2	2.2.1	holt2018global
ERR067647	2	2.2.1	holt2018global
ERR067648	2	2.2.1	holt2018global
ERR067649	2	2.2.1	holt2018global
ERR067650	2	2.2.1	holt2018global
ERR067651	2	2.2.1	holt2018global
ERR067652	2	2.2.1	holt2018global
ERR067653	2	2.2.1	holt2018global
ERR067654	2	2.2.1	holt2018global
ERR067655	2	2.2.1	holt2018global
ERR067656	2	2.2.1	holt2018global
ERR067657	4	4.2	holt2018global
ERR067658	4	4.3	holt2018global
ERR067659	2	2.2.1	holt2018global
ERR067660	2	2.2.1	holt2018global
ERR067661	4	4.2	holt2018global
ERR067662	2	2.2.1	holt2018global
ERR067663	2	2.2.1	holt2018global
ERR067664	4	4.3	holt2018global
ERR067665	2	2.2.1	holt2018global
ERR067666	4	4.8	holt2018global
ERR067667	2	2.2.1	holt2018global
ERR067668	2	2.2.1	holt2018global
ERR067670	4	4.1	holt2018global
ERR067671	2	2.2.1	holt2018global
ERR067672	2	2.2.1	holt2018global
ERR067673	2	2.2.1	holt2018global
ERR067674	2	2.2.1	holt2018global
ERR067675	4	4.1	holt2018global
ERR067676	4	4.8	holt2018global
ERR067677	4	4.2	holt2018global
ERR067678	4	4.8	holt2018global
ERR067679	4	4.3	holt2018global
ERR067680	4	4.8	holt2018global
ERR067682	4	4.8	holt2018global
ERR067683	4	4.3	holt2018global
ERR067684	4	4.2	holt2018global
ERR067685	4	4.8	holt2018global
ERR067686	2	2.2.1	holt2018global
ERR067687	2	2.2.1	holt2018global
ERR067688	2	2.2.1	holt2018global
ERR067689	2	2.2.1	holt2018global
ERR067690	4	4.3	holt2018global
ERR067691	4	4.2	holt2018global
ERR067692	2	2.2.1	holt2018global
ERR067693	4	4.3	holt2018global
ERR067694	2	2.2.1	holt2018global
ERR067695	2	2.2.1	holt2018global
ERR067696	2	2.2.1	holt2018global
ERR067697	4	4.1	holt2018global
ERR067698	2	2.2.1	holt2018global
ERR067700	4	4.2	holt2018global
ERR067703	4	4.1	holt2018global
ERR067704	2	2.2.1	holt2018global
ERR067705	2	2.2.1	holt2018global
ERR067706	4	4.3	holt2018global
ERR067708	4	4.8	holt2018global
ERR067709	2	2.2.1	holt2018global
ERR067710	2	2.2.1	holt2018global
ERR067711	2	2.2.1	holt2018global
ERR067713	2	2.2.1	holt2018global
ERR067714	2	2.2.1	holt2018global
ERR067715	2	2.2.1	holt2018global
ERR067716	4	4.3	holt2018global
ERR067717	2	2.2.1	holt2018global
ERR067718	2	2.2.1	holt2018global
ERR067719	4	4.8	holt2018global
ERR067720	2	2.2.1	holt2018global
ERR067721	2	2.2.1	holt2018global
ERR067722	2	2.2.1	holt2018global
ERR067723	2	2.2.1	holt2018global
ERR067724	2	2.2.1	holt2018global
ERR067725	4	4.2	holt2018global
ERR067726	4	4.8	holt2018global
ERR067727	4	4.3	holt2018global
ERR067728	4	4.2	holt2018global
ERR067729	4	4.3	holt2018global
ERR067730	4	4.1	holt2018global
ERR067731	4	4.2	holt2018global
ERR067733	4	4.2	holt2018global
ERR067734	4	4.1	holt2018global
ERR067735	4	4.8	holt2018global
ERR067736	2	2.2.1	holt2018global
ERR067737	4	4.3	holt2018global
ERR067739	2	2.2.1	holt2018global
ERR067740	2	2.2.1	holt2018global
ERR067741	2	2.2.1	holt2018global
ERR067742	2	2.2.1	holt2018global
ERR067743	2	2.2.1	holt2018global
ERR067744	2	2.2.1	holt2018global
ERR067745	2	2.2.1	holt2018global
ERR067746	2	2.2.1	holt2018global
ERR067747	4	4.3	holt2018global
ERR067748	4	4.2	holt2018global
ERR067750	2	2.2.1	holt2018global
ERR067751	4	4.1	holt2018global
ERR067752	4	4.2	holt2018global
ERR067753	4	4.2	holt2018global
ERR067754	2	2.2.1	holt2018global
ERR067755	2	2.2.1	holt2018global
ERR067756	4	4.8	holt2018global
ERR067757	4	4.2	holt2018global
ERR067758	2	2.2.1	holt2018global
ERR067759	2	2.2.1	holt2018global
ERR067760	2	2.2.1	holt2018global
ERR067761	2	2.2.1	holt2018global
ERR067762	2	2.2.1	holt2018global
ERR067763	4	4.8	holt2018global
ERR067765	2	2.2.1	holt2018global
ERR067766	2	2.2.1	holt2018global
ERR067767	4	4.3	holt2018global
ERR108420	2	2.2.1	holt2018global
ERR108421	2	2.2.1	holt2018global
ERR108423	2	2.2.1	holt2018global
ERR108425	4	4.2	holt2018global
ERR108426	2	2.2.1	holt2018global
ERR108427	4	4.8	holt2018global
ERR108428	2	2.2.1	holt2018global
ERR108429	4	4.2	holt2018global
ERR108430	2	2.2.1	holt2018global
ERR108432	4	4.8	holt2018global
ERR108433	2	2.2.1	holt2018global
ERR108434	2	2.2.1	holt2018global
ERR108435	2	2.2.1	holt2018global
ERR108436	2	2.2.1	holt2018global
ERR108437	4	4.2	holt2018global
ERR108439	2	2.2.1	holt2018global
ERR108440	2	2.2.1	holt2018global
ERR108441	2	2.2.1	holt2018global
ERR108442	4	4.8	holt2018global
ERR108443	2	2.2.1	holt2018global
ERR108444	4	4.1	holt2018global
ERR108445	4	4.1	holt2018global
ERR108446	4	4.3	holt2018global
ERR108447	2	2.2.1	holt2018global
ERR108448	4	4.8	holt2018global
ERR108449	4	4.1	holt2018global
ERR108450	2	2.2.1	holt2018global
ERR108451	4	4.3	holt2018global
ERR108452	2	2.2.1	holt2018global
ERR108453	2	2.2.1	holt2018global
ERR108455	2	2.2.1	holt2018global
ERR108456	4	4.2	holt2018global
ERR108457	4	4.8	holt2018global
ERR108458	2	2.2.1	holt2018global
ERR108459	4	4.1	holt2018global
ERR108460	4	4.8	holt2018global
ERR108461	4	4.1	holt2018global
ERR108462	2	2.2.1	holt2018global
ERR108463	4	4.8	holt2018global
ERR108466	4	4.8	holt2018global
ERR108467	2	2.2.1	holt2018global
ERR108468	4	4.8	holt2018global
ERR108469	2	2.2.1	holt2018global
ERR108470	2	2.2.1	holt2018global
ERR108472	4	4.2	holt2018global
ERR108473	2	2.2.1	holt2018global
ERR108474	4	4.1	holt2018global
ERR108475	2	2.2.1	holt2018global
ERR108478	4	4.8	holt2018global
ERR108479	2	2.2.1	holt2018global
ERR108480	4	4.1	holt2018global
ERR108481	4	4.4	holt2018global
ERR108482	4	4.1	holt2018global
ERR108483	4	4.3	holt2018global
ERR108484	2	2.2.1	holt2018global
ERR108485	4	4.2	holt2018global
ERR108486	2	2.2.1	holt2018global
ERR108487	4	4.3	holt2018global
ERR108488	2	2.2.1	holt2018global
ERR108489	2	2.2.1	holt2018global
ERR108490	2	2.2.1	holt2018global
ERR108491	2	2.2.1	holt2018global
ERR108492	2	2.2.1	holt2018global
ERR108493	2	2.2.1	holt2018global
ERR108494	2	2.2.1	holt2018global
ERR108495	2	2.2.1	holt2018global
ERR108496	2	2.2.1	holt2018global
ERR108497	4	4.2	holt2018global
ERR108498	2	2.2.1	holt2018global
ERR108499	2	2.2.1	holt2018global
ERR108500	2	2.2.1	holt2018global
ERR108501	2	2.2.1	holt2018global
ERR108502	2	2.2.1	holt2018global
ERR108503	2	2.2.1	holt2018global
ERR108504	4	4.8	holt2018global
ERR108505	2	2.2.1	holt2018global
ERR108506	2	2.2.1	holt2018global
ERR108507	2	2.2.1	holt2018global
ERR108508	4	4.8	holt2018global
ERR108509	4	4.2	holt2018global
ERR108510	2	2.2.1	holt2018global
ERR108511	2	2.2.1	holt2018global
ERR108512	4	4	holt2018global
ERR108513	2	2.2.1	holt2018global
ERR108514	2	2.2.1	holt2018global
ERR108515	2	2.2.1	holt2018global
ERR117449	2	2.2.1	holt2018global
ERR117450	4	4.3	holt2018global
ERR117451	4	4.2	holt2018global
ERR117452	4	4.3	holt2018global
ERR117453	2	2.2.1	holt2018global
ERR117454	2	2.2.1	holt2018global
ERR117455	2	2.2.1	holt2018global
ERR117456	2	2.2.1	holt2018global
ERR117457	2	2.2.1	holt2018global
ERR117458	2	2.2.1	holt2018global
ERR117459	2	2.2.1	holt2018global
ERR117460	2	2.2.1	holt2018global
ERR117462	2	2.2.1	holt2018global
ERR117463	2	2.2.1	holt2018global
ERR117464	2	2.2.1	holt2018global
ERR117465	2	2.2.1	holt2018global
ERR117466	4	4.3	holt2018global
ERR117467	2	2.2.1	holt2018global
ERR117468	2	2.2.1	holt2018global
ERR117469	2	2.2.1	holt2018global
ERR117470	2	2.2.1	holt2018global
ERR133798	2	2.2.1	holt2018global
ERR133799	2	2.2.1	holt2018global
ERR133800	4	4.1	holt2018global
ERR133801	4	4.1	holt2018global
ERR133802	2	2.2.1	holt2018global
ERR133803	4	4.8	holt2018global
ERR133804	4	4.2	holt2018global
ERR133805	2	2.2.1	holt2018global
ERR133806	2	2.2.1	holt2018global
ERR133807	4	4.8	holt2018global
ERR133808	4	4.8	holt2018global
ERR133809	4	4.2	holt2018global
ERR133810	2	2.2.1	holt2018global
ERR133811	4	4.3	holt2018global
ERR133812	4	4.2	holt2018global
ERR133813	4	4.8	holt2018global
ERR133814	2	2.2.1	holt2018global
ERR133815	2	2.2.1	holt2018global
ERR133817	4	4.8	holt2018global
ERR133818	4	4.1	holt2018global
ERR133819	4	4.2	holt2018global
ERR133820	2	2.2.1	holt2018global
ERR133822	4	4.1	holt2018global
ERR133823	4	4.2	holt2018global
ERR133824	4	4.3	holt2018global
ERR133826	2	2.2.1	holt2018global
ERR133827	2	2.2.1	holt2018global
ERR133828	4	4.8	holt2018global
ERR133829	4	4	holt2018global
ERR133830	4	4.8	holt2018global
ERR133831	2	2.2.1	holt2018global
ERR133832	4	4.1	holt2018global
ERR133833	4	4.1	holt2018global
ERR133834	4	4.2	holt2018global
ERR133835	4	4.8	holt2018global
ERR133836	4	4.8	holt2018global
ERR133837	2	2.2.1	holt2018global
ERR133838	4	4.2	holt2018global
ERR133839	2	2.2.1	holt2018global
ERR133840	2	2.2.1	holt2018global
ERR133841	4	4.8	holt2018global
ERR133842	2	2.2.1	holt2018global
ERR133844	2	2.2.1	holt2018global
ERR133845	2	2.2.1	holt2018global
ERR133846	4	4.3	holt2018global
ERR133847	2	2.2.1	holt2018global
ERR133848	2	2.2.1	holt2018global
ERR133849	4	4.2	holt2018global
ERR133850	4	4.1	holt2018global
ERR133851	4	4.3	holt2018global
ERR133852	2	2.2.1	holt2018global
ERR133853	2	2.2.1	holt2018global
ERR133854	2	2.2.1	holt2018global
ERR133855	2	2.2.1	holt2018global
ERR133856	2	2.2.1	holt2018global
ERR133857	4	4.7	holt2018global
ERR133858	4	4.2	holt2018global
ERR133859	2	2.2.1	holt2018global
ERR133860	2	2.2.1	holt2018global
ERR133861	2	2.2.1	holt2018global
ERR133862	2	2.2.1	holt2018global
ERR133863	2	2.2.1	holt2018global
ERR133864	4	4.8	holt2018global
ERR133865	2	2.2.1	holt2018global
ERR133866	2	2.2.1	holt2018global
ERR133867	2	2.2.1	holt2018global
ERR133868	2	2.2.1	holt2018global
ERR133869	2	2.2.1	holt2018global
ERR133870	4	4.1	holt2018global
ERR133871	2	2.2.1	holt2018global
ERR133872	4	4.3	holt2018global
ERR133873	2	2.2.1	holt2018global
ERR133874	4	4.1	holt2018global
ERR133875	2	2.2.1	holt2018global
ERR133876	4	4.3	holt2018global
ERR133877	4	4.1	holt2018global
ERR133878	4	4.1	holt2018global
ERR133879	2	2.2.1	holt2018global
ERR133880	2	2.2.1	holt2018global
ERR133881	4	4.8	holt2018global
ERR133882	2	2.2.1	holt2018global
ERR133883	4	4.1	holt2018global
ERR133884	2	2.2.1	holt2018global
ERR133885	2	2.2.1	holt2018global
ERR133886	2	2.2.1	holt2018global
ERR133887	4	4.3	holt2018global
ERR133888	2	2.2.1	holt2018global
ERR133889	2	2.2.1	holt2018global
ERR133890	2	2.2.1	holt2018global
ERR133891	2	2.2.1	holt2018global
ERR133892	2	2.2.1	holt2018global
ERR133893	4	4.8	holt2018global
ERR133894	2	2.2.1	holt2018global
ERR133895	2	2.2.1	holt2018global
ERR133896	2	2.2.1	holt2018global
ERR133897	4	4	holt2018global
ERR133898	2	2.2.1	holt2018global
ERR133899	2	2.2.1	holt2018global
ERR133900	2	2.2.1	holt2018global
ERR133901	2	2.2.1	holt2018global
ERR133902	2	2.2.1	holt2018global
ERR133903	4	4.3	holt2018global
ERR133904	2	2.2.1	holt2018global
ERR133905	4	4.7	holt2018global
ERR133906	2	2.2.1	holt2018global
ERR133907	2	2.2.1	holt2018global
ERR133908	2	2.2.1	holt2018global
ERR133909	4	4.8	holt2018global
ERR133910	2	2.2.1	holt2018global
ERR133911	4	4.2	holt2018global
ERR133912	4	4.3	holt2018global
ERR133913	2	2.2.1	holt2018global
ERR133914	2	2.2.1	holt2018global
ERR133915	2	2.2.1	holt2018global
ERR133917	4	4.3	holt2018global
ERR133918	2	2.2.1	holt2018global
ERR133919	2	2.2.1	holt2018global
ERR133920	4	4.3	holt2018global
ERR133921	4	4.2	holt2018global
ERR133922	4	4.3	holt2018global
ERR133924	2	2.2.1	holt2018global
ERR133925	2	2.2.1	holt2018global
ERR133926	2	2.2.1	holt2018global
ERR133927	2	2.2.1	holt2018global
ERR133929	2	2.2.1	holt2018global
ERR133930	2	2.2.1	holt2018global
ERR133931	2	2.2.1	holt2018global
ERR133932	2	2.2.1	holt2018global
ERR133933	2	2.2.1	holt2018global
ERR133934	4	4.8	holt2018global
ERR133935	2	2.2.1	holt2018global
ERR133936	2	2.2.1	holt2018global
ERR133937	4	4.1	holt2018global
ERR133938	4	4	holt2018global
ERR133939	4	4.8	holt2018global
ERR133941	2	2.2.1	holt2018global
ERR133942	4	4.1	holt2018global
ERR133944	2	2.2.1	holt2018global
ERR133945	2	2.2.1	holt2018global
ERR133946	2	2.2.1	holt2018global
ERR133947	2	2.2.1	holt2018global
ERR133948	2	2.2.1	holt2018global
ERR133949	4	4.3	holt2018global
ERR133950	2	2.2.1	holt2018global
ERR133951	2	2.2.1	holt2018global
ERR133952	4	4.2	holt2018global
ERR133953	2	2.2.1	holt2018global
ERR133954	2	2.2.1	holt2018global
ERR133955	2	2.2.1	holt2018global
ERR133956	4	4.3	holt2018global
ERR133957	2	2.2.1	holt2018global
ERR133958	2	2.2.1	holt2018global
ERR133959	2	2.2.1	holt2018global
ERR133960	2	2.2.1	holt2018global
ERR133961	4	4.1	holt2018global
ERR133962	4	4.3	holt2018global
ERR133963	2	2.2.1	holt2018global
ERR133964	4	4.8	holt2018global
ERR133965	4	4.1	holt2018global
ERR133966	2	2.2.1	holt2018global
ERR133967	4	4.2	holt2018global
ERR133968	2	2.2.1	holt2018global
ERR133969	4	4.2	holt2018global
ERR133970	2	2.2.1	holt2018global
ERR133971	4	4.1	holt2018global
ERR133973	2	2.2.1	holt2018global
ERR133974	4	4.4	holt2018global
ERR133975	2	2.2.1	holt2018global
ERR133976	2	2.2.1	holt2018global
ERR133977	4	4.3	holt2018global
ERR133978	4	4.2	holt2018global
ERR133979	2	2.2.1	holt2018global
ERR133980	4	4.8	holt2018global
ERR133981	4	4.2	holt2018global
ERR133982	2	2.2.1	holt2018global
ERR133983	2	2.2.1	holt2018global
ERR133984	2	2.2.1	holt2018global
ERR133985	4	4.3	holt2018global
ERR133987	2	2.2.1	holt2018global
ERR133988	2	2.2.1	holt2018global
ERR133989	4	4.8	holt2018global
ERR137191	4	4.8	holt2018global
ERR137192	2	2.2.1	holt2018global
ERR137195	2	2.2.1	holt2018global
ERR137196	4	4.2	holt2018global
ERR137197	4	4.8	holt2018global
ERR137198	2	2.2.1	holt2018global
ERR137200	4	4.3	holt2018global
ERR137201	4	4.3	holt2018global
ERR137202	4	4.1	holt2018global
ERR137203	2	2.2.1	holt2018global
ERR137204	2	2.2.1	holt2018global
ERR137205	2	2.2.1	holt2018global
ERR137206	2	2.2.1	holt2018global
ERR137207	2	2.2.1	holt2018global
ERR137208	2	2.2.1	holt2018global
ERR137209	4	4.3	holt2018global
ERR137210	2	2.2.1	holt2018global
ERR137211	2	2.2.1	holt2018global
ERR137212	2	2.2.1	holt2018global
ERR137213	4	4.8	holt2018global
ERR137214	4	4.2	holt2018global
ERR137215	2	2.2.1	holt2018global
ERR137216	2	2.2.1	holt2018global
ERR137217	2	2.2.1	holt2018global
ERR137218	2	2.2.1	holt2018global
ERR137219	2	2.2.1	holt2018global
ERR137220	2	2.2.1	holt2018global
ERR137221	2	2.2.1	holt2018global
ERR137222	2	2.2.1	holt2018global
ERR137223	2	2.2.1	holt2018global
ERR137224	4	4.1	holt2018global
ERR137225	2	2.2.1	holt2018global
ERR137227	2	2.2.1	holt2018global
ERR137228	4	4.1	holt2018global
ERR137229	2	2.2.1	holt2018global
ERR137230	2	2.2.1	holt2018global
ERR137231	2	2.2.1	holt2018global
ERR137232	2	2.2.1	holt2018global
ERR137233	4	4.2	holt2018global
ERR137234	2	2.2.1	holt2018global
ERR137235	2	2.2.1	holt2018global
ERR137236	2	2.2.1	holt2018global
ERR137237	2	2.2.1	holt2018global
ERR137238	4	4.8	holt2018global
ERR137239	4	4.2	holt2018global
ERR137240	2	2.2.1	holt2018global
ERR137241	2	2.2.1	holt2018global
ERR137242	2	2.2.1	holt2018global
ERR137243	2	2.2.1	holt2018global
ERR137244	2	2.2.1	holt2018global
ERR137245	4	4.2	holt2018global
ERR137246	2	2.2.1	holt2018global
ERR137247	2	2.2.1	holt2018global
ERR137248	2	2.2.1	holt2018global
ERR137249	2	2.2.1	holt2018global
ERR137250	4	4.2	holt2018global
ERR137251	4	4.1	holt2018global
ERR137252	2	2.2.1	holt2018global
ERR137253	2	2.2.1	holt2018global
ERR137254	2	2.2.1	holt2018global
ERR137255	2	2.2.1	holt2018global
ERR137256	4	4.1	holt2018global
ERR137257	2	2.2.1	holt2018global
ERR137258	4	4.3	holt2018global
ERR137259	2	2.2.1	holt2018global
ERR137260	2	2.2.1	holt2018global
ERR137261	4	4.8	holt2018global
ERR137262	2	2.2.1	holt2018global
ERR137263	2	2.2.1	holt2018global
ERR137264	2	2.2.1	holt2018global
ERR137265	2	2.2.1	holt2018global
ERR137266	4	4.1	holt2018global
ERR137267	2	2.2.1	holt2018global
ERR137268	2	2.2.1	holt2018global
ERR137269	2	2.2.1	holt2018global
ERR137270	4	4.2	holt2018global
ERR137272	2	2.2.1	holt2018global
ERR137273	2	2.2.1	holt2018global
ERR137274	4	4.2	holt2018global
ERR137275	2	2.2.1	holt2018global
ERR137277	2	2.2.1	holt2018global
ERR137278	2	2.2.1	holt2018global
ERR137279	2	2.2.1	holt2018global
ERR137280	4	4.3	holt2018global
ERR137281	2	2.2.1	holt2018global
ERR137282	2	2.2.1	holt2018global
ERR137283	2	2.2.1	holt2018global
ERR137284	4	4.3	holt2018global
ERR137285	2	2.2.1	holt2018global
ERR144542	2	2.2.1	holt2018global
ERR144543	2	2.2.1	holt2018global
ERR144544	4	4.3	holt2018global
ERR144545	2	2.2.1	holt2018global
ERR144546	4	4.7	holt2018global
ERR144547	4	4.3	holt2018global
ERR144548	2	2.2.1	holt2018global
ERR144549	2	2.2.1	holt2018global
ERR144550	2	2.2.1	holt2018global
ERR144551	2	2.2.1	holt2018global
ERR144552	2	2.2.1	holt2018global
ERR144553	2	2.2.1	holt2018global
ERR144554	2	2.2.1	holt2018global
ERR144555	4	4.2	holt2018global
ERR144557	4	4.8	holt2018global
ERR144558	2	2.2.1	holt2018global
ERR144559	4	4.1	holt2018global
ERR144560	2	2.2.1	holt2018global
ERR144561	2	2.2.1	holt2018global
ERR144562	2	2.2.1	holt2018global
ERR144563	2	2.2.1	holt2018global
ERR144564	2	2.2.1	holt2018global
ERR144565	4	4.2	holt2018global
ERR144566	2	2.2.1	holt2018global
ERR144567	2	2.2.1	holt2018global
ERR144569	4	4.2	holt2018global
ERR144570	2	2.2.1	holt2018global
ERR144571	2	2.2.1	holt2018global
ERR144572	2	2.2.1	holt2018global
ERR144573	2	2.2.1	holt2018global
ERR144574	2	2.2.1	holt2018global
ERR144575	2	2.2.1	holt2018global
ERR144576	4	4.1	holt2018global
ERR144577	2	2.2.1	holt2018global
ERR144578	4	4.1	holt2018global
ERR144579	2	2.2.1	holt2018global
ERR144580	2	2.2.1	holt2018global
ERR144581	2	2.2.1	holt2018global
ERR144582	2	2.2.1	holt2018global
ERR144584	2	2.2.1	holt2018global
ERR144585	4	4.8	holt2018global
ERR144587	4	4.8	holt2018global
ERR144588	2	2.2.1	holt2018global
ERR144590	2	2.2.1	holt2018global
ERR144592	4	4.8	holt2018global
ERR144593	2	2.2.1	holt2018global
ERR144594	2	2.2.1	holt2018global
ERR144595	2	2.2.1	holt2018global
ERR144596	2	2.2.1	holt2018global
ERR144597	2	2.2.1	holt2018global
ERR144598	4	4.2	holt2018global
ERR144599	2	2.2.1	holt2018global
ERR144600	2	2.2.1	holt2018global
ERR144603	4	4.2	holt2018global
ERR144604	4	4.2	holt2018global
ERR144605	4	4.2	holt2018global
ERR144606	2	2.2.1	holt2018global
ERR144607	2	2.2.1	holt2018global
ERR144608	2	2.2.1	holt2018global
ERR144609	2	2.2.1	holt2018global
ERR144610	2	2.2.1	holt2018global
ERR144611	2	2.2.1	holt2018global
ERR144613	4	4	holt2018global
ERR144614	2	2.2.1	holt2018global
ERR144615	2	2.2.1	holt2018global
ERR144616	2	2.2.1	holt2018global
ERR144619	2	2.2.1	holt2018global
ERR144620	2	2.2.1	holt2018global
ERR144621	4	4.3	holt2018global
ERR144622	2	2.2.1	holt2018global
ERR144623	2	2.2.1	holt2018global
ERR144624	4	4.2	holt2018global
ERR144625	2	2.2.1	holt2018global
ERR144626	2	2.2.1	holt2018global
ERR144627	4	4.3	holt2018global
ERR144628	2	2.2.1	holt2018global
ERR144629	4	4.8	holt2018global
ERR144630	2	2.2.1	holt2018global
ERR144631	2	2.2.1	holt2018global
ERR144632	2	2.2.1	holt2018global
ERR144633	2	2.2.1	holt2018global
ERR144634	2	2.2.1	holt2018global
ERR144635	2	2.2.1	holt2018global
ERR144636	2	2.2.1	holt2018global
ERR158569	2	2.2.1	holt2018global
ERR158570	2	2.2.1	holt2018global
ERR158571	4	4.8	holt2018global
ERR158572	2	2.2.1	holt2018global
ERR158573	4	4.2	holt2018global
ERR158574	2	2.2.1	holt2018global
ERR158575	2	2.2.1	holt2018global
ERR158576	2	2.2.1	holt2018global
ERR158577	2	2.2.1	holt2018global
ERR158578	2	2.2.1	holt2018global
ERR158579	4	4.3	holt2018global
ERR158580	2	2.2.1	holt2018global
ERR158581	2	2.2.1	holt2018global
ERR158582	4	4.2	holt2018global
ERR158584	4	4.3	holt2018global
ERR158585	2	2.2.1	holt2018global
ERR158586	2	2.2.1	holt2018global
ERR158587	2	2.2.1	holt2018global
ERR158588	2	2.2.1	holt2018global
ERR158589	2	2.2.1	holt2018global
ERR158590	2	2.2.1	holt2018global
ERR158591	2	2.2.1	holt2018global
ERR158592	2	2.2.1	holt2018global
ERR158593	2	2.2.1	holt2018global
ERR158594	2	2.2.1	holt2018global
ERR158595	4	4.3	holt2018global
ERR158596	2	2.2.1	holt2018global
ERR158597	2	2.2.1	holt2018global
ERR158598	2	2.2.1	holt2018global
ERR158611	2	2.2.1	holt2018global
ERR158612	4	4.8	holt2018global
ERR158613	2	2.2.1	holt2018global
ERR158614	4	4.2	holt2018global
ERR158615	2	2.2.1	holt2018global
ERR158616	2	2.2.1	holt2018global
ERR227975	2	2.2.1	holt2018global
ERR227976	2	2.2.1	holt2018global
ERR227977	2	2.2.1	holt2018global
ERR227978	2	2.2.1	holt2018global
ERR227979	2	2.2.1	holt2018global
ERR227980	2	2.2.1	holt2018global
ERR227981	2	2.2.1	holt2018global
ERR227982	2	2.2.1	holt2018global
ERR227983	2	2.2.1	holt2018global
ERR227984	2	2.2.1	holt2018global
ERR227985	4	4.2	holt2018global
ERR227987	2	2.2.1	holt2018global
ERR227988	4	4.3	holt2018global
ERR227990	4	4.3	holt2018global
ERR227991	4	4.2	holt2018global
ERR227992	4	4.2	holt2018global
ERR227994	4	4.8	holt2018global
ERR227995	2	2.2.1	holt2018global
ERR227996	2	2.2.1	holt2018global
ERR227997	4	4.2	holt2018global
ERR227998	4	4.1	holt2018global
ERR227999	2	2.2.1	holt2018global
ERR228000	4	4.8	holt2018global
ERR228001	4	4.2	holt2018global
ERR228002	2	2.2.1	holt2018global
ERR228003	2	2.2.1	holt2018global
ERR228004	2	2.2.1	holt2018global
ERR228005	4	4.3	holt2018global
ERR228006	2	2.2.1	holt2018global
ERR228007	2	2.2.1	holt2018global
ERR228008	4	4.1	holt2018global
ERR228009	4	4.3	holt2018global
ERR228010	2	2.2.1	holt2018global
ERR228011	4	4.3	holt2018global
ERR228012	2	2.2.1	holt2018global
ERR228013	2	2.2.1	holt2018global
ERR228014	2	2.2.1	holt2018global
ERR228015	2	2.2.1	holt2018global
ERR228016	4	4.1	holt2018global
ERR228017	2	2.2.1	holt2018global
ERR228018	2	2.2.1	holt2018global
ERR228019	2	2.2.1	holt2018global
ERR228020	2	2.2.1	holt2018global
ERR228021	4	4.1	holt2018global
ERR228022	2	2.2.1	holt2018global
ERR228023	4	4.8	holt2018global
ERR228024	2	2.2.1	holt2018global
ERR228025	4	4.4	holt2018global
ERR228026	4	4.1	holt2018global
ERR228027	2	2.2.1	holt2018global
ERR228028	2	2.2.1	holt2018global
ERR228029	2	2.2.1	holt2018global
ERR228030	4	4.3	holt2018global
ERR228031	4	4.3	holt2018global
ERR228032	2	2.2.1	holt2018global
ERR228033	4	4.3	holt2018global
ERR228034	4	4.3	holt2018global
ERR228035	4	4.8	holt2018global
ERR228036	4	4.3	holt2018global
ERR228037	2	2.2.1	holt2018global
ERR228038	4	4.1	holt2018global
ERR228039	2	2.2.1	holt2018global
ERR228040	2	2.2.1	holt2018global
ERR228042	2	2.2.1	holt2018global
ERR228043	2	2.2.1	holt2018global
ERR228044	4	4.1	holt2018global
ERR228045	4	4	holt2018global
ERR228046	2	2.2.1	holt2018global
ERR228047	4	4.8	holt2018global
ERR228048	2	2.2.1	holt2018global
ERR228049	2	2.2.1	holt2018global
ERR228050	2	2.2.1	holt2018global
ERR228051	2	2.2.1	holt2018global
ERR228052	2	2.2.1	holt2018global
ERR228053	4	4.1	holt2018global
ERR228054	2	2.2.1	holt2018global
ERR228055	4	4.8	holt2018global
ERR228056	2	2.2.1	holt2018global
ERR228057	4	4.8	holt2018global
ERR228058	4	4.2	holt2018global
ERR228059	2	2.2.1	holt2018global
ERR228060	2	2.2.1	holt2018global
ERR228061	2	2.2.1	holt2018global
ERR228062	2	2.2.1	holt2018global
ERR228063	4	4.8	holt2018global
ERR228064	2	2.2.1	holt2018global
ERR228065	4	4.8	holt2018global
ERR228066	2	2.2.1	holt2018global
ERR228067	4	4.4	holt2018global
ERR228068	2	2.2.1	holt2018global
ERR228069	4	4.3	holt2018global
ERR229915	2	2.2.1	holt2018global
ERR229916	2	2.2.1	holt2018global
ERR229917	4	4.3	holt2018global
ERR229918	2	2.2.1	holt2018global
ERR229919	4	4.2	holt2018global
ERR229920	2	2.2.1	holt2018global
ERR229921	2	2.2.1	holt2018global
ERR229922	2	2.2.1	holt2018global
ERR229923	2	2.2.1	holt2018global
ERR229924	2	2.2.1	holt2018global
ERR229925	4	4.1	holt2018global
ERR229926	2	2.2.1	holt2018global
ERR229927	4	4.3	holt2018global
ERR229928	4	4.3	holt2018global
ERR229929	2	2.2.1	holt2018global
ERR229931	2	2.2.1	holt2018global
ERR229932	4	4.1	holt2018global
ERR229933	2	2.2.1	holt2018global
ERR229934	4	4.3	holt2018global
ERR229935	2	2.2.1	holt2018global
ERR229936	2	2.2.1	holt2018global
ERR229937	4	4.8	holt2018global
ERR229938	4	4.1	holt2018global
ERR229939	2	2.2.1	holt2018global
ERR229940	2	2.2.1	holt2018global
ERR229941	4	4.1	holt2018global
ERR229942	4	4.8	holt2018global
ERR229943	4	4.3	holt2018global
ERR229944	4	4.3	holt2018global
ERR229945	2	2.2.1	holt2018global
ERR229946	2	2.2.1	holt2018global
ERR229947	2	2.2.1	holt2018global
ERR229948	4	4.8	holt2018global
ERR229949	2	2.2.1	holt2018global
ERR229950	4	4.1	holt2018global
ERR229953	4	4.2	holt2018global
ERR229954	4	4.1	holt2018global
ERR229955	2	2.2.1	holt2018global
ERR229956	4	4.8	holt2018global
ERR229957	2	2.2.1	holt2018global
ERR229958	4	4.1	holt2018global
ERR229959	4	4.1	holt2018global
ERR229960	2	2.2.1	holt2018global
ERR229961	2	2.2.1	holt2018global
ERR229962	2	2.2.1	holt2018global
ERR229963	4	4.8	holt2018global
ERR229964	2	2.2.1	holt2018global
ERR229965	2	2.2.1	holt2018global
ERR229966	2	2.2.1	holt2018global
ERR229967	4	4.8	holt2018global
ERR229968	2	2.2.1	holt2018global
ERR229969	2	2.2.1	holt2018global
ERR229970	2	2.2.1	holt2018global
ERR229971	2	2.2.1	holt2018global
ERR229972	4	4.2	holt2018global
ERR229973	4	4.3	holt2018global
ERR229975	2	2.2.1	holt2018global
ERR229976	2	2.2.1	holt2018global
ERR229977	2	2.2.1	holt2018global
ERR229978	2	2.2.1	holt2018global
ERR229979	4	4.2	holt2018global
ERR229980	2	2.2.1	holt2018global
ERR229981	4	4.2	holt2018global
ERR229982	2	2.2.1	holt2018global
ERR229983	4	4.3	holt2018global
ERR229984	2	2.2.1	holt2018global
ERR229985	4	4.2	holt2018global
ERR229986	4	4.2	holt2018global
ERR229987	4	4.1	holt2018global
ERR229988	4	4.2	holt2018global
ERR229989	4	4.3	holt2018global
ERR229990	4	4.8	holt2018global
ERR229991	4	4.8	holt2018global
ERR229992	2	2.2.1	holt2018global
ERR229993	2	2.2.1	holt2018global
ERR229994	2	2.2.1	holt2018global
ERR229995	2	2.2.1	holt2018global
ERR229997	2	2.2.1	holt2018global
ERR229998	2	2.2.1	holt2018global
ERR229999	2	2.2.1	holt2018global
ERR230000	2	2.2.1	holt2018global
ERR230001	4	4.8	holt2018global
ERR230002	4	4.2	holt2018global
ERR230003	4	4.1	holt2018global
ERR230004	2	2.2.1	holt2018global
ERR230005	2	2.2.1	holt2018global
ERR230006	2	2.2.1	holt2018global
ERR230007	2	2.2.1	holt2018global
ERR230008	2	2.2.1	holt2018global
ERR230010	2	2.2.1	holt2018global
ERR234556	2	2.2.1	holt2018global
ERR234557	2	2.2.1	holt2018global
ERR234558	4	4.1	holt2018global
ERR234559	2	2.2.1	holt2018global
ERR234560	2	2.2.1	holt2018global
ERR234561	4	4.2	holt2018global
ERR234562	2	2.2.1	holt2018global
ERR234563	2	2.2.1	holt2018global
ERR234564	4	4.2	holt2018global
ERR234565	2	2.2.1	holt2018global
ERR234568	2	2.2.1	holt2018global
ERR234569	2	2.2.1	holt2018global
ERR234570	2	2.2.1	holt2018global
ERR234572	4	4.2	holt2018global
ERR234573	2	2.2.1	holt2018global
ERR234574	2	2.2.1	holt2018global
ERR234575	2	2.2.1	holt2018global
ERR234576	2	2.2.1	holt2018global
ERR234577	4	4.2	holt2018global
ERR234578	4	4.8	holt2018global
ERR234579	2	2.2.1	holt2018global
ERR234580	4	4.1	holt2018global
ERR234581	2	2.2.1	holt2018global
ERR234582	2	2.2.1	holt2018global
ERR234584	2	2.2.1	holt2018global
ERR234585	2	2.2.1	holt2018global
ERR234586	4	4.2	holt2018global
ERR234587	4	4.1	holt2018global
ERR234588	4	4.1	holt2018global
ERR234589	2	2.2.1	holt2018global
ERR234590	2	2.2.1	holt2018global
ERR234591	2	2.2.1	holt2018global
ERR234592	4	4.8	holt2018global
ERR234593	2	2.2.1	holt2018global
ERR234594	4	4.1	holt2018global
ERR234595	2	2.2.1	holt2018global
ERR234596	2	2.2.1	holt2018global
ERR234597	2	2.2.1	holt2018global
ERR234598	2	2.2.1	holt2018global
ERR234599	4	4.8	holt2018global
ERR234600	2	2.2.1	holt2018global
ERR234602	2	2.2.1	holt2018global
ERR234603	2	2.2.1	holt2018global
ERR234606	2	2.2.1	holt2018global
ERR234607	2	2.2.1	holt2018global
ERR234608	2	2.2.1	holt2018global
ERR234609	2	2.2.1	holt2018global
ERR234610	2	2.2.1	holt2018global
ERR234612	2	2.2.1	holt2018global
ERR234614	4	4.3	holt2018global
ERR234615	2	2.2.1	holt2018global
ERR234616	4	4.2	holt2018global
ERR234617	2	2.2.1	holt2018global
ERR234618	2	2.2.1	holt2018global
ERR234619	2	2.2.1	holt2018global
ERR234620	2	2.2.1	holt2018global
ERR234622	2	2.2.1	holt2018global
ERR234623	2	2.2.1	holt2018global
ERR234624	2	2.2.1	holt2018global
ERR234625	4	4.8	holt2018global
ERR234627	4	4.1	holt2018global
ERR234628	2	2.2.1	holt2018global
ERR234630	2	2.2.1	holt2018global
ERR234631	4	4.1	holt2018global
ERR234632	2	2.2.1	holt2018global
ERR234633	2	2.2.1	holt2018global
ERR234634	4	4.1	holt2018global
ERR234636	4	4.1	holt2018global
ERR234637	2	2.2.1	holt2018global
ERR234638	2	2.2.1	holt2018global
ERR234639	2	2.2.1	holt2018global
ERR234640	2	2.2.1	holt2018global
ERR234641	2	2.2.1	holt2018global
ERR234642	2	2.2.1	holt2018global
ERR234643	2	2.2.1	holt2018global
ERR234644	2	2.2.1	holt2018global
ERR234645	2	2.2.1	holt2018global
ERR234646	2	2.2.1	holt2018global
ERR234647	2	2.2.1	holt2018global
ERR234648	4	4.2	holt2018global
ERR234649	2	2.2.1	holt2018global
ERR234650	2	2.2.1	holt2018global
ERR234651	2	2.2.1	holt2018global
ERR234652	2	2.2.1	holt2018global
ERR234653	2	2.2.1	holt2018global
ERR234654	4	4.2	holt2018global
ERR234655	2	2.2.1	holt2018global
ERR234656	2	2.2.1	holt2018global
ERR234657	2	2.2.1	holt2018global
ERR234658	2	2.2.1	holt2018global
ERR234660	2	2.2.1	holt2018global
ERR234661	2	2.2.1	holt2018global
ERR234662	2	2.2.1	holt2018global
ERR234663	2	2.2.1	holt2018global
ERR234664	2	2.2.1	holt2018global
ERR234665	4	4.3	holt2018global
ERR234666	2	2.2.1	holt2018global
ERR234667	4	4.3	holt2018global
ERR234668	2	2.2.1	holt2018global
ERR234669	4	4.2	holt2018global
ERR234671	2	2.2.1	holt2018global
ERR234672	2	2.2.1	holt2018global
ERR234674	4	4.2	holt2018global
ERR234683	2	2.2.1	holt2018global
ERR234684	4	4.1	holt2018global
ERR234685	4	4.3	holt2018global
ERR234686	4	4.2	holt2018global
ERR234687	4	4.3	holt2018global
ERR234688	2	2.2.1	holt2018global
ERR234689	4	4.3	holt2018global
ERR234690	2	2.2.1	holt2018global
ERR234691	4	4.2	holt2018global
ERR234692	2	2.2.1	holt2018global
ERR234693	4	4.2	holt2018global
ERR234694	4	4.8	holt2018global
ERR234696	4	4.8	holt2018global
ERR234697	4	4.2	holt2018global
ERR234698	2	2.2.1	holt2018global
ERR234699	4	4.8	holt2018global
ERR757181	4	4.1	holt2018global
ERR757183	4	4.1	holt2018global
ERR757184	4	4.1	holt2018global
ERR757189	4	4.1	holt2018global
ERR757160	4	4.1	holt2018global
ERR757161	4	4.1	holt2018global
ERR757147	4	4.1	holt2018global
ERR757148	4	4.1	holt2018global
ERR757149	4	4.1	holt2018global
ERR757150	4	4.1	holt2018global
ERR757151	4	4.1	holt2018global
ERR757145	4	4.1	holt2018global
ERR757152	4	4.1	holt2018global
ERR757146	4	4.1	holt2018global
ERR757162	4	4.1	holt2018global
ERR757163	4	4.1	holt2018global
ERR757164	4	4.1	holt2018global
ERR757165	4	4.1	holt2018global
ERR757167	4	4.1	holt2018global
ERR757169	4	4.1	holt2018global
ERR757170	4	4.1	holt2018global
ERR757171	4	4.1	holt2018global
ERR757172	4	4.1	holt2018global
ERR757173	4	4.1	holt2018global
ERR757174	4	4.1	holt2018global
ERR757175	4	4.1	holt2018global
ERR757176	4	4.1	holt2018global
ERR757177	4	4.1	holt2018global
ERR757178	4	4.1	holt2018global
ERR757179	4	4.1	holt2018global
ERR757180	4	4.1	holt2018global
ERR757182	4	4.1	holt2018global
ERR757186	4	4.1	holt2018global
ERR757187	4	4.1	holt2018global
ERR757188	4	4.1	holt2018global
ERR757166	4	4.1	holt2018global
ERR757168	4	4.1	holt2018global
ERR757185	4	4.1	holt2018global
ERR762352	4	4.1	holt2018global
ERR760781	4	4.1	holt2018global
ERR760782	4	4.1	holt2018global
ERR760783	4	4.1	holt2018global
ERR760784	4	4.1	holt2018global
ERR760787	4	4.1	holt2018global
ERR760788	4	4.1	holt2018global
ERR760789	4	4.1	holt2018global
ERR760790	4	4.1	holt2018global
ERR760791	4	4.1	holt2018global
ERR760793	4	4.1	holt2018global
ERR760796	4	4.1	holt2018global
ERR760797	4	4.1	holt2018global
ERR762353	4	4.1	holt2018global
ERR760801	4	4.1	holt2018global
ERR760802	4	4.1	holt2018global
ERR760803	4	4.1	holt2018global
ERR757159	4	4.1	holt2018global
ERR760888	4	4.1	holt2018global
ERR764904	4	4.1	holt2018global
ERR760889	4	4.1	holt2018global
ERR760890	4	4.1	holt2018global
ERR760891	4	4.1	holt2018global
ERR760892	4	4.1	holt2018global
ERR760893	4	4.1	holt2018global
ERR760894	4	4.1	holt2018global
ERR760895	4	4.1	holt2018global
ERR760896	4	4.1	holt2018global
ERR760897	4	4.1	holt2018global
ERR760899	4	4.1	holt2018global
ERR760900	4	4.1	holt2018global
ERR760901	4	4.1	holt2018global
ERR760902	4	4.1	holt2018global
ERR760903	4	4.1	holt2018global
ERR760904	4	4.1	holt2018global
ERR760905	4	4.1	holt2018global
ERR760906	4	4.1	holt2018global
ERR760907	4	4.1	holt2018global
ERR760908	4	4.1	holt2018global
ERR760909	4	4.1	holt2018global
ERR760910	4	4.1	holt2018global
ERR760911	4	4.1	holt2018global
ERR760912	4	4.1	holt2018global
ERR760913	4	4.1	holt2018global
ERR760914	4	4.1	holt2018global
ERR760915	4	4.1	holt2018global
ERR760916	4	4.1	holt2018global
ERR760917	4	4.1	holt2018global
ERR760918	4	4.1	holt2018global
ERR760919	4	4.1	holt2018global
ERR760920	4	4.1	holt2018global
ERR760921	4	4.1	holt2018global
ERR760922	4	4.1	holt2018global
ERR760923	4	4.1	holt2018global
ERR760924	4	4.1	holt2018global
ERR760925	4	4.1	holt2018global
ERR760926	4	4.1	holt2018global
ERR760927	4	4.1	holt2018global
ERR760595	4	4.1	holt2018global
ERR760596	4	4.1	holt2018global
ERR760597	4	4.1	holt2018global
ERR760598	4	4.1	holt2018global
ERR760599	4	4.1	holt2018global
ERR760600	4	4.1	holt2018global
ERR760601	4	4.1	holt2018global
ERR760602	4	4.1	holt2018global
ERR760603	4	4.1	holt2018global
ERR760604	4	4.1	holt2018global
ERR760605	4	4.1	holt2018global
ERR762553	4	4.1	holt2018global
ERR760607	4	4.1	holt2018global
ERR760608	4	4.1	holt2018global
ERR760609	4	4.1	holt2018global
ERR760610	4	4.1	holt2018global
ERR760611	4	4.1	holt2018global
ERR760612	4	4.1	holt2018global
ERR760731	4	4.1	holt2018global
ERR760732	4	4.1	holt2018global
ERR760734	4	4.1	holt2018global
ERR760735	4	4.1	holt2018global
ERR760736	4	4.1	holt2018global
ERR760737	4	4.1	holt2018global
ERR760738	4	4.1	holt2018global
ERR760739	4	4.1	holt2018global
ERR760740	4	4.1	holt2018global
ERR760741	4	4.1	holt2018global
ERR760742	4	4.1	holt2018global
ERR760743	4	4.1	holt2018global
ERR760744	4	4.1	holt2018global
ERR760745	4	4.1	holt2018global
ERR760746	4	4.1	holt2018global
ERR760747	4	4.1	holt2018global
ERR760748	4	4.1	holt2018global
ERR760749	4	4.1	holt2018global
ERR760750	4	4.1	holt2018global
ERR760751	4	4.1	holt2018global
ERR760752	4	4.1	holt2018global
ERR760753	4	4.1	holt2018global
ERR760754	4	4.1	holt2018global
ERR760755	4	4.1	holt2018global
ERR760809	4	4.1	holt2018global
ERR760756	4	4.1	holt2018global
ERR760757	4	4.1	holt2018global
ERR760758	4	4.1	holt2018global
ERR760759	4	4.1	holt2018global
ERR760760	4	4.1	holt2018global
ERR760761	4	4.1	holt2018global
ERR760762	4	4.1	holt2018global
ERR760763	4	4.1	holt2018global
ERR760764	4	4.1	holt2018global
ERR760765	4	4.1	holt2018global
ERR760766	4	4.1	holt2018global
ERR760767	4	4.1	holt2018global
ERR760768	4	4.1	holt2018global
ERR760769	4	4.1	holt2018global
ERR760770	4	4.1	holt2018global
ERR762554	4	4.1	holt2018global
ERR760772	4	4.1	holt2018global
ERR760810	4	4.1	holt2018global
ERR762555	4	4.1	holt2018global
ERR762557	4	4.1	holt2018global
ERR760811	4	4.1	holt2018global
ERR760812	4	4.1	holt2018global
ERR760813	4	4.1	holt2018global
ERR760814	4	4.1	holt2018global
ERR762558	4	4.1	holt2018global
ERR762559	4	4.1	holt2018global
ERR760778	4	4.1	holt2018global
ERR760815	4	4.1	holt2018global
ERR760779	4	4.1	holt2018global
ERR760785	4	4.1	holt2018global
ERR760786	4	4.1	holt2018global
ERR760816	4	4.1	holt2018global
ERR760792	4	4.1	holt2018global
ERR760794	4	4.1	holt2018global
ERR760817	4	4.1	holt2018global
ERR760795	4	4.1	holt2018global
ERR760818	4	4.1	holt2018global
ERR760798	4	4.1	holt2018global
ERR760799	4	4.1	holt2018global
ERR760800	4	4.1	holt2018global
ERR760819	4	4.1	holt2018global
ERR760820	4	4.1	holt2018global
ERR760821	4	4.1	holt2018global
ERR760822	4	4.1	holt2018global
ERR760823	4	4.1	holt2018global
ERR760824	4	4.1	holt2018global
ERR760825	4	4.1	holt2018global
ERR760826	4	4.1	holt2018global
ERR760827	4	4.1	holt2018global
ERR760828	4	4.1	holt2018global
ERR760829	4	4.1	holt2018global
ERR760830	4	4.1	holt2018global
ERR760831	4	4.1	holt2018global
ERR760832	4	4.1	holt2018global
ERR760833	4	4.1	holt2018global
ERR760834	4	4.1	holt2018global
ERR760835	4	4.1	holt2018global
ERR760836	4	4.1	holt2018global
ERR760837	4	4.1	holt2018global
ERR760838	4	4.1	holt2018global
ERR760839	4	4.1	holt2018global
ERR760840	4	4.1	holt2018global
ERR760841	4	4.1	holt2018global
ERR760842	4	4.1	holt2018global
ERR760843	4	4.1	holt2018global
ERR760844	4	4.1	holt2018global
ERR760845	4	4.1	holt2018global
ERR760846	4	4.1	holt2018global
ERR760847	4	4.1	holt2018global
ERR760848	4	4.1	holt2018global
ERR760849	4	4.1	holt2018global
ERR760850	4	4.1	holt2018global
ERR760851	4	4.1	holt2018global
ERR760852	4	4.1	holt2018global
ERR760853	4	4.1	holt2018global
ERR760854	4	4.1	holt2018global
ERR760855	4	4.1	holt2018global
ERR760856	4	4.1	holt2018global
ERR760857	4	4.1	holt2018global
ERR760858	4	4.1	holt2018global
ERR760859	4	4.1	holt2018global
ERR760860	4	4.1	holt2018global
ERR760861	4	4.1	holt2018global
ERR760862	4	4.1	holt2018global
ERR760863	4	4.1	holt2018global
ERR760864	4	4.1	holt2018global
ERR760865	4	4.1	holt2018global
ERR760866	4	4.1	holt2018global
ERR760867	4	4.1	holt2018global
ERR760868	4	4.1	holt2018global
ERR760869	4	4.1	holt2018global
ERR760870	4	4.1	holt2018global
ERR760871	4	4.1	holt2018global
ERR760872	4	4.1	holt2018global
ERR760873	4	4.1	holt2018global
ERR760874	4	4.1	holt2018global
ERR760875	4	4.1	holt2018global
ERR760876	4	4.1	holt2018global
ERR760877	4	4.1	holt2018global
ERR760878	4	4.1	holt2018global
ERR760879	4	4.1	holt2018global
ERR760880	4	4.1	holt2018global
ERR760881	4	4.1	holt2018global
ERR760882	4	4.1	holt2018global
ERR760883	4	4.1	holt2018global
ERR760884	4	4.1	holt2018global
ERR760885	4	4.1	holt2018global
ERR760886	4	4.1	holt2018global
ERR760887	4	4.1	holt2018global
ERR124634	4	4.3	holt2018global
ERR124635	4	4.3	holt2018global
ERR124637	4	4.3	holt2018global
ERR124638	4	4.3	holt2018global
ERR124639	4	4.3	holt2018global
ERR124640	1	1.1	holt2018global
ERR124641	4	4.1	holt2018global
ERR124643	4	4.3	holt2018global
ERR124644	4	4.3	holt2018global
ERR124647	4	4.3	holt2018global
ERR124648	4	4.3	holt2018global
ERR124649	4	4.3	holt2018global
ERR124650	4	4.3	holt2018global
ERR126599	4	4.6	holt2018global
ERR126601	4	4.6	holt2018global
ERR126602	1	1.1	holt2018global
ERR126603	4	4.3	holt2018global
ERR126605	1	1.2	holt2018global
ERR126606	2	2.2.1	holt2018global
ERR126607	1	1.2	holt2018global
ERR126609	4	4.3	holt2018global
ERR126610	4	4.9	holt2018global
ERR126611	4	4.9	holt2018global
ERR126612	4	4.1	holt2018global
ERR126613	4	4.3	holt2018global
ERR126614	4	4.3	holt2018global
ERR126615	4	4.3	holt2018global
ERR126619	4	4.1	holt2018global
ERR126621	1	1.1	holt2018global
ERR126622	4	4.3	holt2018global
ERR126623	4	4.3	holt2018global
ERR126624	4	4.3	holt2018global
ERR126625	4	4.3	holt2018global
ERR126626	4	4.3	holt2018global
ERR126627	4	4.3	holt2018global
ERR126628	4	4.3	holt2018global
ERR126629	4	4.3	holt2018global
ERR126630	4	4.3	holt2018global
ERR126631	1	1.1	holt2018global
ERR126632	4	4.1	holt2018global
ERR126634	4	4.3	holt2018global
ERR126635	4	4.9	holt2018global
ERR126636	1	1.2	holt2018global
ERR126637	4	4.3	holt2018global
ERR126638	4	4.1	holt2018global
ERR126639	1	1.1	holt2018global
ERR126642	4	4.1	holt2018global
ERR126643	4	4.1	holt2018global
ERR161012	4	4.3	holt2018global
ERR161013	4	4.3	holt2018global
ERR161015	4	4.3	holt2018global
ERR161016	4	4.3	holt2018global
ERR161017	4	4.3	holt2018global
ERR161018	4	4.3	holt2018global
ERR161019	4	4	holt2018global
ERR161020	4	4.3	holt2018global
ERR161021	4	4.3	holt2018global
ERR161022	4	4.3	holt2018global
ERR161023	4	4.3	holt2018global
ERR161024	4	4.3	holt2018global
ERR161025	4	4.3	holt2018global
ERR161027	4	4.3	holt2018global
ERR161028	4	4.1	holt2018global
ERR161029	4	4.3	holt2018global
ERR161030	4	4.3	holt2018global
ERR161031	1	1.1	holt2018global
ERR161032	4	4.3	holt2018global
ERR161035	4	4.3	holt2018global
ERR161036	4	4.1	holt2018global
ERR161038	4	4.3	holt2018global
ERR161041	4	4.3	holt2018global
ERR161042	4	4.9	holt2018global
ERR161043	4	4.3	holt2018global
ERR161046	4	4.3	holt2018global
ERR161047	4	4.4	holt2018global
ERR161049	4	4.3	holt2018global
ERR161051	4	4.3	holt2018global
ERR161052	4	4.9	holt2018global
ERR161054	4	4.1	holt2018global
ERR161055	4	4.8	holt2018global
ERR161056	4	4.3	holt2018global
ERR161057	4	4.3	holt2018global
ERR161058	4	4.1	holt2018global
ERR161059	1	1.2	holt2018global
ERR161060	4	4.3	holt2018global
ERR161063	1	1.1	holt2018global
ERR161066	4	4.9	holt2018global
ERR161067	4	4.9	holt2018global
ERR161068	4	4.3	holt2018global
ERR161069	4	4.3	holt2018global
ERR161070	4	4.3	holt2018global
ERR161073	4	4.3	holt2018global
ERR161074	4	4.3	holt2018global
ERR161075	4	4.3	holt2018global
ERR161076	4	4.3	holt2018global
ERR161080	4	4.3	holt2018global
ERR161081	4	4.3	holt2018global
ERR161085	1	1.2	holt2018global
ERR161088	1	1.1	holt2018global
ERR161089	1	1.1	holt2018global
ERR161090	4	4.6	holt2018global
ERR161091	4	4.3	holt2018global
ERR161092	4	4.3	holt2018global
ERR161093	4	4.9	holt2018global
ERR161094	4	4.3	holt2018global
ERR161095	4	4.1	holt2018global
ERR161096	4	4.3	holt2018global
ERR161097	4	4.3	holt2018global
ERR161098	4	4.3	holt2018global
ERR161100	1	1.2	holt2018global
ERR161101	4	4.3	holt2018global
ERR161102	4	4.1	holt2018global
ERR161103	4	4.3	holt2018global
ERR161104	4	4.3	holt2018global
ERR161105	4	4.3	holt2018global
ERR161106	1	1.1	holt2018global
ERR161108	4	4.3	holt2018global
ERR161109	4	4.1	holt2018global
ERR161110	4	4.8	holt2018global
ERR161111	4	4.1	holt2018global
ERR161112	4	4.3	holt2018global
ERR161113	4	4.8	holt2018global
ERR161114	4	4.3	holt2018global
ERR161115	4	4.3	holt2018global
ERR161116	4	4.9	holt2018global
ERR161117	4	4.9	holt2018global
ERR161119	4	4.3	holt2018global
ERR161120	4	4.3	holt2018global
ERR161121	1	1.2	holt2018global
ERR161124	1	1.2	holt2018global
ERR161126	4	4.3	holt2018global
ERR161127	4	4.3	holt2018global
ERR161128	4	4.3	holt2018global
ERR161129	1	1.1	holt2018global
ERR161130	4	4.3	holt2018global
ERR161131	1	1.2	holt2018global
ERR161132	4	4.3	holt2018global
ERR161133	1	1.1	holt2018global
ERR161134	4	4.3	holt2018global
ERR161135	4	4.3	holt2018global
ERR161136	4	4.9	holt2018global
ERR161137	4	4.3	holt2018global
ERR161138	1	1.2	holt2018global
ERR161139	4	4.3	holt2018global
ERR161140	4	4.3	holt2018global
ERR161141	4	4.3	holt2018global
ERR161142	4	4.9	holt2018global
ERR161143	4	4.3	holt2018global
ERR161144	1	1.2	holt2018global
ERR161146	4	4.3	holt2018global
ERR161147	4	4.3	holt2018global
ERR161148	4	4.3	holt2018global
ERR161149	4	4.3	holt2018global
ERR161150	4	4.3	holt2018global
ERR161151	4	4.3	holt2018global
ERR161152	4	4.3	holt2018global
ERR161153	4	4.3	holt2018global
ERR161154	4	4.3	holt2018global
ERR161155	4	4.3	holt2018global
ERR161156	4	4.3	holt2018global
ERR161157	4	4.3	holt2018global
ERR161158	4	4.3	holt2018global
ERR161159	4	4.8	holt2018global
ERR161160	4	4.3	holt2018global
ERR161161	1	1.1	holt2018global
ERR161162	4	4.3	holt2018global
ERR161163	4	4.3	holt2018global
ERR161164	4	4.3	holt2018global
ERR161165	4	4.3	holt2018global
ERR161166	4	4.3	holt2018global
ERR161168	4	4.3	holt2018global
ERR161171	4	4.9	holt2018global
ERR161172	4	4.3	holt2018global
ERR161174	4	4.3	holt2018global
ERR161175	4	4.3	holt2018global
ERR161176	4	4.3	holt2018global
ERR161177	4	4.1	holt2018global
ERR161178	4	4.3	holt2018global
ERR161179	4	4.1	holt2018global
ERR161180	1	1.2	holt2018global
ERR161181	1	1.1	holt2018global
ERR161182	4	4.3	holt2018global
ERR161183	4	4.3	holt2018global
ERR161185	4	4.3	holt2018global
ERR161186	4	4.3	holt2018global
ERR161187	4	4.3	holt2018global
ERR161188	4	4.3	holt2018global
ERR161189	4	4.3	holt2018global
ERR161190	1	1.1	holt2018global
ERR161191	4	4.3	holt2018global
ERR161193	4	4.3	holt2018global
ERR161195	4	4.3	holt2018global
ERR161196	4	4.9	holt2018global
ERR161197	4	4.3	holt2018global
ERR161201	1	1.1	holt2018global
ERR161202	4	4.3	holt2018global
ERR161203	4	4.3	holt2018global
ERR163928	4	4.3	holt2018global
ERR163929	4	4.3	holt2018global
ERR163930	4	4.4	holt2018global
ERR163931	4	4.1	holt2018global
ERR163932	1	1.1	holt2018global
ERR163933	4	4.3	holt2018global
ERR163934	4	4.3	holt2018global
ERR163935	1	1.1	holt2018global
ERR163936	4	4.3	holt2018global
ERR163937	4	4.1	holt2018global
ERR163938	4	4.1	holt2018global
ERR163940	4	4.4	holt2018global
ERR163941	4	4.3	holt2018global
ERR163942	4	4.4	holt2018global
ERR163944	4	4.3	holt2018global
ERR163946	4	4.4	holt2018global
ERR163949	4	4.1	holt2018global
ERR163950	4	4.3	holt2018global
ERR163952	1	1.1	holt2018global
ERR163953	4	4.3	holt2018global
ERR163954	1	1.1	holt2018global
ERR163955	4	4.3	holt2018global
ERR163956	4	4.3	holt2018global
ERR163957	4	4.1	holt2018global
ERR163958	4	4.3	holt2018global
ERR163959	2	2.2.1	holt2018global
ERR163960	4	4.3	holt2018global
ERR163962	1	1.2	holt2018global
ERR163963	1	1.2	holt2018global
ERR163964	4	4.3	holt2018global
ERR163965	4	4.3	holt2018global
ERR163967	4	4.3	holt2018global
ERR163968	4	4.3	holt2018global
ERR163969	4	4.8	holt2018global
ERR163971	4	4.3	holt2018global
ERR163972	1	1.1	holt2018global
ERR163975	4	4.3	holt2018global
ERR163977	4	4.6	holt2018global
ERR163979	4	4.6	holt2018global
ERR163980	1	1.1	holt2018global
ERR163981	4	4.3	holt2018global
ERR163982	1	1.1	holt2018global
ERR163983	4	4.3	holt2018global
ERR163984	4	4.3	holt2018global
ERR163985	4	4.3	holt2018global
ERR163986	4	4.1	holt2018global
ERR163987	4	4.3	holt2018global
ERR163989	4	4.3	holt2018global
ERR163990	2	2.2.1	holt2018global
ERR163991	4	4.9	holt2018global
ERR163992	4	4.3	holt2018global
ERR163993	4	4.7	holt2018global
ERR163994	1	1.1	holt2018global
ERR163995	4	4.3	holt2018global
ERR163996	4	4.1	holt2018global
ERR163997	4	4.3	holt2018global
ERR163998	4	4.3	holt2018global
ERR163999	4	4.3	holt2018global
ERR164000	1	1.1	holt2018global
ERR164001	4	4.3	holt2018global
ERR164002	1	1.1	holt2018global
ERR164003	4	4.3	holt2018global
ERR164005	1	1.1	holt2018global
ERR164006	4	4.6	holt2018global
ERR164007	4	4.9	holt2018global
ERR164008	4	4.3	holt2018global
ERR164009	4	4.3	holt2018global
ERR164010	4	4.3	holt2018global
ERR164012	4	4.4	holt2018global
ERR164013	4	4.4	holt2018global
ERR164014	4	4.3	holt2018global
ERR164015	4	4.3	holt2018global
ERR164016	4	4.3	holt2018global
ERR164017	4	4.3	holt2018global
ERR164018	4	4.3	holt2018global
ERR164019	1	1.1	holt2018global
ERR164020	4	4.3	holt2018global
ERR164022	4	4.3	holt2018global
ERR164023	4	4.3	holt2018global
ERR176446	1	1.2	holt2018global
ERR176447	4	4.3	holt2018global
ERR176448	4	4.3	holt2018global
ERR176449	4	4.8	holt2018global
ERR176451	4	4.3	holt2018global
ERR176452	4	4.3	holt2018global
ERR176453	1	1.2	holt2018global
ERR176454	4	4.4	holt2018global
ERR176456	1	1.1	holt2018global
ERR176457	4	4.8	holt2018global
ERR176459	4	4.3	holt2018global
ERR176460	4	4.3	holt2018global
ERR176461	4	4.3	holt2018global
ERR176462	4	4.3	holt2018global
ERR176463	4	4.3	holt2018global
ERR176465	4	4.3	holt2018global
ERR176467	4	4.3	holt2018global
ERR176468	4	4.3	holt2018global
ERR176469	4	4.3	holt2018global
ERR176470	4	4.3	holt2018global
ERR176472	4	4.3	holt2018global
ERR176473	4	4.3	holt2018global
ERR176474	4	4.3	holt2018global
ERR176476	1	1.2	holt2018global
ERR176477	4	4.3	holt2018global
ERR176478	4	4.3	holt2018global
ERR176480	4	4.3	holt2018global
ERR176483	1	1.1	holt2018global
ERR176484	4	4.4	holt2018global
ERR176485	1	1.1	holt2018global
ERR176486	4	4.3	holt2018global
ERR176487	4	4.3	holt2018global
ERR176488	4	4.7	holt2018global
ERR176489	4	4.3	holt2018global
ERR176490	1	1.1	holt2018global
ERR176491	1	1.1	holt2018global
ERR176492	4	4.3	holt2018global
ERR176493	4	4.3	holt2018global
ERR176494	4	4.3	holt2018global
ERR176495	4	4.3	holt2018global
ERR176496	4	4.3	holt2018global
ERR176499	4	4.3	holt2018global
ERR176500	4	4.3	holt2018global
ERR176501	4	4.3	holt2018global
ERR176502	4	4.3	holt2018global
ERR176503	4	4.3	holt2018global
ERR176505	4	4.3	holt2018global
ERR176506	4	4.3	holt2018global
ERR176507	4	4.3	holt2018global
ERR176508	4	4.3	holt2018global
ERR176509	4	4.3	holt2018global
ERR176510	4	4.3	holt2018global
ERR176511	4	4.3	holt2018global
ERR176512	4	4.3	holt2018global
ERR176513	4	4.3	holt2018global
ERR176514	4	4.3	holt2018global
ERR176515	4	4.3	holt2018global
ERR176516	4	4.3	holt2018global
ERR176519	4	4.3	holt2018global
ERR176520	4	4.3	holt2018global
ERR176521	4	4.3	holt2018global
ERR176522	4	4.1	holt2018global
ERR176524	1	1.1	holt2018global
ERR176525	4	4.3	holt2018global
ERR176526	4	4.3	holt2018global
ERR176527	4	4.3	holt2018global
ERR176529	4	4.9	holt2018global
ERR176530	4	4.1	holt2018global
ERR176531	4	4.3	holt2018global
ERR176532	4	4.3	holt2018global
ERR176533	4	4.3	holt2018global
ERR176534	4	4.3	holt2018global
ERR176535	4	4.3	holt2018global
ERR176536	4	4.3	holt2018global
ERR176537	4	4.8	holt2018global
ERR176538	4	4.9	holt2018global
ERR176539	4	4.3	holt2018global
ERR176540	4	4.3	holt2018global
ERR176541	4	4.6	holt2018global
ERR176542	4	4.3	holt2018global
ERR176543	4	4.3	holt2018global
ERR176544	4	4.6	holt2018global
ERR176545	4	4.3	holt2018global
ERR176546	4	4.3	holt2018global
ERR176548	4	4.3	holt2018global
ERR176550	4	4	holt2018global
ERR176551	4	4.3	holt2018global
ERR176552	4	4.3	holt2018global
ERR176553	4	4.6	holt2018global
ERR176554	4	4.3	holt2018global
ERR176555	4	4.3	holt2018global
ERR176556	4	4.3	holt2018global
ERR176557	4	4.3	holt2018global
ERR176558	4	4.3	holt2018global
ERR176559	4	4.3	holt2018global
ERR176561	4	4.3	holt2018global
ERR176562	4	4.3	holt2018global
ERR176563	4	4.3	holt2018global
ERR176564	1	1.2	holt2018global
ERR176565	4	4.3	holt2018global
ERR176566	4	4.3	holt2018global
ERR176567	4	4.3	holt2018global
ERR176569	4	4.3	holt2018global
ERR176570	1	1.2	holt2018global
ERR176571	4	4.3	holt2018global
ERR176572	4	4.3	holt2018global
ERR176573	4	4.4	holt2018global
ERR176574	4	4.3	holt2018global
ERR176575	4	4.3	holt2018global
ERR176578	4	4.3	holt2018global
ERR176579	4	4.9	holt2018global
ERR176581	4	4.3	holt2018global
ERR176582	4	4.3	holt2018global
ERR176583	4	4.1	holt2018global
ERR176584	4	4.3	holt2018global
ERR176585	4	4.9	holt2018global
ERR176586	4	4.9	holt2018global
ERR176587	4	4.6	holt2018global
ERR176588	1	1.1	holt2018global
ERR176589	4	4.1	holt2018global
ERR176590	4	4.8	holt2018global
ERR176591	4	4.1	holt2018global
ERR176592	4	4.3	holt2018global
ERR176593	4	4.3	holt2018global
ERR176594	4	4.9	holt2018global
ERR176595	4	4.3	holt2018global
ERR176596	4	4.3	holt2018global
ERR176597	1	1.1	holt2018global
ERR176598	4	4.9	holt2018global
ERR176599	4	4.3	holt2018global
ERR176602	1	1.1	holt2018global
ERR176605	4	4.3	holt2018global
ERR176606	2	2.2.1	holt2018global
ERR176607	4	4.3	holt2018global
ERR176608	4	4.9	holt2018global
ERR176609	4	4.3	holt2018global
ERR176610	4	4.3	holt2018global
ERR176611	2	2.2.1	holt2018global
ERR176612	4	4.3	holt2018global
ERR176613	4	4.1	holt2018global
ERR176614	4	4.3	holt2018global
ERR176615	4	4.3	holt2018global
ERR176617	4	4.3	holt2018global
ERR176618	1	1.1	holt2018global
ERR176621	4	4.1	holt2018global
ERR176622	1	1.1	holt2018global
ERR176623	4	4.3	holt2018global
ERR176624	4	4.3	holt2018global
ERR176625	4	4.9	holt2018global
ERR176626	4	4.1	holt2018global
ERR176627	4	4.3	holt2018global
ERR176628	4	4.4	holt2018global
ERR176629	4	4.3	holt2018global
ERR176630	1	1.1	holt2018global
ERR176631	1	1.1	holt2018global
ERR176632	4	4.1	holt2018global
ERR176633	4	4.3	holt2018global
ERR176634	4	4.3	holt2018global
ERR176635	4	4.3	holt2018global
ERR176636	4	4.9	holt2018global
ERR176637	1	1.2	holt2018global
ERR176638	4	4.3	holt2018global
ERR176639	4	4.3	holt2018global
ERR176640	4	4.3	holt2018global
ERR176641	2	2.2.1	holt2018global
ERR176642	4	4.3	holt2018global
ERR176644	4	4.3	holt2018global
ERR176645	4	4.3	holt2018global
ERR176647	4	4.1	holt2018global
ERR176649	4	4.3	holt2018global
ERR176650	4	4.3	holt2018global
ERR176654	1	1.1	holt2018global
ERR176655	4	4.1	holt2018global
ERR176656	4	4.3	holt2018global
ERR176659	4	4.3	holt2018global
ERR176660	4	4.1	holt2018global
ERR176661	1	1.1	holt2018global
ERR176663	4	4.3	holt2018global
ERR176664	4	4.3	holt2018global
ERR176665	4	4.3	holt2018global
ERR176666	4	4.3	holt2018global
ERR176667	4	4.3	holt2018global
ERR176669	4	4.3	holt2018global
ERR176671	4	4.3	holt2018global
ERR176672	4	4.3	holt2018global
ERR176673	4	4.3	holt2018global
ERR176677	1	1.1	holt2018global
ERR176679	4	4.3	holt2018global
ERR176680	4	4.3	holt2018global
ERR176682	4	4.3	holt2018global
ERR176683	4	4.3	holt2018global
ERR176684	4	4.3	holt2018global
ERR176685	4	4.3	holt2018global
ERR176686	4	4.3	holt2018global
ERR176687	4	4.3	holt2018global
ERR176688	4	4.3	holt2018global
ERR176689	1	1.1	holt2018global
ERR176691	4	4.3	holt2018global
ERR176692	4	4.3	holt2018global
ERR176693	4	4.3	holt2018global
ERR176694	4	4.3	holt2018global
ERR176695	4	4.3	holt2018global
ERR176697	4	4.3	holt2018global
ERR176698	4	4.3	holt2018global
ERR176699	4	4.3	holt2018global
ERR176700	4	4.3	holt2018global
ERR176703	4	4.1	holt2018global
ERR176705	4	4.3	holt2018global
ERR176706	4	4.3	holt2018global
ERR176707	4	4.9	holt2018global
ERR176708	4	4.3	holt2018global
ERR176710	4	4.3	holt2018global
ERR176711	4	4.3	holt2018global
ERR176712	1	1.1	holt2018global
ERR176713	1	1.1	holt2018global
ERR176714	4	4.3	holt2018global
ERR176715	4	4.3	holt2018global
ERR176717	4	4.3	holt2018global
ERR176718	2	2.2.1	holt2018global
ERR176719	4	4.1	holt2018global
ERR176720	4	4.3	holt2018global
ERR176721	4	4.3	holt2018global
ERR176722	4	4.3	holt2018global
ERR176723	1	1.1	holt2018global
ERR176724	4	4.9	holt2018global
ERR176725	4	4.4	holt2018global
ERR176726	1	1.1	holt2018global
ERR176727	4	4.3	holt2018global
ERR176728	4	4.1	holt2018global
ERR176729	4	4.3	holt2018global
ERR176730	4	4.3	holt2018global
ERR176732	4	4.3	holt2018global
ERR176733	4	4.9	holt2018global
ERR176734	4	4.2	holt2018global
ERR176735	1	1.1	holt2018global
ERR176736	4	4.3	holt2018global
ERR176737	4	4.3	holt2018global
ERR176739	4	4.4	holt2018global
ERR176742	4	4.3	holt2018global
ERR176743	4	4.3	holt2018global
ERR176744	4	4.3	holt2018global
ERR176745	4	4.3	holt2018global
ERR176746	4	4.3	holt2018global
ERR176747	1	1.1	holt2018global
ERR176748	4	4.3	holt2018global
ERR176749	4	4.3	holt2018global
ERR176750	4	4.3	holt2018global
ERR176752	4	4.3	holt2018global
ERR176753	4	4.3	holt2018global
ERR176754	4	4.3	holt2018global
ERR176755	4	4.3	holt2018global
ERR176756	4	4.9	holt2018global
ERR176757	1	1.1	holt2018global
ERR176758	4	4.3	holt2018global
ERR176759	2	2.2.1	holt2018global
ERR176760	4	4.3	holt2018global
ERR176761	4	4.9	holt2018global
ERR176762	4	4.9	holt2018global
ERR176764	4	4.3	holt2018global
ERR176765	4	4.3	holt2018global
ERR176767	4	4.3	holt2018global
ERR176768	4	4.8	holt2018global
ERR176769	4	4.3	holt2018global
ERR176770	1	1.1	holt2018global
ERR176772	4	4.3	holt2018global
ERR176773	4	4.3	holt2018global
ERR176774	4	4.3	holt2018global
ERR176775	1	1.1	holt2018global
ERR176776	4	4.8	holt2018global
ERR176777	4	4.3	holt2018global
ERR176782	4	4.3	holt2018global
ERR176783	4	4.3	holt2018global
ERR176784	4	4.3	holt2018global
ERR176786	4	4.1	holt2018global
ERR176787	4	4.3	holt2018global
ERR176788	1	1.1	holt2018global
ERR176789	4	4.3	holt2018global
ERR176790	4	4.3	holt2018global
ERR176792	4	4.8	holt2018global
ERR176794	2	2.2.1	holt2018global
ERR176795	1	1.1	holt2018global
ERR176797	4	4.3	holt2018global
ERR176798	4	4.3	holt2018global
ERR176799	2	2.2.1	holt2018global
ERR176800	1	1.1	holt2018global
ERR176801	4	4.3	holt2018global
ERR176802	4	4.3	holt2018global
ERR176803	4	4.3	holt2018global
ERR176804	4	4.9	holt2018global
ERR176805	4	4.1	holt2018global
ERR176806	4	4.3	holt2018global
ERR176807	4	4.3	holt2018global
ERR176808	4	4.9	holt2018global
ERR176809	4	4.3	holt2018global
ERR176810	4	4.3	holt2018global
ERR176812	4	4.3	holt2018global
ERR176814	4	4.3	holt2018global
ERR176815	4	4.1	holt2018global
ERR176816	4	4.3	holt2018global
ERR176817	4	4.3	holt2018global
ERR176818	4	4.3	holt2018global
ERR176819	1	1.1	holt2018global
ERR176820	4	4.3	holt2018global
ERR176821	4	4.3	holt2018global
ERR176822	4	4.3	holt2018global
ERR176823	1	1.2	holt2018global
ERR176824	4	4.9	holt2018global
ERR176826	4	4.3	holt2018global
ERR176827	1	1.1	holt2018global
ERR176828	4	4.3	holt2018global
ERR176829	4	4.7	holt2018global
ERR181674	4	4.3	holt2018global
ERR181675	4	4.3	holt2018global
ERR181676	4	4.3	holt2018global
ERR181677	4	4.3	holt2018global
ERR181678	4	4.3	holt2018global
ERR181679	4	4.8	holt2018global
ERR181680	1	1.1	holt2018global
ERR181681	4	4.1	holt2018global
ERR181682	1	1.1	holt2018global
ERR181684	4	4.1	holt2018global
ERR181685	4	4.3	holt2018global
ERR181687	1	1.2	holt2018global
ERR181688	4	4.3	holt2018global
ERR181689	4	4.3	holt2018global
ERR181690	4	4.1	holt2018global
ERR181691	4	4.3	holt2018global
ERR181694	4	4.3	holt2018global
ERR181695	4	4.3	holt2018global
ERR181696	2	2.2.1	holt2018global
ERR181697	4	4.1	holt2018global
ERR181698	4	4.3	holt2018global
ERR181699	4	4.3	holt2018global
ERR181700	4	4.3	holt2018global
ERR181701	4	4.3	holt2018global
ERR181702	4	4.3	holt2018global
ERR181704	4	4	holt2018global
ERR181706	4	4.3	holt2018global
ERR181708	1	1.1	holt2018global
ERR181709	4	4.3	holt2018global
ERR181710	4	4.3	holt2018global
ERR181711	4	4.3	holt2018global
ERR181714	4	4.3	holt2018global
ERR181716	4	4.3	holt2018global
ERR181719	4	4.3	holt2018global
ERR181720	4	4.3	holt2018global
ERR181721	4	4.3	holt2018global
ERR181722	2	2.2.1	holt2018global
ERR181723	1	1.2	holt2018global
ERR181724	1	1.1	holt2018global
ERR181725	1	1.2	holt2018global
ERR181726	4	4.3	holt2018global
ERR181727	4	4.3	holt2018global
ERR181728	1	1.1	holt2018global
ERR181729	4	4.3	holt2018global
ERR181730	4	4.3	holt2018global
ERR181731	4	4.1	holt2018global
ERR181732	4	4.3	holt2018global
ERR181733	4	4.3	holt2018global
ERR181734	4	4.3	holt2018global
ERR181735	4	4.3	holt2018global
ERR181737	4	4.3	holt2018global
ERR181738	4	4.3	holt2018global
ERR181739	1	1.1	holt2018global
ERR181740	4	4.3	holt2018global
ERR181741	4	4.3	holt2018global
ERR181742	4	4.1	holt2018global
ERR181743	4	4.3	holt2018global
ERR181745	4	4.3	holt2018global
ERR181746	4	4.3	holt2018global
ERR181747	4	4.3	holt2018global
ERR181748	4	4.3	holt2018global
ERR181752	1	1.1	holt2018global
ERR181753	4	4.3	holt2018global
ERR181754	4	4.3	holt2018global
ERR181755	4	4.3	holt2018global
ERR181756	4	4.1	holt2018global
ERR181757	4	4.1	holt2018global
ERR181758	4	4.3	holt2018global
ERR181759	4	4.3	holt2018global
ERR181760	1	1.1	holt2018global
ERR181761	4	4.3	holt2018global
ERR181762	4	4.3	holt2018global
ERR181764	4	4.3	holt2018global
ERR181765	4	4.3	holt2018global
ERR181767	4	4.3	holt2018global
ERR181768	4	4.3	holt2018global
ERR181769	2	2.2.1	holt2018global
ERR181772	4	4.3	holt2018global
ERR181774	4	4.3	holt2018global
ERR181775	1	1.1	holt2018global
ERR181776	4	4.8	holt2018global
ERR181777	4	4.3	holt2018global
ERR181778	1	1.2	holt2018global
ERR181779	1	1.1	holt2018global
ERR181780	4	4.3	holt2018global
ERR181781	4	4.1	holt2018global
ERR181783	4	4.3	holt2018global
ERR181785	4	4.6	holt2018global
ERR181786	4	4.3	holt2018global
ERR181787	4	4.3	holt2018global
ERR181788	4	4.3	holt2018global
ERR181789	4	4.1	holt2018global
ERR181791	4	4.3	holt2018global
ERR181792	4	4.3	holt2018global
ERR181793	1	1.2	holt2018global
ERR181794	1	1.2	holt2018global
ERR181795	1	1.1	holt2018global
ERR181796	4	4.1	holt2018global
ERR181798	1	1.1	holt2018global
ERR181799	1	1.1	holt2018global
ERR181801	4	4.3	holt2018global
ERR181803	4	4.1	holt2018global
ERR181805	4	4.3	holt2018global
ERR181807	1	1.2	holt2018global
ERR181809	4	4.3	holt2018global
ERR181814	4	4.3	holt2018global
ERR181816	4	4.3	holt2018global
ERR181818	4	4.1	holt2018global
ERR181819	1	1.1	holt2018global
ERR181820	1	1.1	holt2018global
ERR181821	2	2.2.1	holt2018global
ERR181822	4	4.1	holt2018global
ERR181823	4	4.1	holt2018global
ERR181825	4	4.3	holt2018global
ERR181826	4	4.9	holt2018global
ERR181827	4	4.1	holt2018global
ERR181828	2	2.2.1	holt2018global
ERR181829	4	4.3	holt2018global
ERR181831	1	1.2	holt2018global
ERR181832	4	4.1	holt2018global
ERR181833	4	4.3	holt2018global
ERR181834	4	4.1	holt2018global
ERR181835	4	4.3	holt2018global
ERR181836	4	4.4	holt2018global
ERR181837	4	4.6	holt2018global
ERR181838	4	4.1	holt2018global
ERR181839	4	4.3	holt2018global
ERR181840	4	4.3	holt2018global
ERR181841	4	4.3	holt2018global
ERR181843	4	4.3	holt2018global
ERR181844	1	1.1	holt2018global
ERR181845	4	4.3	holt2018global
ERR181847	4	4.1	holt2018global
ERR181848	4	4.3	holt2018global
ERR181850	4	4.3	holt2018global
ERR181853	4	4.4	holt2018global
ERR181855	4	4.3	holt2018global
ERR181857	4	4.3	holt2018global
ERR181858	4	4.3	holt2018global
ERR181859	4	4.1	holt2018global
ERR181860	1	1.2	holt2018global
ERR181861	4	4.3	holt2018global
ERR181865	4	4.3	holt2018global
ERR181866	2	2.2.1	holt2018global
ERR181867	4	4.3	holt2018global
ERR181868	4	4.3	holt2018global
ERR181869	4	4.3	holt2018global
ERR181870	2	2.2.1	holt2018global
ERR181871	4	4.3	holt2018global
ERR181872	4	4.3	holt2018global
ERR181873	4	4.3	holt2018global
ERR181874	4	4.3	holt2018global
ERR181875	4	4.3	holt2018global
ERR181876	4	4.3	holt2018global
ERR181877	4	4.3	holt2018global
ERR181878	4	4.3	holt2018global
ERR181879	4	4.3	holt2018global
ERR181880	4	4.3	holt2018global
ERR181882	4	4.1	holt2018global
ERR181884	4	4.3	holt2018global
ERR181885	4	4.3	holt2018global
ERR181886	4	4.3	holt2018global
ERR181888	4	4.3	holt2018global
ERR181889	4	4.3	holt2018global
ERR181890	4	4.9	holt2018global
ERR181891	2	2.2.1	holt2018global
ERR181894	4	4.3	holt2018global
ERR181895	4	4.3	holt2018global
ERR181896	4	4.3	holt2018global
ERR181897	4	4.3	holt2018global
ERR181898	2	2.2.1	holt2018global
ERR181899	4	4.1	holt2018global
ERR181900	4	4.3	holt2018global
ERR181901	4	4.9	holt2018global
ERR181902	4	4.3	holt2018global
ERR181903	4	4.8	holt2018global
ERR181904	4	4.3	holt2018global
ERR181905	2	2.2.1	holt2018global
ERR181907	1	1.1	holt2018global
ERR181908	4	4.3	holt2018global
ERR181909	4	4.3	holt2018global
ERR181910	1	1.1	holt2018global
ERR181911	4	4.3	holt2018global
ERR181912	1	1.1	holt2018global
ERR181913	4	4.3	holt2018global
ERR181914	4	4.3	holt2018global
ERR181915	4	4.3	holt2018global
ERR181916	2	2.2.1	holt2018global
ERR181917	4	4.3	holt2018global
ERR181918	2	2.2.1	holt2018global
ERR181920	1	1.1	holt2018global
ERR181921	4	4.1	holt2018global
ERR181922	4	4.3	holt2018global
ERR181923	4	4.1	holt2018global
ERR181924	4	4.3	holt2018global
ERR181925	4	4.3	holt2018global
ERR181926	4	4.3	holt2018global
ERR181927	4	4.3	holt2018global
ERR181928	4	4.3	holt2018global
ERR181929	1	1.1	holt2018global
ERR181930	1	1.2	holt2018global
ERR181931	4	4.3	holt2018global
ERR181932	4	4.4	holt2018global
ERR181933	1	1.2	holt2018global
ERR181934	4	4.3	holt2018global
ERR181935	4	4.3	holt2018global
ERR181936	1	1.1	holt2018global
ERR181937	4	4.3	holt2018global
ERR181938	4	4.3	holt2018global
ERR181939	4	4.3	holt2018global
ERR181941	2	2.2.1	holt2018global
ERR181942	4	4.8	holt2018global
ERR181943	4	4.3	holt2018global
ERR181944	4	4.3	holt2018global
ERR181946	4	4.4	holt2018global
ERR181947	4	4.3	holt2018global
ERR181948	4	4.3	holt2018global
ERR181949	1	1.1	holt2018global
ERR181950	4	4.3	holt2018global
ERR181951	1	1.1	holt2018global
ERR181954	4	4.3	holt2018global
ERR181955	4	4	holt2018global
ERR181956	4	4.3	holt2018global
ERR181957	4	4.3	holt2018global
ERR181958	4	4.1	holt2018global
ERR181959	4	4.3	holt2018global
ERR181960	2	2.2.1	holt2018global
ERR181961	1	1.1	holt2018global
ERR181962	4	4.3	holt2018global
ERR181963	1	1.1	holt2018global
ERR181964	4	4.8	holt2018global
ERR181965	2	2.2.1	holt2018global
ERR181966	4	4.3	holt2018global
ERR181967	4	4.9	holt2018global
ERR181968	4	4.9	holt2018global
ERR181969	1	1.1	holt2018global
ERR181971	1	1.1	holt2018global
ERR181972	4	4.9	holt2018global
ERR181973	4	4.3	holt2018global
ERR181975	4	4.2	holt2018global
ERR181976	4	4.3	holt2018global
ERR181978	4	4.3	holt2018global
ERR181979	4	4.3	holt2018global
ERR181981	4	4.6	holt2018global
ERR181982	1	1.1	holt2018global
ERR181983	1	1.1	holt2018global
ERR181984	4	4.3	holt2018global
ERR181985	4	4.3	holt2018global
ERR181986	4	4.3	holt2018global
ERR181987	4	4.1	holt2018global
ERR181988	4	4.1	holt2018global
ERR181989	4	4.3	holt2018global
ERR181990	4	4.3	holt2018global
ERR181991	4	4.3	holt2018global
ERR181992	4	4.3	holt2018global
ERR181993	4	4.3	holt2018global
ERR181995	4	4.3	holt2018global
ERR181996	4	4.3	holt2018global
ERR181997	4	4.3	holt2018global
ERR181998	4	4.3	holt2018global
ERR181999	4	4.3	holt2018global
ERR182000	4	4.3	holt2018global
ERR182001	4	4.3	holt2018global
ERR182002	4	4.3	holt2018global
ERR182003	4	4.3	holt2018global
ERR182004	4	4.3	holt2018global
ERR182005	4	4.3	holt2018global
ERR182006	4	4.3	holt2018global
ERR182007	4	4.3	holt2018global
ERR182008	1	1.2	holt2018global
ERR182009	1	1.1	holt2018global
ERR182010	1	1.2	holt2018global
ERR182011	4	4.4	holt2018global
ERR182012	4	4.3	holt2018global
ERR182014	4	4.1	holt2018global
ERR182016	4	4.3	holt2018global
ERR182017	1	1.1	holt2018global
ERR182018	4	4.6	holt2018global
ERR182019	4	4.3	holt2018global
ERR182020	4	4.3	holt2018global
ERR182021	4	4.3	holt2018global
ERR182022	4	4.3	holt2018global
ERR182023	4	4.3	holt2018global
ERR182024	1	1.1	holt2018global
ERR182025	4	4.6	holt2018global
ERR182027	4	4.1	holt2018global
ERR182028	4	4.3	holt2018global
ERR182029	4	4.3	holt2018global
ERR182030	4	4.3	holt2018global
ERR182031	4	4.1	holt2018global
ERR182033	4	4.3	holt2018global
ERR182034	4	4.3	holt2018global
ERR182035	4	4.3	holt2018global
ERR182036	4	4.3	holt2018global
ERR182037	4	4.3	holt2018global
ERR182038	4	4.3	holt2018global
ERR182039	4	4.3	holt2018global
ERR182040	4	4.6	holt2018global
ERR182041	4	4.6	holt2018global
ERR182042	1	1.1	holt2018global
ERR182043	4	4.1	holt2018global
ERR182045	4	4.3	holt2018global
ERR182046	4	4.3	holt2018global
ERR182047	4	4.3	holt2018global
ERR182048	4	4.7	holt2018global
ERR182049	4	4.3	holt2018global
ERR182050	4	4.9	holt2018global
ERR182051	4	4.9	holt2018global
ERR182052	4	4.3	holt2018global
ERR182053	4	4.3	holt2018global
ERR182054	1	1.1	holt2018global
ERR182055	4	4.1	holt2018global
ERR182056	4	4.3	holt2018global
ERR182057	4	4.6	holt2018global
ERR190328	4	4.3	holt2018global
ERR190329	4	4.9	holt2018global
ERR190330	4	4.3	holt2018global
ERR190331	4	4.3	holt2018global
ERR190332	4	4.3	holt2018global
ERR190334	4	4.3	holt2018global
ERR190335	4	4.3	holt2018global
ERR190336	1	1.2	holt2018global
ERR190337	1	1.2	holt2018global
ERR190338	4	4.3	holt2018global
ERR190342	4	4.3	holt2018global
ERR190344	1	1.1	holt2018global
ERR190345	1	1.1	holt2018global
ERR190346	4	4.3	holt2018global
ERR190348	4	4.3	holt2018global
ERR190349	1	1.1	holt2018global
ERR190350	4	4.3	holt2018global
ERR190351	4	4.3	holt2018global
ERR190352	4	4.3	holt2018global
ERR190353	1	1.1	holt2018global
ERR190354	4	4.3	holt2018global
ERR190355	4	4.6	holt2018global
ERR190356	4	4.3	holt2018global
ERR190358	4	4.1	holt2018global
ERR190359	4	4.3	holt2018global
ERR190360	4	4.3	holt2018global
ERR190361	1	1.2	holt2018global
ERR190362	4	4.3	holt2018global
ERR190363	2	2.2.1	holt2018global
ERR190364	4	4.3	holt2018global
ERR190365	1	1.1	holt2018global
ERR190366	4	4.1	holt2018global
ERR190368	2	2.2.1	holt2018global
ERR190369	2	2.2.1	holt2018global
ERR190370	4	4.3	holt2018global
ERR190371	4	4.3	holt2018global
ERR190373	4	4.3	holt2018global
ERR190374	4	4.3	holt2018global
ERR190375	4	4.8	holt2018global
ERR190376	4	4.8	holt2018global
ERR190377	1	1.1	holt2018global
ERR190378	2	2.2.1	holt2018global
ERR190380	4	4.9	holt2018global
ERR190381	4	4.9	holt2018global
ERR190382	1	1.1	holt2018global
ERR190383	4	4.3	holt2018global
ERR190384	4	4.3	holt2018global
ERR190385	4	4.1	holt2018global
ERR190386	2	2.2.1	holt2018global
ERR190387	4	4.3	holt2018global
ERR190389	1	1.2	holt2018global
ERR190390	4	4.3	holt2018global
ERR190392	4	4.9	holt2018global
ERR190393	4	4.3	holt2018global
ERR190395	4	4.1	holt2018global
ERR190396	4	4.9	holt2018global
ERR190397	4	4.1	holt2018global
ERR190398	4	4.3	holt2018global
ERR190399	4	4.3	holt2018global
ERR190400	4	4.3	holt2018global
ERR190401	2	2.2.1	holt2018global
ERR190403	1	1.1	holt2018global
ERR190405	4	4.3	holt2018global
ERR190406	4	4.3	holt2018global
ERR190409	4	4.3	holt2018global
ERR190410	4	4.4	holt2018global
ERR211990	4	4.4	holt2018global
ERR211991	1	1.1	holt2018global
ERR211992	4	4.4	holt2018global
ERR211993	4	4.3	holt2018global
ERR211994	4	4.7	holt2018global
ERR211995	4	4.8	holt2018global
ERR211996	4	4.3	holt2018global
ERR211998	4	4.3	holt2018global
ERR211999	4	4.3	holt2018global
ERR212000	4	4.2	holt2018global
ERR212003	4	4.3	holt2018global
ERR212006	4	4.3	holt2018global
ERR212008	4	4.3	holt2018global
ERR212009	4	4.3	holt2018global
ERR212010	4	4.3	holt2018global
ERR212011	4	4.1	holt2018global
ERR212012	4	4.3	holt2018global
ERR212013	2	2.2.1	holt2018global
ERR212014	2	2.2.1	holt2018global
ERR212016	4	4.3	holt2018global
ERR212018	4	4.3	holt2018global
ERR212019	4	4.3	holt2018global
ERR212020	4	4.8	holt2018global
ERR212021	4	4.3	holt2018global
ERR212022	1	1.1	holt2018global
ERR212023	4	4.3	holt2018global
ERR212025	4	4.9	holt2018global
ERR212028	4	4.3	holt2018global
ERR212030	4	4.8	holt2018global
ERR212032	4	4.3	holt2018global
ERR212036	4	4.8	holt2018global
ERR212037	2	2.2.1	holt2018global
ERR212038	1	1.1	holt2018global
ERR212039	4	4.3	holt2018global
ERR212040	4	4.3	holt2018global
ERR212041	4	4.3	holt2018global
ERR212043	4	4.3	holt2018global
ERR212044	4	4.3	holt2018global
ERR212045	4	4.3	holt2018global
ERR212046	4	4.8	holt2018global
ERR212047	4	4.8	holt2018global
ERR212048	1	1.1	holt2018global
ERR212049	4	4.3	holt2018global
ERR212050	4	4.1	holt2018global
ERR212051	4	4.1	holt2018global
ERR212053	4	4.3	holt2018global
ERR212054	1	1.2	holt2018global
ERR212055	4	4.3	holt2018global
ERR212056	4	4.3	holt2018global
ERR212057	4	4.3	holt2018global
ERR212060	4	4.3	holt2018global
ERR212061	4	4.3	holt2018global
ERR212062	4	4.3	holt2018global
ERR212063	4	4.3	holt2018global
ERR212064	4	4.3	holt2018global
ERR212065	4	4.3	holt2018global
ERR212066	1	1.1	holt2018global
ERR212067	1	1.1	holt2018global
ERR212068	4	4.3	holt2018global
ERR212069	1	1.2	holt2018global
ERR212070	4	4.3	holt2018global
ERR212071	4	4.3	holt2018global
ERR212072	4	4.3	holt2018global
ERR212073	1	1.1	holt2018global
ERR212074	4	4.1	holt2018global
ERR212075	4	4.3	holt2018global
ERR212076	4	4.9	holt2018global
ERR212077	4	4.3	holt2018global
ERR212078	4	4.3	holt2018global
ERR212079	1	1.1	holt2018global
ERR212080	4	4.3	holt2018global
ERR212081	2	2.2.1	holt2018global
ERR212083	4	4.3	holt2018global
ERR212084	1	1.2	holt2018global
ERR212085	4	4.3	holt2018global
ERR212086	4	4.3	holt2018global
ERR212087	4	4.3	holt2018global
ERR212088	1	1.1	holt2018global
ERR212089	1	1.2	holt2018global
ERR212090	1	1.2	holt2018global
ERR212092	4	4.1	holt2018global
ERR212093	1	1.2	holt2018global
ERR212094	1	1.1	holt2018global
ERR212095	4	4.1	holt2018global
ERR212096	1	1.2	holt2018global
ERR212097	1	1.2	holt2018global
ERR212099	4	4.1	holt2018global
ERR212101	4	4.1	holt2018global
ERR212102	1	1.2	holt2018global
ERR212103	1	1.2	holt2018global
ERR212104	2	2.2.1	holt2018global
ERR212105	1	1.1	holt2018global
ERR212106	1	1.1	holt2018global
ERR212107	1	1.2	holt2018global
ERR212108	1	1.2	holt2018global
ERR212110	1	1.2	holt2018global
ERR212111	1	1.2	holt2018global
ERR212113	1	1.1	holt2018global
ERR212114	4	4.3	holt2018global
ERR212115	4	4.3	holt2018global
ERR212116	1	1.1	holt2018global
ERR212117	4	4.4	holt2018global
ERR212118	4	4.3	holt2018global
ERR212119	4	4.3	holt2018global
ERR212120	2	2.2.1	holt2018global
ERR212122	4	4.3	holt2018global
ERR212124	4	4.1	holt2018global
ERR212126	2	2.2.1	holt2018global
ERR212127	4	4.3	holt2018global
ERR212128	4	4.1	holt2018global
ERR212129	4	4.3	holt2018global
ERR212130	4	4.3	holt2018global
ERR212131	1	1.2	holt2018global
ERR212132	4	4.4	holt2018global
ERR212133	4	4.3	holt2018global
ERR212134	1	1.1	holt2018global
ERR212135	4	4.3	holt2018global
ERR212136	1	1.1	holt2018global
ERR212137	1	1.1	holt2018global
ERR212140	4	4.3	holt2018global
ERR212141	4	4.3	holt2018global
ERR212143	4	4.8	holt2018global
ERR212144	4	4.3	holt2018global
ERR212145	2	2.2.1	holt2018global
ERR212148	4	4.3	holt2018global
ERR212149	4	4.3	holt2018global
ERR212150	1	1.1	holt2018global
ERR212151	4	4.3	holt2018global
ERR212152	4	4.4	holt2018global
ERR212153	4	4.3	holt2018global
ERR212154	4	4.1	holt2018global
ERR212155	1	1.1	holt2018global
ERR212156	4	4.1	holt2018global
ERR212157	1	1.2	holt2018global
ERR212158	4	4.9	holt2018global
ERR212159	4	4.4	holt2018global
ERR212160	1	1.1	holt2018global
ERR212161	1	1.1	holt2018global
ERR212162	4	4.3	holt2018global
ERR212163	1	1.1	holt2018global
ERR212164	1	1.1	holt2018global
ERR212165	4	4.3	holt2018global
ERR212166	1	1.1	holt2018global
ERR212167	4	4.3	holt2018global
ERR212168	4	4.3	holt2018global
ERR212169	4	4.1	holt2018global
ERR212171	4	4.3	holt2018global
ERR212172	4	4.3	holt2018global
ERR212173	4	4.3	holt2018global
ERR212174	4	4.3	holt2018global
ERR212175	4	4.3	holt2018global
ERR212176	4	4.3	holt2018global
ERR212177	4	4.3	holt2018global
ERR212178	1	1.2	holt2018global
ERR212179	1	1.1	holt2018global
ERR212180	1	1.2	holt2018global
ERR212181	4	4.3	holt2018global
ERR216900	4	4.3	holt2018global
ERR216902	1	1.1	holt2018global
ERR216903	1	1.1	holt2018global
ERR216905	4	4.3	holt2018global
ERR216907	4	4.3	holt2018global
ERR216908	4	4.3	holt2018global
ERR216909	4	4.3	holt2018global
ERR216911	4	4.3	holt2018global
ERR216912	4	4.1	holt2018global
ERR216913	4	4.3	holt2018global
ERR216915	4	4.3	holt2018global
ERR216916	4	4.3	holt2018global
ERR216917	1	1.1	holt2018global
ERR216918	4	4.3	holt2018global
ERR216919	4	4.6	holt2018global
ERR216920	4	4.3	holt2018global
ERR216921	4	4.3	holt2018global
ERR216922	4	4.3	holt2018global
ERR216923	4	4.8	holt2018global
ERR216924	4	4.3	holt2018global
ERR216925	4	4.3	holt2018global
ERR216926	4	4.3	holt2018global
ERR216927	1	1.1	holt2018global
ERR216928	4	4.9	holt2018global
ERR216929	4	4.3	holt2018global
ERR216931	4	4.3	holt2018global
ERR216932	4	4.1	holt2018global
ERR216933	4	4.3	holt2018global
ERR216935	4	4.9	holt2018global
ERR216936	4	4.9	holt2018global
ERR216940	1	1.1	holt2018global
ERR216941	4	4.3	holt2018global
ERR216942	4	4.3	holt2018global
ERR216943	4	4.3	holt2018global
ERR216944	4	4.3	holt2018global
ERR216945	4	4.8	holt2018global
ERR216946	4	4.3	holt2018global
ERR216948	4	4.3	holt2018global
ERR216952	1	1.1	holt2018global
ERR216954	4	4.1	holt2018global
ERR216958	2	2.2.1	holt2018global
ERR216961	2	2.2.1	holt2018global
ERR216962	2	2.2.1	holt2018global
ERR216968	4	4.1	holt2018global
ERR216979	4	4.3	holt2018global
ERR216980	4	4.3	holt2018global
ERR216982	4	4.1	holt2018global
ERR216984	4	4.3	holt2018global
ERR216988	1	1.2	holt2018global
ERR221524	2	2.2.1	holt2018global
ERR221525	4	4.3	holt2018global
ERR221526	4	4.3	holt2018global
ERR221527	4	4.9	holt2018global
ERR221528	4	4.1	holt2018global
ERR221529	4	4.3	holt2018global
ERR221530	4	4.3	holt2018global
ERR221531	4	4.3	holt2018global
ERR221532	4	4.3	holt2018global
ERR221533	4	4.1	holt2018global
ERR221534	4	4.1	holt2018global
ERR221535	4	4.8	holt2018global
ERR221537	4	4.2	holt2018global
ERR221538	2	2.2.1	holt2018global
ERR221540	4	4.3	holt2018global
ERR221541	4	4.2	holt2018global
ERR221542	2	2.2.1	holt2018global
ERR221543	4	4.9	holt2018global
ERR221544	2	2.2.1	holt2018global
ERR221545	2	2.2.1	holt2018global
ERR221546	4	4.3	holt2018global
ERR221547	4	4.9	holt2018global
ERR221548	4	4.3	holt2018global
ERR221549	4	4.3	holt2018global
ERR221550	4	4.3	holt2018global
ERR221551	4	4.4	holt2018global
ERR221552	4	4.3	holt2018global
ERR221553	2	2.2.1	holt2018global
ERR221554	4	4.4	holt2018global
ERR221555	4	4.3	holt2018global
ERR221556	4	4.3	holt2018global
ERR221557	1	1.2	holt2018global
ERR221558	2	2.2.1	holt2018global
ERR221559	4	4.1	holt2018global
ERR221560	4	4.3	holt2018global
ERR221561	4	4.3	holt2018global
ERR221562	1	1.1	holt2018global
ERR221563	1	1.1	holt2018global
ERR221564	4	4.3	holt2018global
ERR221565	4	4.3	holt2018global
ERR221566	4	4.3	holt2018global
ERR221567	1	1.1	holt2018global
ERR221568	4	4.3	holt2018global
ERR221569	1	1.2	holt2018global
ERR221570	1	1.2	holt2018global
ERR221571	4	4.3	holt2018global
ERR221572	2	2.2.1	holt2018global
ERR221573	2	2.2.1	holt2018global
ERR221574	2	2.2.1	holt2018global
ERR221575	1	1.1	holt2018global
ERR221577	4	4.3	holt2018global
ERR221578	1	1.2	holt2018global
ERR221579	4	4.6	holt2018global
ERR221580	1	1.1	holt2018global
ERR221581	4	4.3	holt2018global
ERR221582	1	1.1	holt2018global
ERR221583	4	4.1	holt2018global
ERR221584	2	2.2.1	holt2018global
ERR221585	4	4.3	holt2018global
ERR221586	4	4.3	holt2018global
ERR221588	4	4.3	holt2018global
ERR221589	4	4.3	holt2018global
ERR221590	4	4.3	holt2018global
ERR221592	4	4.1	holt2018global
ERR221593	1	1.1	holt2018global
ERR221594	4	4.3	holt2018global
ERR221595	4	4.9	holt2018global
ERR221596	1	1.2	holt2018global
ERR221597	4	4.3	holt2018global
ERR221598	4	4.3	holt2018global
ERR221599	4	4.6	holt2018global
ERR221600	4	4.4	holt2018global
ERR221601	4	4.3	holt2018global
ERR221602	4	4.3	holt2018global
ERR221603	2	2.2.1	holt2018global
ERR221605	2	2.2.1	holt2018global
ERR221606	1	1.2	holt2018global
ERR221607	1	1.1	holt2018global
ERR221609	4	4.3	holt2018global
ERR221610	4	4.3	holt2018global
ERR221612	4	4.3	holt2018global
ERR221613	4	4.3	holt2018global
ERR221614	4	4.3	holt2018global
ERR221615	4	4.3	holt2018global
ERR221616	4	4.3	holt2018global
ERR221617	4	4.3	holt2018global
ERR221618	4	4.3	holt2018global
ERR221619	4	4.1	holt2018global
ERR221620	1	1.1	holt2018global
ERR221621	1	1.1	holt2018global
ERR221622	1	1.1	holt2018global
ERR221624	1	1.2	holt2018global
ERR221625	1	1.2	holt2018global
ERR221626	1	1.2	holt2018global
ERR221628	2	2.2.1	holt2018global
ERR221629	2	2.2.1	holt2018global
ERR221630	2	2.2.1	holt2018global
ERR221631	2	2.2.1	holt2018global
ERR221632	2	2.2.1	holt2018global
ERR221633	2	2.2.1	holt2018global
ERR221634	2	2.2.1	holt2018global
ERR221636	4	4.3	holt2018global
ERR221638	4	4.3	holt2018global
ERR221639	4	4.3	holt2018global
ERR221644	4	4.9	holt2018global
ERR221645	4	4.9	holt2018global
ERR221646	4	4.9	holt2018global
ERR221648	4	4.3	holt2018global
ERR221649	4	4.3	holt2018global
ERR221650	4	4.3	holt2018global
ERR221652	2	2.2	holt2018global
ERR221653	4	4.3	holt2018global
ERR221654	4	4.3	holt2018global
ERR221655	2	2.2.1	holt2018global
ERR221657	4	4.3	holt2018global
ERR221658	2	2.2.1	holt2018global
ERR221660	1	1.1	holt2018global
ERR221666	1	1.1	holt2018global
ERR221667	1	1.1	holt2018global
ERR323042	4	4.1	holt2018global
ERR323046	1	1.1	holt2018global
ERR323049	4	4.3	holt2018global
ERR323051	1	1.1	holt2018global
ERR323059	4	4.1	holt2018global
ERR323067	4	4.3	holt2018global
ERR323069	4	4.3	holt2018global
ERR323070	4	4.3	holt2018global
ERR323071	4	4.3	holt2018global
ERR323072	4	4.3	holt2018global
ERR323073	4	4.3	holt2018global
ERR323075	4	4.6	holt2018global
ERR323076	4	4.9	holt2018global
ERR323077	4	4.1	holt2018global
ERR323078	4	4.3	holt2018global
ERR323079	1	1.1	holt2018global
ERR323080	4	4.3	holt2018global
ERR323081	4	4.3	holt2018global
ERR323083	4	4.3	holt2018global
ERR323084	4	4.3	holt2018global
ERR323086	4	4.3	holt2018global
ERR323087	4	4.3	holt2018global
ERR323088	4	4.1	holt2018global
ERR323089	4	4.3	holt2018global
ERR323090	4	4.3	holt2018global
ERR323091	4	4.3	holt2018global
ERR323092	1	1.1	holt2018global
ERR323093	1	1.1	holt2018global
ERR323094	4	4.3	holt2018global
ERR323095	4	4.3	holt2018global
ERR323096	4	4.3	holt2018global
ERR323098	4	4.3	holt2018global
ERR323100	4	4.1	holt2018global
ERR323101	4	4.3	holt2018global
ERR323102	4	4.3	holt2018global
ERR323103	4	4.9	holt2018global
ERR323104	4	4.3	holt2018global
ERR323105	4	4.3	holt2018global
ERR323106	1	1.1	holt2018global
ERR323109	4	4.3	holt2018global
ERR323110	4	4.1	holt2018global
ERR323111	1	1.2	holt2018global
ERR323112	4	4.3	holt2018global
ERR323113	4	4.3	holt2018global
ERR323114	4	4.3	holt2018global
ERR323116	4	4.3	holt2018global
ERR323117	4	4.3	holt2018global
ERR323118	4	4.3	holt2018global
ERR323119	2	2.2.1	holt2018global
ERR036186	2	2.2.1	holt2018global
ERR036187	4	4.3	holt2018global
ERR036188	4	4.3	holt2018global
ERR036189	4	4.3	holt2018global
ERR036190	4	4.3	holt2018global
ERR036191	4	4.9	holt2018global
ERR036192	4	4.3	holt2018global
ERR036196	4	4.3	holt2018global
ERR036197	4	4.3	holt2018global
ERR036199	4	4.3	holt2018global
ERR036200	4	4.1	holt2018global
ERR036201	1	1.1	holt2018global
ERR036202	4	4.3	holt2018global
ERR036203	4	4.3	holt2018global
ERR036204	4	4.8	holt2018global
ERR036205	4	4.4	holt2018global
ERR036206	4	4.3	holt2018global
ERR036208	4	4.3	holt2018global
ERR036212	4	4.3	holt2018global
ERR036213	1	1.1	holt2018global
ERR036214	4	4.3	holt2018global
ERR036217	1	1.1	holt2018global
ERR036219	4	4.9	holt2018global
ERR036220	4	4.3	holt2018global
ERR036221	4	4.1	holt2018global
ERR036222	1	1.1	holt2018global
ERR036223	1	1.2	holt2018global
ERR036225	4	4.3	holt2018global
ERR036226	4	4.3	holt2018global
ERR036227	4	4.7	holt2018global
ERR036228	4	4.3	holt2018global
ERR036229	4	4.4	holt2018global
ERR036230	1	1.1	holt2018global
ERR036231	4	4.3	holt2018global
ERR036232	4	4.3	holt2018global
ERR036234	4	4.3	holt2018global
ERR036235	2	2.2.1	holt2018global
ERR036236	1	1.1	holt2018global
ERR036238	4	4.3	holt2018global
ERR036239	4	4.3	holt2018global
ERR036240	4	4.3	holt2018global
ERR036241	4	4.3	holt2018global
ERR036242	4	4.3	holt2018global
ERR036244	4	4.3	holt2018global
ERR036245	4	4.3	holt2018global
ERR036246	4	4.3	holt2018global
ERR036247	4	4.3	holt2018global
ERR036248	4	4.8	holt2018global
ERR036249	4	4.1	holt2018global
ERR037467	4	4.3	holt2018global
ERR037468	4	4.9	holt2018global
ERR037470	4	4.3	holt2018global
ERR037471	4	4.3	holt2018global
ERR037472	4	4.3	holt2018global
ERR037473	1	1.1	holt2018global
ERR037474	4	4.3	holt2018global
ERR037475	4	4.3	holt2018global
ERR037476	1	1.1	holt2018global
ERR037477	4	4.6	holt2018global
ERR037478	4	4.3	holt2018global
ERR037479	4	4.3	holt2018global
ERR037480	4	4.3	holt2018global
ERR037481	4	4.1	holt2018global
ERR037483	4	4.3	holt2018global
ERR037484	4	4.8	holt2018global
ERR037485	4	4.3	holt2018global
ERR037486	4	4.3	holt2018global
ERR037487	4	4.3	holt2018global
ERR037489	1	1.2	holt2018global
ERR037490	4	4.3	holt2018global
ERR037491	1	1.1	holt2018global
ERR037493	4	4.3	holt2018global
ERR037494	4	4.3	holt2018global
ERR037495	4	4.9	holt2018global
ERR037496	1	1.2	holt2018global
ERR037497	4	4.3	holt2018global
ERR037498	4	4.3	holt2018global
ERR037499	4	4.3	holt2018global
ERR037500	4	4.3	holt2018global
ERR037501	4	4.3	holt2018global
ERR037503	4	4.3	holt2018global
ERR037504	4	4.9	holt2018global
ERR037505	4	4.3	holt2018global
ERR037506	4	4.3	holt2018global
ERR037507	4	4.9	holt2018global
ERR037508	4	4.3	holt2018global
ERR037509	4	4.9	holt2018global
ERR037510	1	1.1	holt2018global
ERR037511	1	1.1	holt2018global
ERR037512	4	4.3	holt2018global
ERR037513	4	4.3	holt2018global
ERR037514	4	4.3	holt2018global
ERR037515	4	4.3	holt2018global
ERR037516	4	4.3	holt2018global
ERR037517	4	4.9	holt2018global
ERR037518	4	4.3	holt2018global
ERR037519	1	1.1	holt2018global
ERR037520	1	1.1	holt2018global
ERR037521	1	1.1	holt2018global
ERR037522	4	4.3	holt2018global
ERR037523	1	1.1	holt2018global
ERR037524	4	4.3	holt2018global
ERR037525	4	4.3	holt2018global
ERR037526	4	4.9	holt2018global
ERR037527	4	4.3	holt2018global
ERR037528	4	4.3	holt2018global
ERR037529	4	4.3	holt2018global
ERR037530	4	4.3	holt2018global
ERR037531	4	4.3	holt2018global
ERR037532	4	4.3	holt2018global
ERR037533	4	4.7	holt2018global
ERR037534	4	4.3	holt2018global
ERR037535	4	4.3	holt2018global
ERR037536	1	1.1	holt2018global
ERR037537	4	4.3	holt2018global
ERR037538	4	4.3	holt2018global
ERR037539	4	4.3	holt2018global
ERR037540	4	4.8	holt2018global
ERR037541	4	4.4	holt2018global
ERR037542	4	4.3	holt2018global
ERR037543	4	4.8	holt2018global
ERR037544	4	4.1	holt2018global
ERR037545	4	4.3	holt2018global
ERR037547	4	4.3	holt2018global
ERR037548	4	4.3	holt2018global
ERR037549	4	4.3	holt2018global
ERR037550	4	4.8	holt2018global
ERR037551	2	2.2.1	holt2018global
ERR037552	4	4.3	holt2018global
ERR037553	4	4.3	holt2018global
ERR037554	4	4.3	holt2018global
ERR037555	1	1.1	holt2018global
ERR245647	1	1.1	holt2018global
ERR245648	1	1.1	holt2018global
ERR245649	4	4.8	holt2018global
ERR245650	4	4.9	holt2018global
ERR245651	1	1.2	holt2018global
ERR245652	1	1.1	holt2018global
ERR245653	4	4.9	holt2018global
ERR245654	1	1.1	holt2018global
ERR245655	2	2.2.1	holt2018global
ERR245656	1	1.1	holt2018global
ERR245657	1	1.1	holt2018global
ERR245658	4	4.9	holt2018global
ERR245659	4	4.9	holt2018global
ERR245660	2	2.2.1	holt2018global
ERR245661	4	4.3	holt2018global
ERR245662	1	1.2	holt2018global
ERR245663	2	2.2.1	holt2018global
ERR245664	4	4.3	holt2018global
ERR245665	4	4.3	holt2018global
ERR245666	4	4.3	holt2018global
ERR245667	4	4.3	holt2018global
ERR245670	1	1.2	holt2018global
ERR245672	1	1.2	holt2018global
ERR245673	4	4.3	holt2018global
ERR245674	1	1.1	holt2018global
ERR245675	1	1.1	holt2018global
ERR245677	1	1.1	holt2018global
ERR245679	1	1.1	holt2018global
ERR245680	2	2.2.1	holt2018global
ERR245681	4	4.3	holt2018global
ERR245683	4	4.3	holt2018global
ERR245685	4	4.9	holt2018global
ERR245686	4	4.3	holt2018global
ERR245690	4	4.3	holt2018global
ERR245691	1	1.1	holt2018global
ERR245692	2	2.2.1	holt2018global
ERR245693	4	4.3	holt2018global
ERR245695	1	1.1	holt2018global
ERR245696	2	2.2.1	holt2018global
ERR245697	4	4.3	holt2018global
ERR245698	1	1.1	holt2018global
ERR245699	1	1.1	holt2018global
ERR245700	4	4.3	holt2018global
ERR245701	4	4.8	holt2018global
ERR245703	1	1.1	holt2018global
ERR245705	1	1.1	holt2018global
ERR245706	4	4.3	holt2018global
ERR245707	4	4.3	holt2018global
ERR245708	4	4.3	holt2018global
ERR245709	4	4.3	holt2018global
ERR245710	2	2.2.1	holt2018global
ERR245711	4	4.1	holt2018global
ERR245712	4	4.9	holt2018global
ERR245714	4	4.9	holt2018global
ERR245716	2	2.2.1	holt2018global
ERR245717	1	1.1	holt2018global
ERR245718	4	4.3	holt2018global
ERR245719	4	4.9	holt2018global
ERR245720	1	1.1	holt2018global
ERR245721	1	1.1	holt2018global
ERR245723	2	2.2.1	holt2018global
ERR245724	4	4.3	holt2018global
ERR245725	4	4.3	holt2018global
ERR245727	1	1.2	holt2018global
ERR245728	2	2.2.1	holt2018global
ERR245729	4	4.3	holt2018global
ERR245730	4	4.3	holt2018global
ERR245731	4	4.9	holt2018global
ERR245733	4	4.3	holt2018global
ERR245734	1	1.1	holt2018global
ERR245735	2	2.2.1	holt2018global
ERR245736	4	4.9	holt2018global
ERR245737	4	4.3	holt2018global
ERR245738	4	4.3	holt2018global
ERR245739	1	1.2	holt2018global
ERR245740	4	4.1	holt2018global
ERR245741	4	4.3	holt2018global
ERR245742	1	1.1	holt2018global
ERR245743	4	4.7	holt2018global
ERR245744	4	4.3	holt2018global
ERR245745	4	4.3	holt2018global
ERR245746	4	4.3	holt2018global
ERR245748	1	1.1	holt2018global
ERR245749	4	4.3	holt2018global
ERR245750	4	4.3	holt2018global
ERR245751	1	1.2	holt2018global
ERR245752	4	4.3	holt2018global
ERR245755	4	4.3	holt2018global
ERR245756	4	4.3	holt2018global
ERR245758	4	4.9	holt2018global
ERR245759	4	4.1	holt2018global
ERR245760	1	1.1	holt2018global
ERR245761	1	1.1	holt2018global
ERR245762	4	4.3	holt2018global
ERR245763	1	1.1	holt2018global
ERR245765	4	4.3	holt2018global
ERR245767	4	4.3	holt2018global
ERR245769	4	4.3	holt2018global
ERR245770	4	4.3	holt2018global
ERR245771	4	4.8	holt2018global
ERR245772	4	4.9	holt2018global
ERR245773	4	4.3	holt2018global
ERR245774	4	4.1	holt2018global
ERR245775	1	1.1	holt2018global
ERR245776	4	4.3	holt2018global
ERR245778	4	4.3	holt2018global
ERR245779	4	4.3	holt2018global
ERR245780	4	4.3	holt2018global
ERR245781	1	1.1	holt2018global
ERR245782	1	1.1	holt2018global
ERR245783	2	2.2.1	holt2018global
ERR245784	1	1.1	holt2018global
ERR245785	4	4.9	holt2018global
ERR245786	4	4.1	holt2018global
ERR245787	4	4.3	holt2018global
ERR245788	4	4.3	holt2018global
ERR245791	4	4.1	holt2018global
ERR245797	4	4.3	holt2018global
ERR245798	4	4.3	holt2018global
ERR245799	4	4.3	holt2018global
ERR245800	4	4.4	holt2018global
ERR245801	4	4.3	holt2018global
ERR245802	4	4.8	holt2018global
ERR245804	4	4.1	holt2018global
ERR245806	4	4.8	holt2018global
ERR245807	4	4.7	holt2018global
ERR245808	4	4.3	holt2018global
ERR245809	4	4.3	holt2018global
ERR245811	1	1.2	holt2018global
ERR245812	4	4.3	holt2018global
ERR245813	1	1.1	holt2018global
ERR245826	4	4.3	holt2018global
ERR245828	4	4.1	holt2018global
ERR245829	1	1.2	holt2018global
ERR245831	2	2.2.1	holt2018global
ERR245833	1	1.2	holt2018global
ERR245834	2	2.2.1	holt2018global
ERR245835	4	4.9	holt2018global
ERR245836	1	1.2	holt2018global
ERR245837	2	2.2.1	holt2018global
ERR245841	4	4.1	holt2018global
ERR245842	4	4.1	holt2018global
ERR245843	1	1.2	holt2018global
ERR245844	1	1.1	holt2018global
ERR245845	4	4.9	holt2018global
ERR245846	2	2.2.1	holt2018global
ERR245847	4	4.9	holt2018global
ERR245848	4	4.3	holt2018global
ERR550957	2	2.2.1	holt2018global
ERR551693	2	2.2.1	holt2018global
ERR552755	2	2.2.2	holt2018global
ERR553277	2	2.2.1	holt2018global
ERR552912	2	2.2.2	holt2018global
ERR551086	2	2.2.2	holt2018global
ERR550887	2	2.2.1	holt2018global
ERR552907	2	2.2.1	holt2018global
ERR553139	2	2.2.1	holt2018global
ERR551638	2	2.2.1	holt2018global
ERR551305	2	2.2.1	holt2018global
ERR551556	2	2.2.1	holt2018global
ERR551575	2	2.2.1	holt2018global
ERR551360	2	2.2.1	holt2018global
ERR553098	2	2.2.1	holt2018global
ERR551159	2	2.2.1	holt2018global
ERR553068	2	2.2.1	holt2018global
ERR552939	2	2.2.1	holt2018global
ERR550724	2	2.2.1	holt2018global
ERR550658	2	2.2.1	holt2018global
ERR551821	2	2.2.1	holt2018global
ERR551804	2	2.2.1	holt2018global
ERR550777	2	2.2.1	holt2018global
ERR552358	2	2.2.1	holt2018global
ERR551943	2	2.2.1	holt2018global
ERR553251	2	2.2.1	holt2018global
ERR552580	2	2.2.1	holt2018global
ERR550782	2	2.2.1	holt2018global
ERR551879	2	2.2.1	holt2018global
ERR551494	2	2.2.1	holt2018global
ERR551201	2	2.2.1	holt2018global
ERR552760	2	2.2.2	holt2018global
ERR551636	2	2.2.2	holt2018global
ERR551167	2	2.2.1	holt2018global
ERR552493	2	2.2.1	holt2018global
ERR550984	2	2.2.1	holt2018global
ERR551214	2	2.2.1	holt2018global
ERR552910	2	2.2.1	holt2018global
ERR552689	2	2.2.1	holt2018global
ERR551225	2	2.2.1	holt2018global
ERR552549	2	2.2.1	holt2018global
ERR551930	2	2.2.1	holt2018global
ERR553274	2	2.2.1	holt2018global
ERR550940	2	2.2.1	holt2018global
ERR551155	2	2.2.1	holt2018global
ERR552190	2	2.2.1	holt2018global
ERR553313	2	2.2.1	holt2018global
ERR553324	2	2.2.1	holt2018global
ERR551854	2	2.2.1	holt2018global
ERR551079	2	2.2.1	holt2018global
ERR551071	2	2.2.1	holt2018global
ERR553156	2	2.2.1	holt2018global
ERR552743	2	2.2.1	holt2018global
ERR551979	2	2.2.1	holt2018global
ERR553116	2	2.2.1	holt2018global
ERR552177	2	2.2.2	holt2018global
ERR550739	2	2.2.1	holt2018global
ERR551412	2	2.2.1	holt2018global
ERR552136	2	2.2.1	holt2018global
ERR551090	2	2.2.1	holt2018global
ERR552429	2	2.2.1	holt2018global
ERR551311	2	2.2.1	holt2018global
ERR551956	2	2.2.1	holt2018global
ERR552141	2	2.2.1	holt2018global
ERR551212	2	2.2.1	holt2018global
ERR552894	2	2.2.1	holt2018global
ERR551688	2	2.2.1	holt2018global
ERR551680	2	2.2.1	holt2018global
ERR552444	2	2.2.2	holt2018global
ERR551007	2	2.2.1	holt2018global
ERR552787	2	2.2.1	holt2018global
ERR552331	2	2.2.1	holt2018global
ERR551934	2	2.2.1	holt2018global
ERR550946	2	2.2.1	holt2018global
ERR551520	2	2.2.1	holt2018global
ERR553171	2	2.2.1	holt2018global
ERR553086	2	2.2.1	holt2018global
ERR552479	2	2.2.1	holt2018global
ERR551772	2	2.2.1	holt2018global
ERR551293	2	2.2.1	holt2018global
ERR553081	2	2.2.1	holt2018global
ERR551927	2	2.2.1	holt2018global
ERR553107	2	2.2.1	holt2018global
ERR552090	2	2.2.1	holt2018global
ERR551184	2	2.2.2	holt2018global
ERR552949	2	2.2.1	holt2018global
ERR552668	2	2.2.1	holt2018global
ERR550643	2	2.2.1	holt2018global
ERR551990	2	2.2.1	holt2018global
ERR551572	2	2.2.1	holt2018global
ERR551549	2	2.2.1	holt2018global
ERR552954	2	2.2.1	holt2018global
ERR552555	2	2.2.1	holt2018global
ERR553291	2	2.2.1	holt2018global
ERR551977	2	2.2.1	holt2018global
ERR550927	2	2.2.1	holt2018global
ERR552838	2	2.2.2	holt2018global
ERR550910	2	2.2.1	holt2018global
ERR553303	2	2.2.1	holt2018global
ERR552194	2	2.2.1	holt2018global
ERR552130	2	2.2.1	holt2018global
ERR552482	2	2.2.1	holt2018global
ERR552219	2	2.2.1	holt2018global
ERR553237	2	2.2.1	holt2018global
ERR551554	2	2.2.1	holt2018global
ERR550670	2	2.2.1	holt2018global
SRR671719	2	2.2.1	holt2018global
SRR671720	2	2.2.1	holt2018global
SRR671721	2	2.2.1	holt2018global
SRR671722	2	2.2.1	holt2018global
SRR671723	2	2.2.1	holt2018global
SRR671724	2	2.2.1	holt2018global
SRR671781	2	2.2.1	holt2018global
SRR671782	4	4.2	holt2018global
SRR671783	2	2.2.1	holt2018global
SRR671784	2	2.2.1	holt2018global
SRR671785	2	2.2.1	holt2018global
SRR671786	2	2.2.1	holt2018global
SRR671787	2	2.2.1	holt2018global
SRR671788	2	2.2.1	holt2018global
SRR671789	2	2.2.1	holt2018global
SRR671790	4	4.4	holt2018global
SRR671791	2	2.2.1	holt2018global
SRR671792	2	2.2.1	holt2018global
SRR671793	2	2.2.1	holt2018global
SRR671794	2	2.2.1	holt2018global
SRR671795	2	2.2.1	holt2018global
SRR671796	2	2.2.1	holt2018global
SRR671797	2	2.2.2	holt2018global
SRR671798	2	2.2.1	holt2018global
SRR671799	2	2.2.1	holt2018global
SRR671800	2	2.2.1	holt2018global
SRR671801	2	2.2.1	holt2018global
SRR671802	2	2.2.1	holt2018global
SRR671803	2	2.2.1	holt2018global
SRR671804	2	2.2.2	holt2018global
SRR671805	2	2.2.1	holt2018global
SRR671806	2	2.2.1	holt2018global
SRR671807	2	2.2.1	holt2018global
SRR671808	2	2.2.1	holt2018global
SRR671809	2	2.2.1	holt2018global
SRR671810	2	2.2.1	holt2018global
SRR671811	2	2.2.1	holt2018global
SRR671812	2	2.2.1	holt2018global
SRR671813	2	2.2.2	holt2018global
SRR671814	2	2.2.1	holt2018global
SRR671815	2	2.2.1	holt2018global
SRR671816	2	2.2.1	holt2018global
SRR671817	2	2.2.1	holt2018global
SRR671818	2	2.2.1	holt2018global
SRR671819	2	2.2.1	holt2018global
SRR671820	2	2.2.1	holt2018global
SRR671821	2	2.2.1	holt2018global
SRR671822	2	2.2.1	holt2018global
SRR671823	2	2.2.1	holt2018global
SRR671824	2	2.2.2	holt2018global
SRR671825	2	2.2.1	holt2018global
SRR671826	2	2.2.1	holt2018global
SRR671827	2	2.2.1	holt2018global
SRR671828	2	2.2.1	holt2018global
SRR671829	2	2.2.1	holt2018global
SRR671830	2	2.2.1	holt2018global
SRR671831	4	4.4	holt2018global
SRR671852	2	2.2.1	holt2018global
SRR671854	2	2.2.1	holt2018global
SRR671855	2	2.2.2	holt2018global
SRR671856	2	2.2.1	holt2018global
SRR671857	2	2.2.2	holt2018global
SRR671858	2	2.2.1	holt2018global
SRR671863	2	2.2.1	holt2018global
SRR671864	2	2.2.1	holt2018global
SRR671865	2	2.2.1	holt2018global
SRR671866	2	2.2.1	holt2018global
SRR671867	2	2.2.1	holt2018global
SRR671869	2	2.2.1	holt2018global
SRR671870	2	2.2.1	holt2018global
SRR671871	2	2.2.1	holt2018global
SRR671872	4	4.5	holt2018global
SRR671874	4	4.5	holt2018global
SRR671875	2	2.2.1	holt2018global
SRR671876	2	2.2.1	holt2018global
SRR671877	2	2.2.1	holt2018global
SRR671878	4	4.4	holt2018global
SRR671879	2	2.2.1	holt2018global
ERR1200629	1	1.2	holt2018global
ERR1200643	1	1.2	holt2018global
ERR1200650	1	1.2	holt2018global
ERR1200651	1	1.2	holt2018global
ERR1200652	1	1.2	holt2018global
ERR1200626	1	1.1	holt2018global
ERR1200632	1	1.1	holt2018global
ERR233365	1	1.1	holt2018global
ERR234157	1	1.1	holt2018global
ERR234207	1	1.1	holt2018global
ERR234238	1	1.1	holt2018global
ERR234240	1	1.1	holt2018global
ERR234241	1	1.1	holt2018global
ERR238746	1	1.1	holt2018global
ERR234191	1	1.2	holt2018global
ERR233374	1	1.1	holt2018global
ERR233377	1	1.2	holt2018global
ERR233380	1	1.2	holt2018global
ERR233376	1	1.1	holt2018global
ERR234155	1	1.1	holt2018global
ERR234156	1	1.1	holt2018global
ERR234185	1	1.1	holt2018global
ERR233372	1	1.1	holt2018global
ERR233363	1	1.1	holt2018global
ERR234217	1	1.1	holt2018global
ERR234224	1	1.2	holt2018global
ERR234264	1	1.2	holt2018global
ERR234266	1	1.2	holt2018global
SRR014813	1	1.2	holt2018global
SRR017356	1	1.2	holt2018global
SRR1144742	1	1.2	holt2018global
ERR234182	1	1.1	holt2018global
ERR234194	1	1.1	holt2018global
ERR234197	1	1.1	holt2018global
ERR234169	1	1.1	holt2018global
ERR234235	1	1.1	holt2018global
ERR234236	1	1.1	holt2018global
ERR234237	1	1.1	holt2018global
ERR234164	1	1.2	holt2018global
ERR234165	1	1.1	holt2018global
SRR006916	1	1.1	holt2018global
SRR006920	1	1.1	holt2018global
ERR234272	1	1.2	holt2018global
ERR234205	1	1.1	holt2018global
ERR233353	1	1.2	holt2018global
ERR233351	1	1.1	holt2018global
SRR006919	1	1.1	holt2018global
ERR233356	1	1.2	holt2018global
ERR233364	1	1.2	holt2018global
ERR234262	1	1.2	holt2018global
ERR047880	1	1.1	holt2018global
ERR017792	1	1.1	holt2018global
ERR019568	1	1.1	holt2018global
ERR019866	1	1.1	holt2018global
ERR1213884	1	1.2	holt2018global
ERR1213908	1	1.2	holt2018global
ERR1213909	1	1.2	holt2018global
ERR1213910	1	1.2	holt2018global
ERR1213921	1	1.1	holt2018global
