ERR036223	https://sra-pub-run-odp.s3.amazonaws.com/sra/ERR036223/ERR036223	1.2	1.2	holt2018global	1	1
ERR037489	https://sra-pub-run-odp.s3.amazonaws.com/sra/ERR037489/ERR037489	1.2	1.2	holt2018global	1	1
ERR037496	https://sra-pub-run-odp.s3.amazonaws.com/sra/ERR037496/ERR037496	1.2	1.2	holt2018global	1	1
ERR1213884	https://sra-pub-run-odp.s3.amazonaws.com/sra/ERR1213884/ERR1213884	1.2	1.2	holt2018global	1	1
ERR1213908	https://sra-pub-run-odp.s3.amazonaws.com/sra/ERR1213908/ERR1213908	1.2	1.2	holt2018global	1	1
ERR1213909	https://sra-pub-run-odp.s3.amazonaws.com/sra/ERR1213909/ERR1213909	1.2	1.2	holt2018global	1	1
ERR1213910	https://sra-pub-run-odp.s3.amazonaws.com/sra/ERR1213910/ERR1213910	1.2	1.2	holt2018global	1	1
ERR212089	https://sra-pub-run-odp.s3.amazonaws.com/sra/ERR212089/ERR212089	1.2	1.2	holt2018global	1	1
ERR212107	https://sra-pub-run-odp.s3.amazonaws.com/sra/ERR212107/ERR212107	1.2	1.2	holt2018global	1	1
ERR221625	https://sra-pub-run-odp.s3.amazonaws.com/sra/ERR221625/ERR221625	1.2	1.2	holt2018global	1	1
ERR221652	https://sra-pub-run-odp.s3.amazonaws.com/sra/ERR221652/ERR221652	2.2	2.2	holt2018global	1	1
ERR245651	https://sra-pub-run-odp.s3.amazonaws.com/sra/ERR245651/ERR245651	1.2	1.2	holt2018global	1	1
ERR245727	https://sra-pub-run-odp.s3.amazonaws.com/sra/ERR245727/ERR245727	1.2	1.2	holt2018global	1	1
ERR245833	https://sra-pub-run-odp.s3.amazonaws.com/sra/ERR245833/ERR245833	1.2	1.2	holt2018global	1	1
ERR245836	https://sra-pub-run-odp.s3.amazonaws.com/sra/ERR245836/ERR245836	1.2	1.2	holt2018global	1	1
SRR1144742	https://sra-pub-run-odp.s3.amazonaws.com/sra/SRR1144742/SRR1144742	1.2	1.2	holt2018global	1	1
